{
    "AMS": {
        "subtitle": "Positiivselt laetud ioonid väljuvad iooniallikast lihtsalt erineva kiirusega. Kombineerides Wieni filtrit ja magnetväljas toimuvat kõrvalekallet, saab nende massi määrata. See võimaldab näiteks analüüsida isotoopide segusid.",
        "slit-0": "kitsas",
        "setup-3": "Tundmatu proov",
        "title": "Massispektromeeter",
        "source": "Osakeallikas",
        "filter": "Viini filter",
        "deflector": "Ümbersuunamine",
        "setup-1": "Segu ¹⁴C / ¹²C",
        "setup-2": "Segu ³⁵Cl / ³⁷Cl",
        "setup": "Näide",
        "setup-0": "Puhas ¹²C",
        "slit-2": "lai",
        "menu": "Massispektromeetri simulatsioon Bainbridge'i järgi"
    },
    "AppContributors": {
        "thanks-to-extended": "Suur Tänu {thanks} toetuse eest ja kõigile tõlkijatele [translate.codeberg.org](https://translate.codeberg.org/)!",
        "thanks-to-simple": "Suur tänu kõigile tõlkijatele [translate.codeberg.org](https://translate.codeberg.org/projects/mintapps/)!",
        "online-version": "Minge selle rakenduse veebiversioonile",
        "developed": "See rakendus on osa [MintApps](https://codeberg.org/MintApps/client#user-content-mintapps).",
        "developed-by": "Selle rakenduse töötas välja {authors} ja see on osa [MintApps](https://codeberg.org/MintApps/client#user-content-mintapps).",
        "info-mail": "Kui märkate rakenduses või selle tõlkes vigu, palun andke neist teada [email]({mail})."
    },
    "AsciiMath": {
        "hint": "See lehekülg põhineb skriptil \"ASCIIMathML.js\", [projekti lehel](http://asciimath.org/) leiate hea ülevaate käskudest.",
        "input-placeholder": "Palun sisestage valem AsciiMath süntaksis siia!",
        "title": "AsciiMath Treener",
        "subtitle": "[AsciiMath](http://asciimath.org/) on lihtsasti kirjutatav märgistuskeel matemaatiliste valemite jaoks. Proovige seda interaktiivses treeneris!",
        "menu": "Määrake lihtsalt matemaatilised valemid AsciiMath süntaksis"
    },
    "Atwood": {
        "title": "Atwoodi tilkamismasin",
        "height": "Kõrgus vasakule",
        "radiusP": "Raadiusrull",
        "massS": "Köie mass",
        "massP": "Massirull",
        "menu": "Atwoodi langetamismasina simulatsioon, võttes valikuliselt arvesse köie ja rihmaratta massi",
        "force-2": "Kaalu- ja köiejõud"
    },
    "Ballistic": {
        "subtitle": "Ballistiline pendel leiutati juba 1742. aastal mürskude kiiruse määramiseks. Selles simulatsioonis tulistatakse väike kuul horisontaalselt ja see tabab pendliplokki. Kas suudate maksimaalse läbipainde põhjal välja arvutada löögikiiruse?",
        "title": "Ballistiline pendel",
        "mass-bullet": "Palli mass",
        "mass-block": "Massiplokk",
        "impact-0": "Täiesti ebaelastiline",
        "impact-1": "Täiesti elastne",
        "string-length": "Köie pikkus",
        "setup": "Käivituskiirus",
        "setup-0": "Teadmata",
        "show-scale": "Näita nurga skaalat",
        "setup-1": "Muutuv",
        "menu": "Ballistilise pendli simulatsioon mürskude kiiruse määramiseks"
    },
    "BinomDist": {
        "subtitle": "Oletame, et tehakse rida ``n`` sarnaseid ja sõltumatuid katseid, millest igaüks on edukas sama tõenäosusega ``p``. Binoomjaotus ``B_(n,p)(k)`` kirjeldab sel juhul tõenäosust, et täpselt ``k`` katsed on edukad.",
        "info-sum": "Kumulatiivne jaotusfunktsioon ``F_(n,p)(k)`` annab tõenäosuse, et õnnestumine toimub kõige rohkem ``k`` korda:",
        "title": "Binomiaaljaotus",
        "n": "Korduste arv",
        "p": "Edukuse tõenäosus",
        "expectation": "Oodatav väärtus",
        "variance": "Erinevus",
        "showSum": "Näita kumulatiivset jaotusfunktsiooni",
        "card-sum": "Kumulatiivne jaotusfunktsioon",
        "k": "Maksimaalne edusammude arv",
        "sum": "Tõenäosus",
        "menu": "Kogege interaktiivselt üht tuntumat tõenäosusjaotust"
    },
    "Capacity": {
        "subtitle": "Mahtuvuse ``C`` kondensaatorit saab laadida takisti ``R_1`` kaudu või tühjendada ``R_2`` kaudu. Voolu tugevust ja kondensaatori pinget mõõdetakse kahe mõõteseadme abil.",
        "title": "Kondensaatori laadimine ja tühjendamine",
        "menu": "Kondensaatori laadimis- ja tühjendamisprotsessi simulatsioon takisti kaudu"
    },
    "CentralForce": {
        "title": "Keskne jõud",
        "mode-1": "Realistlik",
        "mode-0": "Ideaalne",
        "info": "Punane joon sümboliseerib valgusväravat, mida kasutatakse ringlemisaja mõõtmiseks. Iga kord, kui valgusvihk katkestab osuti, uuendatakse näitu.",
        "subtitle": "Eksperiment keskse jõu määramiseks - varieerige parameetreid, et uurida nende mõju.",
        "force": "Jõumõõtur",
        "radius": "Raja raadius",
        "motor-voltage": "Tööpinge mootor",
        "output-T": "Tsükliaeg",
        "menu": "Virtuaalne katse keskse jõu määramiseks"
    },
    "Collision": {
        "subtitle": "Kahe purilennuki elastse või elastse löögi Simuleerimine lennukis, jättes tähelepanuta hõõrdumise. Katsel on ruudukujuline alus, mille külje pikkus on täpselt üks meeter, purilennukite läbimõõt on ``10unit(cm)``.",
        "title": "Kahemõõtmeline tõukejõud",
        "params-glider": "Purilennuki parameetrid",
        "more-settings": "Edasised Seaded",
        "impact-type-1": "mitteelastne",
        "visualization": "Visualiseerimine",
        "visualization-0": "ilma",
        "show-velocity": "Kiirusvektorite näitamine",
        "show-raster": "Kuva taustavõrk",
        "card-momentum": "Impulsi diagramm",
        "vert-dist": "Vertikaalne kaugus",
        "impact-type-0": "elastne",
        "visualization-2": "Stroboskoop (5 fps)",
        "menu": "Kahe kera elastse või mitteelastse kokkupõrke simulatsioon lennukis"
    },
    "Complex": {
        "mult": "Kui korrutatakse kaks kompleksarvu ``a`` ja ``b``, siis …\n\n- on tulemuse summa võrdne summade korrutisega\n- on tulemuse nurk, mis on võrdne üksikute nurkade summaga",
        "div": "Kui jagatakse kaks kompleksarvu ``a`` ja ``b``, siis …\n\n- on tulemuse summa, mis on võrdne summade jagatisega\n- on tulemuse nurk, mis on võrdne üksikute nurkade erinevusega",
        "sqr": "Kui kompleksarv ``a`` on ruudus, siis …\n\n- on tulemuse summa võrdne summa ruuduga\n- on tulemuse nurk, mis on võrdne algse numbri",
        "subtitle": "Kompleksarvudest võib mõelda kui punktidest kahemõõtmelises tasapinnas-Gaussi numbritasandil. Seetõttu saab neid kujutada kahe koordinaadiga (reaalne ja kujuteldav osa) või vastavalt vektoriga sarnase suuruse ja nurgaga. Jälgige ise, kuidas erinevad aritmeetilised toimingud on Gaussi numbritasandil esindatud.",
        "info-input": "Tulemuse arvutamiseks sisestage üks või kaks numbrit ja vajutage aritmeetilise operatsiooni nuppu",
        "plus": "Kui kaks kompleksarvu liidetakse, vastab tulemus vektorsummale Gaussi arvutasandil.",
        "minus": "Kui kaks kompleksarvu lahutatakse, vastab tulemus vektori erinevusele Gaussi arvutasandil.",
        "info-numeric-values": "Palun sisestage kõikidesse väljadesse ainult numbrilised väärtused.",
        "info-division-zero": "Samuti ei ole kompleksarvude puhul defineeritud jagamine 0-ga.",
        "title": "Komplekssed arvud",
        "card-plane": "Gaussi numbritasand",
        "sqrt": "Kui kompleksarv ``a`` on ruut, siis …\n\n- on tulemuse absoluutväärtus võrdne absoluutväärtuse ruutjuurega\n- tulemuse nurk on võrdne poolega algarvu nurgast",
        "exponential": "Kui arvutatakse eksponentsiaalfunktsioon ``e^a``, siis…\n\n- nurk on võrdne ``a`` kujuteldava osaga\n- absoluutväärtus on võrdne ``a`` reaalosa eksponentsiaalfunktsiooniga.",
        "menu": "Lihtne kalkulaator keeruliste arvude jaoks koos põhiliste aritmeetiliste operatsioonidega"
    },
    "Compton": {
        "subtitle": "Kui Röntgenfootonid tabavad ainet, on mõned neist hajutatud nii, et nende energia väheneb – või lainepikkus suureneb. Compton tõlgendas seda tähelepanekut edukalt footoni ja välise kvasifree elektroni täielikult elastse kokkupõrkena, mis neelab osa energiast. Kui aga hajumine toimub kindlalt seotud siseelektronil, siis lainepikkus ei muutu (Rayleigh hajumine).",
        "title": "Comptoni efekt",
        "anode": "K~α~ kiirgus alates",
        "crystal": "Kadunud keha",
        "crystal-0": "Materjal 1",
        "crystal-1": "Materjal 2",
        "inputPhi": "Hajutamisnurk",
        "outputP": "K~α~ liin (esmane kiirgus)",
        "outputSR": "Rayleigh' hajutatud kiirgus",
        "outputS": "Hajutatud kiirgus Compton",
        "card-spectrum": "Hajutusspektri fotonid",
        "intensity": "Intensiivsus (tippude kõrgused) & laiused kvalitatiivsed)",
        "primary-radiation": "Esmane kiiritus",
        "k-alpha-filtered": "K~α~ line filtreeritud",
        "delta-e": "Energia erinevus",
        "card-momentum": "Impulssdiagramm Comptoni hajumine",
        "secondary-radiation": "Hajutatud kiirgus",
        "delta-lambda": "Lainepikkuse erinevus",
        "rayleigh-compton": "Rayleigh ja Compton",
        "menu": "Fotoonide mitteelastiline hajumine kvaasivabade elektronide poolt"
    },
    "Diffraction": {
        "info-vectors": "Puudutage häirete kujutist või viige hiir konkreetsesse asendisse, et kuvada osuti diagrammi.",
        "subtitle": "Ühe-, kahe- või mitmekordse pilu taga oleva difraktsiooni ja interferentsimustri simulatsioon",
        "title": "Valguse interferentsus",
        "inputG": "Keskkauguse veerg",
        "inputB": "Lõhe laius",
        "setup-0": "Nurgast sõltuv mõõtmine",
        "setup-1": "Projektsioon lameekraanil",
        "inputScreenSize": "Mõõtmete varjund",
        "inputD": "Kaugusekraan",
        "show-vectors": "Näita käte superpositsiooni",
        "model-0": "vähetähtsad",
        "card-vectors": "Käte superpositsioon",
        "sum-vector": "Summa vektori summa",
        "menu": "Valguse difraktsioon ja interferents ühe-, kahe- või mitmekordse pilu juures"
    },
    "Dipole": {
        "info-coords": "Dipool asub koordinaatsüsteemi z-teljel, graafiline kujutis on esitatud vahekaardil \"Teave\".",
        "title": "Hertzi dipool",
        "subtitle": "Elektri- ja magnetväljade visualiseerimine Hertzi dipooli läheduses",
        "field-type": "Põllu tüüp",
        "field-type-0": "Elektriväli",
        "field-type-1": "Magnetväli",
        "presentation-2": "Joondiagramm",
        "plane-orientation-1": "risti dipooliga (x-y-tasand)",
        "plane-orientation": "Orienteerumi",
        "plane-orientation-0": "Paralleelselt dipooliga (x-z-tasand)",
        "show-dipole": "Näita dipooli",
        "menu": "Elektri- ja magnetväljad Hertzi dipooli läheduses"
    },
    "Dualism": {
        "subtitle": "Topeltlõiked on kiiritatud väga väikese intensiivsusega valgusega, nii et ajaühikus langeb ainult mõni fotoon. Topeltlõike taga on filmiriba, mis muutub mustaks, kui fotoon seda tabab.",
        "card-distribution": "Tõenäosuse jaotumine",
        "displayPsi": "Näita tõenäosusjaotust",
        "inputD": "Kaugus filmiriba",
        "inputScreenSize": "Kõrgus filmilint",
        "psi2": "{'|'}Ψ{'|'}² ei ole normaliseeritud",
        "setup-0": "Standardne struktuur",
        "setup-1": "Milline viis teave",
        "setup-2": "Kvantkustuti",
        "single-photon": "Üksik fotoon",
        "title": "Kahekordse pilu eksperiment",
        "menu": "Topeltpilu tabavate footonite käitumise simulatsioon"
    },
    "ElectronDiffraction": {
        "lambda": "Aine lainepikkus",
        "material-0": "Grafiidikiht",
        "material-1": "Magneesiumoksiid",
        "no-ring": "Ei ole sõrmust",
        "screen-distance": "Ekraani kaugus",
        "show-scale": "Näita skaalat",
        "subtitle": "Simuleerida elektronide difraktsiooni polükristallilisel kihil. Suurendage kiirenduspinget ja jälgige, kuidas interferentsimuster ekraanil muutub. Klõpsake interferentsimustris oleval ringil, et näha üksikasju.",
        "title": "Elektronidifraktsioonitoru",
        "menu": "Elektronide difraktsiooni simulatsioon polükristallilisel grafiidikihil"
    },
    "ErrorNotFound": {
        "go-home": "kodulehele",
        "subtitle": "… kahjuks ei ole juurdepääs sellele lehele enam võimalik.\nKasutage otsingut, et leida õige rakendus või minge avalehele, kus on erinevad kategooriad.",
        "title": "Oih…",
        "to-search": "otsida"
    },
    "ExampleList": {
        "search-info": "Kirjuta märksõna nimekirja kitsendamiseks:"
    },
    "FileUpload": {
        "clipboard-no-file": "Lõikelaud ei sisaldanud kehtivat faili.",
        "drag-click-info": "Lohistage pilt sellele alale, kleepige see lõikepuhvrist või valige kohalik pildifail paremal asuva nupu abil.",
        "drag-info": "Lohista fail sellele alale või kasuta nuppu kohaliku faili valimiseks.",
        "local-upload": "Valige fail",
        "max-file-size": "Fail ületab maksimaalse suuruse {size} MB.",
        "unsupported-file-type": "Seda failitüüpi ei toetata."
    },
    "Fluxline": {
        "title": "Elektriväljaliinid ja elektripotentsiaal",
        "subtitle": "Korraldage positiivsed ja negatiivsed laengud ning jälgige väljajoonte, väljatugevuse, potentsiaalsete või ekvipotentsiaalsete joonte muutusi.",
        "menu": "Elektriliste välijoonte kulgemise simulatsioon mis tahes allikate paigutusega",
        "plus": "positiivne",
        "minus": "negatiivne ⊖",
        "presentation-1": "Vektoriväli",
        "presentation-3": "Väljajooned ja tugevus",
        "presentation-4": "Välja tugevus ja vektorväli",
        "presentation-5": "Võrdpotentsiaalsed liinid",
        "sign": "Uute süüdistuste märkimine",
        "hint-place": "Kõigepealt valige uute laadimiste märk ja seejärel klõpsake simulatsioonis asuvat asukohta. Võite liigutada või muuta olemasolevaid tasusid hiirega või klõpsates neid.",
        "presentation-7": "Võrdpotentsiaalsed jooned ja potentsiaal",
        "presentation-8": "Potentsiaalne 3D - vaade"
    },
    "FourColors": {
        "subtitle": "Kui palju värve on vaja, et värvida kaardi riike nii, et kaks sama värvi ei piirneks kunagi üksteisega? Tuntud matemaatiline teoreem ütleb, et on maksimaalselt neli värvi. Lisateabe saamiseks vaadake vastavat [Wikipedia artiklit](https://en.wikipedia.org/wiki/Four_color_theorem).",
        "solved": "Te olete kõik edukalt lahendanud!",
        "title": "Neljavärviline probleem",
        "info": "Klõpsake väljal, et muuta selle värvi. Kokku on neli värvi, iga klõpsuga valitakse järgmine värv.",
        "menu": "Kaardi värvimine, kõrvuti asetsevad riigid ei tohi olla sama värvi"
    },
    "FourWins": {
        "subtitle": "Mängu eesmärk on asetada neli enda värvi kivi ritta, veergu või diagonaali kujul. Enda alustamiseks puudutage mängulaual rida. Kui valida maksimaalne mängutugevus, on siiski võimalik arvutist jagu saada - kuigi väga raske… See põhineb nn [minimax algoritmil](https://en.wikipedia.org/wiki/Minimax), mis selgitab välja parimad käigud võimalikke käike oskuslikult hinnates.",
        "title": "Neli võitu",
        "menu": "Moodusta oma värvi kividest rida, diagonaal või veerg"
    },
    "FranckHertz": {
        "ampere-meter-1": "krapsakas",
        "ampere-meter-3": "loid",
        "setup": "Täitmine Toru",
        "setup-1": "Elavhõbeda aur",
        "setup-2": "Neoongaas",
        "visibleLight": "Kuva helendav kiht",
        "visibleLight-0": "ainult nähtav valgus",
        "visibleLight-1": "ultraviolett ja nähtav",
        "title": "Franck-Hertzi eksperiment",
        "subtitle": "Elektronide liikumise simulatsioon Franck-Hertzi torus, mis põhineb [Matthias Borchardi](https://mabo-physik.de/franck_hertz-2/) ideel ja programmil. Suurendage järk-järgult kiirenduspinget ja jälgige elektronide täielikult elastset (→ *suuna muutus*) kui ka mitteelastseid lööke (→ *süttib*).",
        "scale": "Skaala",
        "menu": "Elektronide liikumise simulatsioon Franck-Hertzi torus"
    },
    "Gauss": {
        "subtitle": "cSeejärel teisendatakse maatriks edasi, kuni see on diagonaalvormil, kus lahendused saab otse välja lugeda.Seejärel teisendatakse maatriks edasi, kuni see on diagonaalvormil, kus lahendused on otse loetavad.",
        "info-add": "Lisa {a} korda rida {b} reale {c}",
        "no-solution": "Selle võrrandisüsteemi jaoks ei ole olemas unikaalset lahenduskomplekti",
        "info-no-solution": "Võrrandisüsteemi ei saa lahendada või seda ei saa üheselt lahendada - katkestage.",
        "title": "Gaussi algoritm",
        "size": "Number Tundmatu",
        "extended-matrix": "Laiendatud koefitsientide maatriks",
        "random-values": "Juhuslikud väärtused",
        "solve": "Lahustage",
        "info-mult": "Korrutage rida {a} teguriga {b}",
        "info-swap": "Ridade {a} ja {b} vahetus",
        "show-approach": "Näita lahendust",
        "invalid-values": "Palun sisestage kõikidesse väljadesse kehtivad numbrilised väärtused.",
        "info": "Sisestage koefitsiendid maatriksisse ja klõpsake nuppu \"Solve\".",
        "menu": "suvalise lineaarse võrrandisüsteemi järkjärguline lahendamine"
    },
    "General": {
        "2D": "Kahemõõtmeline",
        "3D": "Kolmemõõtmeline",
        "btn-accept": "Võta üle",
        "btn-add": "Lisa",
        "btn-back": "Tagasi",
        "btn-charge": "Koormus",
        "btn-clear": "Tühi",
        "btn-close": "Loobuma",
        "btn-continue": "Jätkama",
        "btn-copy": "Koopia",
        "btn-copy-img": "Kopeeri Pilt",
        "btn-delete": "Kustutama",
        "btn-delete-img": "Kustuta pilt",
        "btn-discharge": "Tühjenenud",
        "btn-edit": "Muutma",
        "btn-invite": "Kutsuma",
        "btn-left": "vasakule",
        "btn-move-down": "allpool",
        "btn-move-up": "top",
        "btn-next": "Rohkem",
        "btn-off": "Lülitama",
        "btn-on": "Sisselülitamine",
        "btn-pause": "Murdma",
        "btn-play": "Alusta mängu",
        "btn-reset": "Reset",
        "btn-right": "paremale",
        "btn-save": "Salvestama",
        "btn-save-data": "Andmete salvestamine",
        "btn-save-img": "Salvesta pilt",
        "btn-send": "Saatma",
        "btn-start": "Alustama",
        "btn-stop": "Lõpetama",
        "btn-summary": "Kokkuvõte",
        "card-circuit": "Elektriskeem",
        "card-data": "Mõõteandmete",
        "card-experiment": "Katse",
        "card-graph": "Funktsioonigraafik",
        "card-hints": "Üksikasjad",
        "card-image": "Graafika",
        "card-input": "Sisend",
        "card-output": "Väljund",
        "card-params": "Parameeter",
        "card-privacy": "Märkus andmekaitse kohta",
        "card-screen": "Ekraanipilt",
        "card-setup": "Ehitama",
        "color": "Värv",
        "game": "Mäng",
        "hint-3D": "Hiirega või žestidega saate pilti pöörata, suumida või liigutada.",
        "img-optional": "Pilt (valikuline)",
        "time-optional": "Aeg (vabatahtlik)",
        "no": "ei",
        "none": "Ei ole",
        "presentation": "Esindus",
        "presentation-filled": "täidetud",
        "presentation-lines": "Ainult rida",
        "recursion-depth": "Rekursioonisügavus",
        "search": "Otsi",
        "show-details": "Näita üksikasju",
        "simulation-speed": "Simulatsiooni kiirus",
        "tab-app": "Rakendus",
        "tab-exe": "Ülesanne",
        "warning-validate": "Palun parandage või täiendage punasega märgitud väljadel olevat teavet.",
        "yes": "Jah",
        "btn-cancel": "Tühista",
        "confirm-reset": "Kas te tõesti soovite kõiki kirjeid nullida?",
        "btn-record": "Rekord",
        "btn-save-video": "Video salvestamine",
        "btn-restart": "Restart",
        "hint-change-params": "Parameetrite muutmiseks klõpsake või puudutage simulatsiooni.",
        "btn-load": "Laadimine",
        "tab-index": "Overview",
        "tab-editor": "Toimetaja",
        "zoom": "Laienemine",
        "description": "Kirjeldus",
        "brightness": "Heledus",
        "share": "Jagama",
        "action": "Tegevus",
        "example": "Näide",
        "btn-hide": "Peita",
        "card-time": "Aja sõltuvus",
        "examples": "Näited",
        "settings": "Seade",
        "print": "Print",
        "print-view": "Prindi vaade",
        "information": "Informatsioon",
        "simulation": "Simulatsioon",
        "medium": "keskmine",
        "calculator": "Kalkulaator",
        "step": "Samm",
        "confirmation": "Kinnitus",
        "idealized": "idealiseeritud",
        "realistic": "realistlik",
        "normal": "normaalne",
        "select-example": "Valige üks näide",
        "qr-code": "QR-kood",
        "variable": "muutuv",
        "result": "Tulemus",
        "diagramm": "Skeem",
        "title": "Pealkiri",
        "fixed": "fikseeritud",
        "model": "Mudel",
        "sim-mode": "Simulatsioonirežiim",
        "show-coords": "Näita koordinaatsüsteemi",
        "btn-show": "Näita",
        "card-details": "Detailid",
        "show-tips": "Kasutamisjuhiste näitamine",
        "show-grid": "Näita ruudustikku",
        "info-copy": "Sisu on kopeeritud lõikepuhvrisse.",
        "select-locale-info": "Palun valige keel, milles soovite lehte kuvada, ja vajadusel kohandage oma järjehoidjaid.",
        "btn-update": "Uuenda",
        "page": "Page",
        "select": "Vali",
        "preview": "Eelvaade",
        "increase": "Suurenda",
        "btn-use": "Kasuta",
        "decrease": "Vähenda",
        "activities": "Tegevused",
        "switch": "Lülita",
        "load-local-file": "Kohaliku faili laadimine",
        "confirm-local-load": "Tähelepanu - laadimine kirjutab üle teie muudatused redaktoris või rakenduse kirjetes.",
        "security": "Turvalisus",
        "btn-check": "Kontrolli",
        "btn-step": "Samm",
        "confirm-tab-change": "Vahekaartide muutmine lõpetab mängu või sulgeb rakenduse. Oled kindel, et tahad jätkata?",
        "notice": "Märkus",
        "index": "Indeks",
        "text": "Tekst",
        "image": "Pilt"
    },
    "Colors": {
        "paletteBlack": "Must ja valge",
        "paletteBlueyellow": "Sinine- & Kollased toonid",
        "paletteGrayscale": "Hall toon",
        "paletteMintapps": "MintApps",
        "paletteRainbow": "Vikerkaar",
        "palette": "Värvipalett",
        "black": "Must",
        "blue": "Sinine",
        "brown": "Brown",
        "gold": "Gold",
        "gray": "Hall",
        "green": "Roheline",
        "orange": "Orange",
        "purple": "Purpur",
        "red": "Punane",
        "silver": "Silver",
        "white": "Valge",
        "yellow": "Kollane"
    },
    "Games": {
        "scores-nr": "Punktid: {nr}",
        "show-answer": "Näita vastust",
        "time-limit": "Tähtaeg",
        "author": "Autori",
        "license": "Litsents",
        "subject": "Õppeaine",
        "info1": "Väljad, mis on tähistatud ⬇, toetavad [Markdown Basic Syntax](https://www.markdownguide.org/cheat-sheet/#basic-syntax) ja matemaatilisi valemeid, mis kasutavad [AsciiMath Syntax](https://asciimath.org/#syntax), mis on ümbritsetud stringiga \\`\\`.",
        "info2": "Ärge kasutage brauseri nuppu Tagasi ja salvestage mäng pärast selle lõpetamist-vastasel juhul lähevad kõik muudatused kaotsi…",
        "info4": "Kas soovite oma uut mängu teistega jagada? Siis võtame selle hea meelega [Codebergi hoidlasse](https://codeberg.org/MintApps/data) MintAppides-üks e-kiri on piisav, et.",
        "info3": "Tegevuse testimiseks lülituge vahekaardile \"Mäng\" - sealt saate igal ajal redaktorisse tagasi pöörduda",
        "number-questions": "Küsimuste number",
        "difficulty": "Raskusaste",
        "info-win": "Palju õnne, sa võitsid mängu!",
        "info-lost": "Kahjuks kadunud. Aga ma olen kindel, et järgmisel mängul õnnestub!",
        "info-tie": "Joonistage … proovige kohe uuesti!",
        "start-new": "Alusta uut mängu",
        "difficulty-0": "simply",
        "difficulty-1": "medium",
        "difficulty-2": "raske",
        "playbook": "Mängulaud",
        "rules-and-tips": "Reeglid Ja Nõuanded",
        "start-info": "Mängu alustamiseks on neli võimalust:\n- Valige nimekirjast üks näide.\n- Looge uus mäng, kirjutades vahekaardile \"Toimetaja\".\n- Laadige kohalik mäng, mille salvestasite redaktorilt.\n- Laadige oma tegevus, mille olete varem serverisse salvestanud.",
        "hello-name": "Tere {name}!",
        "hello": "Hei!",
        "info-lobby": "See algab kohe…",
        "answer": "Vastus",
        "ki-starts": "Arvuti käivitub",
        "hint-difficulty": "Mängutugevus näitab, kui palju käike arvutimängija ette planeerib.",
        "question": "Küsimus",
        "confirm-delete-question": "Kas te tõesti soovite selle küsimuse kustutada?",
        "question-nr": "Küsimus {nr} alates {total}",
        "info": "Märkused toimetaja kohta",
        "music": "Muusika",
        "number-answers": "Vastuste arv: {num} {total}",
        "audio": "Muusika ja heliefektid",
        "number-cards": "Kaardipaaride arv",
        "question-type": "Küsimustüüp",
        "questions": "Küsimused"
    },
    "Maths": {
        "error-cubic": "Kuubilise spliini puhul võib iga väärtus absissil esineda ainult üks kord.",
        "fit": "Kurvi reguleerimine",
        "fit-linear-origin": "Sirge päritoluriik",
        "fit-linear": "Üldine sirge",
        "fit-spline": "Spline kuubiline",
        "axis-x": "Abstsiss",
        "axis-y": "Ordinaat",
        "fit-const": "Constant",
        "angular-dimension": "Nurga mõõtmine",
        "angular-dimension-0": "Radiaaniline meede",
        "angular-dimension-1": "Astme meede",
        "solution-set": "Lahenduskomplekt",
        "re": "Tegelik osa",
        "im": "Kujuteldav osa",
        "abs": "Summa",
        "angle": "Nurk",
        "coordinate": "Koordinaat",
        "number": "Number",
        "normal-form": "Normaalvorm",
        "zoom-ordinate": "Suum ordinaat",
        "function": "Funktsioon",
        "zero": "Null",
        "zeros": "Zeros",
        "side-length": "Külgpikkus",
        "rational-numbers": "Ratsionaalarvud",
        "whole-numbers": "Naturaalarvud",
        "arithmetic-operations": "Matemaatilised operatsioonid",
        "integer-numbers": "Täisarvud",
        "number-range": "Numbrivahemik",
        "set-of-numbers": "Numbrid",
        "product": "Toode",
        "sum": "Sum",
        "param": "Parameeter",
        "solution": "Lahendus",
        "exponent": "Eksponent",
        "fit-simple": "Split lihtne"
    },
    "Physics": {
        "period-duration": "Perioodi kestus",
        "amplitude": "Amplituudi",
        "collector": "Kogumielektrood",
        "acceleration": "Kiirendus",
        "acceleration-voltage": "Kiirenduspinge",
        "amperage": "Praegune",
        "ampere-meter": "Ampermeeter",
        "capacity": "Võimsus",
        "countrate": "Loenduskordaja",
        "detector": "Detector",
        "display-time-dependency": "Esindatus aja jooksul",
        "electric-field-strength": "Elektrivälja tugevus",
        "elongation": "Kõrvalepõige",
        "energy": "Energia",
        "frequency": "Sagedus",
        "friction": "Hõõrdumine",
        "friction-air": "Õhu hõõrdumine",
        "friction-coefficient": "Hõõrdetegur",
        "friction-mount": "Peatamine",
        "friction-mount-air": "Õhuhõõrdumine ja vedrustus",
        "friction-none": "Ei ole hõõrdumist",
        "friction-roll": "Veerev hõõrdumine",
        "friction-roll-air": "Veeremine ja õhu hõõrdumine",
        "height": "Kõrgus",
        "inductance": "Induktiivsus",
        "initial-alpha": "Algusnurk",
        "initial-velocity": "Algus-kiirus",
        "intensity": "Intensiivsus",
        "kinetic-energy": "Kineetiline energia",
        "lambda": "Lainepikkus",
        "length": "Length",
        "light-source": "Valgusallikas",
        "magnetic-flux": "Magnetvoog",
        "magnetic-flux-density": "Magnetvoo tihedus",
        "mass": "Mass",
        "material": "Materjal",
        "mirror": "Peegel",
        "momentum": "Impulss",
        "position": "Koht",
        "prism": "Prismad",
        "radius": "Raadius",
        "resistance": "Vastupidavus",
        "screen": "Vihmavarju",
        "setup": "Eksperimentaalne ülesehitus",
        "slit-diaphragm": "Vahepealne diafragma",
        "slit-dist": "Lõhe Vahekaugus",
        "slit-width": "Vahede laius",
        "time": "Aeg",
        "traction-force": "Tõmbejõud",
        "velocity": "Kiirus",
        "voltage": "Pinge",
        "voltage-source": "Pinge allikas",
        "force": "Power",
        "coordinates": "Koordinaadid",
        "initial-elongation": "Alusta kõrvalekaldumist",
        "hot-cathode": "Kuumkatood",
        "grid": "Grill",
        "charge": "Laadige",
        "tube": "Tube",
        "not-moving": "Süsteem ei liigu - kontrollige parameetreid!",
        "resulting-force": "Resultaatjõud",
        "display-forces": "Jõudude kujutamine",
        "beamsplitter": "Kiirtejagur",
        "density": "Tihedus",
        "slit-num": "Veergude arv",
        "impact-type": "Mõju liik",
        "trajectory": "Tee kõver",
        "flux-lines": "Põllujooned",
        "field-strength": "Väljatugevus",
        "negative-anode-voltage": "Loendurpinge",
        "mass-wagon": "Massikäru",
        "mass-pendulum": "Masspendel",
        "current-voltage-path": "Pinge ja voolu omadused",
        "particle-type": "Osakeste tüüp",
        "proton": "Prooton (p⁺)",
        "alpha-particle": "α-osake (α²⁺)",
        "electron": "Elektroon",
        "deuteron": "Deutroni (d⁺)",
        "potential": "Võimalik",
        "resistance-coil": "Takistusmähis",
        "temperature": "Temperatuur",
        "pressure": "Surve",
        "volume": "Helitugevus",
        "amount-of-substance": "Aine kogus",
        "local-gravity": "Kohalik gravitatsioon",
        "wave-function": "Lainefunktsioon",
        "width": "Laius",
        "start-phase": "Käivita faas",
        "angular-frequency": "Nurgasagedus",
        "photon": "Footon",
        "envelope-function": "Ümbrikufunktsioon",
        "carbon-12-ion": "Süsinikuoon (C₁₂⁴⁺)"
    },
    "GraphSettings": {
        "title": "Seadete diagramm",
        "show-legend": "Näita legendi",
        "grid-y": "Ruudustik ordinaat",
        "grid-x": "Gridlines abscissa",
        "border-0": "Koordinaatteljed"
    },
    "Hash": {
        "subtitle": "Sisestatud teksti räsiväärtus arvutatakse erinevate algoritmide, näiteks SHA1 või SHA256 abil. Arvutamine toimub teie brauseris, mis tähendab, et teie sisendit ei edastata Interneti kaudu. Lisateavet räsifunktsioonide kohta vt [Wikipedia](https://en.wikipedia.org/wiki/Hash_function).",
        "digest-warning": "Teie valitud algoritmi peetakse nüüdseks ebaturvaliseks ja seega vananenud.",
        "info-text": "Palun sisestage tekst, et luua hash.",
        "text": "Tekst",
        "algorithm": "Algoritm",
        "title": "Hash kalkulaator",
        "menu": "Hash-väärtuste arvutamine erinevate algoritmide abil, näiteks SHA1 või SHA256"
    },
    "HorizontalPlane": {
        "subtitle": "Auto liikumise simulatsioon horisontaaltasandil. Autot saab juhtida erinevatel algkiirustel või kiirendada puhkeolekust pideva tõmbejõuga. Hõõrdeprotsesse saab valikuliselt lisada.",
        "title": "Horisontaaltasapind",
        "menu": "Liikumine horisontaaltasandil, veeremise ja õhuhõõrdumise mõjul"
    },
    "Inductance": {
        "title": "Iseinduktsioonimähis",
        "subtitle": "Iseinduktsiooni Simuleerimine mähises sisse-ja väljalülitamise protsesside ajal",
        "inputL": "Induktiivsus mähis",
        "menu": "Eneseinduktsiooni simulatsioon mähises koos sisse- ja väljalülitusprotsessidega"
    },
    "Induction": {
        "subtitle": "Kui juhi silmus on tõmmatud homogeensest magnetväljast, luuakse induktsioonpinge. Sellel lehel saate seda protsessi ise simuleerida, muutes testi parameetreid.",
        "title": "Induktsioon juhtsilmuses",
        "inputb": "Lai silmus",
        "outputU": "Induktsioonpinge",
        "menu": "Liikuva juhtsilmuse induktsioonpinge simulatsioon magnetväljas",
        "show-flux": "Magnetvoo näitamine",
        "show-voltage": "Induktsioonpinge näitamine"
    },
    "InputNumber": {
        "enter-number": "Palun sisestage kehtiv number!",
        "min-number": "Väärtus peab olema vähemalt {min}!",
        "max-number": "Maksimaalne väärtus võib olla {max}!",
        "integer-number": "Palun sisestage täisarv!"
    },
    "InputText": {
        "min-length": "Sisend peab olema vähemalt {min} tähemärki!",
        "max-length": "Sisendil võib olla maksimaalne {max} märgid, kuid praegu on see {length}!",
        "invalid-input": "Sisend sisaldab kehtetuid märke!"
    },
    "Julia": {
        "subtitle": "Sõltuvalt põhifunktsioonist on Julia komplektid sageli fraktalid, mida esitatakse intrigeerivate kujutistena. Jälgige parameetri ``c`` mõju ja otsige *ilusaim* Julia komplekt.",
        "choose-param-julia": "Valige polünoomfunktsiooni ``x^2+c`` parameeter ``c``:",
        "resolution": "Resolutsioon",
        "resolution2": "kõrge resolutsioon",
        "paletteNames-out": "Värvid välispiirkond",
        "paletteNames-in": "Värvid sisemine ala",
        "cornerRe": "Reaalne osa nurgas",
        "title": "Julia hulgad",
        "cornerIm": "Kujuteldav osa nurgas",
        "calculate-depth": "Arvutussügavus",
        "zoom-info": "Ruudukujulise jaotise suurendamiseks klõpsake või puudutage ja lohistage graafikat.",
        "menu": "Julia kogud on sageli muljetavaldavad fraktaalid kompleksarvude tasapinnal - kuid nõuavad palju arvutusaega…"
    },
    "Koch": {
        "title": "Cook's snowflake",
        "subtitle": "Kochi kõver defineeriti juba 1904. aastal ja on seega ajalooliselt üks esimesi ametlikult kirjeldatud fraktaale. Muutke rekursioonisügavust ja jälgige kõvera muutumist.",
        "menu": "Ajalooliselt üks esimesi võrdkülgsetest kolmnurkadest konstrueeritud fraktaale"
    },
    "LC": {
        "title": "Elektromagnetiline resonantsahel",
        "card-slope-ui": "Voolu ja pinge käik",
        "card-slope-e": "Energia kulg",
        "show-energy": "Näita energiat",
        "subtitle": "Kondensaator ühendatakse laadimiseks kõigepealt pingeallikaga ja seejärel tühjendatakse mähise kaudu. Jälgige voolu tugevuse ja pinge ning elektri-ja magnetenergia kulgu.",
        "menu": "Ideaalsest või reaalsest poolist ja kondensaatorist koosneva võnkumisahela simuleerimine"
    },
    "Life": {
        "subtitle": "1970. aastal töötas Briti matemaatik John Conway välja mängu \"elu mäng\". Mõiste mäng on eksitav, kuna mängijaid pole-parem oleks mõiste \"elu simulatsioon\". Kujutatud on ruudukujuliste rakkude koloonia, mis on paigutatud ühte tasapinda ja paljunevad sõltuvalt nende naabrite seisundist.",
        "rule-and-tips1": "Elavad rakud surevad üksindusse, kui neil on vähem kui kaks elavat naabrit.",
        "rule-and-tips2": "Elavad rakud surevad ülerahvastatuse tõttu, kui neil on rohkem kui kolm elavat naabrit.",
        "rule-and-tips3": "Surnud rakud on asustatud, kui neil on täpselt kolm elavat naabrit.",
        "rule-and-tips4": "Klõpsake lahtril, et muuta selle olekut.",
        "title": "Mängu elu",
        "no-living-cells": "Elavaid rakke enam ei ole. Lisage uusi, klõpsates või puudutades ruutusid laual.",
        "menu": "Rakukoloonia arengu simulatsioon, John Conway kuulus rakuautomaat"
    },
    "Linacc": {
        "subtitle": "Laetud elementaarosakeste liikumise simulatsioon lineaarkiirendis",
        "initial-energy": "Kineetiline energia alguses",
        "card-tubes": "Torude omadused",
        "frequency": "Pingeallika sagedus",
        "title": "Lineaarkiirendi",
        "num-tubes": "Torude arv",
        "menu": "Laetud elementaarosakeste kiirendamine vahelduvas elektriväljas"
    },
    "Linear": {
        "title": "Lineaarne võrrand",
        "subtitle": "Määrake lineaarse funktsiooni nullid.",
        "menu": "Muutuvate parameetritega lineaarse funktsiooni graafik ja nullid"
    },
    "MachZehnder": {
        "subtitle": "Kvantide sekkumist võib täheldada, kui on saadaval rohkem kui üks klassikaline tee ja pole mõõdetav, milline tee valiti. Simulatsioon näitab seda kvalitatiivselt footonite jaoks Mach-Zehnderi interferomeetris. Vanemate seadmete puhul olge kannatlik, vaja on suhteliselt suurt arvutusvõimsust…",
        "title": "Mach-Zehnderi interferomeeter",
        "card-interferometer": "Interferomeeter",
        "inputScreenSize": "Suurus vihmavari",
        "source-0": "Üksikud footonid",
        "source-1": "Laser",
        "inputDelta": "Käiguvahe",
        "card-filter": "Polarisatsioonifilter",
        "pol1": "Polarisatsioonifilter P1 top",
        "pol2": "Polarisatsioonifilter P2 alla",
        "pol3": "Polarisatsioonifilter P3 ekraan",
        "menu": "Fotoonide käitumise simulatsioon Mach-Zehnderi interferomeetris"
    },
    "Markdown": {
        "subtitle": "Markdown on lihtne märgistuskeel, mille määrasid Gruber ja Swartz 2004. aastal. Markdownis kasutatakse lihtsaid märke, nagu sidekriipsud või tärnid, mis olid juba varem levinud foorumites või kirjades.",
        "hint-input": "Sisestage siia Markdown-märgistusega tekst!",
        "info-output": "Palun sisestage tekst kaardile „Sisend või valige näide.",
        "md10": "Võrduse ``f(x)=2*x-3`` nullpunkt on ``x=3/2``",
        "md6": "Mitmerealine ala:\n\n~~~\nEsimene rida\nTeine rida\n~~~\n\nÜks `avaldus` tekstis",
        "md8": "{'|'} Pealkiri 1 {'|'} Pealkiri 2\n{'|'} --------- {'|'} ---------\n{'|'} Lahter 1 {'|'} Lahter 2\n{'|'} Lahter 3 {'|'} Lahter 4",
        "md5": "Numbriline nimekiri:\n1. alfa\n2. beeta\n3. gamma\n\nLoetelu:\n- Anton\n- Berta\n- Caesar",
        "md2": "Üks *tähtkirjas*, üks **paks** ja üks ~~joonistatud~~ sõna",
        "title": "Markdown Treener",
        "ex1": "Pealkirjad",
        "ex2": "Kursiivis, paksus kirjas või ülejoonitud^\\*^",
        "ex3": "Kõrge^\\*^ või madal^\\*^ asend",
        "ex5": "Kuula",
        "ex6": "Allikatekst",
        "ex7": "Hyperlink",
        "ex8": "Tabelid",
        "ex10": "AsciiMath valem^\\*^",
        "md1": "# Peamine pealkiri\n## Alamrubriik\nTavaline tekst",
        "md3": "^Ülaltoodud^ ja ~allakirjutatud~ sõna",
        "md7": "Koduleht [Wikipedia](https://wikipedia.de)",
        "menu": "Treener teksti sisestamiseks Markdown süntaksis",
        "md11": "ülalt\n---\nallpool",
        "ex11": "Horisontaalne joon"
    },
    "Menus": {
        "info-section-1": "Fraktaalid - põnev enesesarnasus",
        "game-section-2": "Mõistatused ja mõistatused",
        "math-section-analysis": "Analüüs",
        "math-section-linalg": "Lineaarne algebra",
        "math-section-sets": "Arvuteooria ja hulgateooria",
        "math-section-stochastics": "Stochastics",
        "physics-section-em-field": "Elektri- ja magnetväli",
        "physics-section-mechanics": "Põhiline mehaanika",
        "physics-section-optics": "Optika",
        "physics-section-oszi-waves": "Mehaanilised vibratsioonid ja lained",
        "physics-section-qm-atom": "Kvant- ja aatomifüüsika",
        "tools-section-1": "Väike abiline",
        "tools-section-2": "Keelekoolitaja",
        "game-section-1": "Viktoriini rakendused",
        "info-section-2": "Krüptograafia",
        "index-games": "Viktoriinirakendused ühele või mitmele inimesele ja mõistatusmängud",
        "index-info": "Klassikaliste arvutiteaduse teemade, eriti fraktaalide rakendused",
        "index-math": "Kasulikud kalkulaatorid tavaliste matemaatiliste probleemide lahendamiseks",
        "index-physics": "Simulatsioonid ja animatsioonid füüsika kohta - mehaanikast kvantfüüsikani",
        "index": "Värviline kogumik simulatsioone, animatsioone ja vahendeid loodusteaduslikel teemadel",
        "index-tools": "Digitaalse õpetamise vahendid, alates andmete kogumisest kuni QR-generaatoriteni",
        "index-news": "Ülevaade viimastest rakendustest ja uuendustest sellel lehel",
        "index-search": "Otsi kõiki rakenduse ja simulatsioone märksõnade järgi",
        "about": "Mastitopita",
        "contrast": "kontrastiks",
        "dark": "tume",
        "download": "Laadima",
        "games": "Mängud",
        "home": "Kodu",
        "light": "ere",
        "locale": "Keel",
        "menu": "Menüü",
        "physics": "Füüsika",
        "privacy": "Privaatsus",
        "tools": "Vahend",
        "informatics": "Teadus",
        "mathematics": "Matemaatika",
        "physics-section-thermodynamics": "Termodünaamika",
        "title": "MintApps - simulatsioonid, animatsioonid ja tööriistad",
        "lab": "Labor",
        "index-lab": "Rakendused, mis on praegu väljatöötamisel või testimisel",
        "lab-section-0": "Ehitamisel olevad rakendused",
        "lab-section-1": "Testitavad rakendused",
        "font-small": "väike",
        "font-medium": "keskmise",
        "font-large": "suured",
        "info-section-3": "Tehisintellekt",
        "locale-warning": "Tõlge keelde {locale} tehti osaliselt automaatselt ja on seetõttu kindlasti vale. Meil oleks väga hea meel teie abi üle tõlkes, lisainfot leiate [Codeberg](https://translate.codeberg.org/projects/mintapps/mintapps-basis-komponenten/).",
        "chemistry": "Keemia",
        "lab-section-3": "Dokumentatsioon ja näidis",
        "music": "Muusika",
        "physics-section-nuclear-physics": "Tuumafüüsika"
    },
    "Microwave": {
        "setup-0": "Ei mingit takistust",
        "title": "Mikrolained - peegeldumine ja polarisatsioon",
        "subtitle": "Saatev ja vastuvõttev dipool asuvad teineteise vastas ühe meetri kaugusel. Kiirte teekonnal on valikuliselt metallplaat või võre, mida saab pöörata ümber levi suunas.",
        "show-primary": "Näita esmast võlli",
        "setup-1": "Metallplaat",
        "alpha": "Nurgavõrk",
        "alpha-sender": "Nurksaatmisdipool",
        "alpha-receiver": "Vastuvõtu dipooli nurk",
        "show-secondary": "Näita sekundaarvõlli",
        "signal": "Välja tugevuse vastuvõtja",
        "menu": "Mikrolainete peegeldumine metallpinnal või ülekanne läbi võrega",
        "position-receiver": "Asukoha vastuvõtja",
        "secondary-wave": "Sekundaarne laine",
        "primary-wave": "Esmane laine"
    },
    "Millikan": {
        "title": "Millikani katse",
        "subtitle": "Selles simulatsioonis saab Millikani katse läbi viia nii ujuva kui ka konstantse välja meetodil. Esimesel juhul saab tilga raadiuse määrata sellele klõpsates.",
        "control": "Kontroll",
        "btn-spray": "Spray",
        "btn-pole-change": "Umpolari",
        "stoppwatch": "Stopper",
        "col-value": "Väärtus",
        "d": "Plaatide Vahekaugus",
        "cunningham": "Parandus väärtus Cunningham",
        "scale": "Skaala Vahekaugus",
        "density-oil": "Tihe õli",
        "density-air": "Tihe õhk",
        "viscosity-air": "Õhu Viskoossus",
        "use-cunningham": "Kasutage Cunninghami parandust",
        "info-select": "See tilk liigub endiselt liiga kiiresti, pange see alguses hõljuma.",
        "outputR": "Selle tilga raadius on {r} · 10⁻⁷ m",
        "menu": "Millikani katse simulatsioon ühe- või kaheväljalise meetodiga"
    },
    "MintCard": {
        "toggle-hidden": "Näita või peita",
        "toggle-expand": "Laiuse muutmine"
    },
    "ModalDialog": {
        "accept": "Jätka"
    },
    "News": {
        "subtitle": "Ülevaade viimastest muudatustest või täiendustest",
        "title": "Uudised",
        "menu": "Ülevaade hiljutistest muudatustest või täiendustest"
    },
    "NoMathML": {
        "info": "Te kasutate vananenud brauserit, mis ei toeta või toetab ainult osaliselt *MathML* standardit valemite kuvamiseks.\n\nPalun kasutage selle lehe jaoks Firefoxi, Safari, Chrome'i või Edge'i praegust versiooni."
    },
    "Pairs": {
        "subtitle": "Looge või mängige viktoriini, kus peate leidma sobivad kaardipaarid. Lisaks piltidele toetatakse ka Markdowni ja AsciiMath süntaksi tekste ja valemeid.",
        "title": "Leia paarid",
        "info": "Vajalik aeg: {time} sekundit, käikude arv: {moves}, punktid: {score}",
        "number": "Arv",
        "text-solved": "Te olete mängu edukalt lahendanud!",
        "add-pair": "Paari lisamine",
        "card-overview": "Ülevaade kaardipaaridest",
        "col-1-card": "1. Kaart-laadige üles pilt või sisestage tekst",
        "col-2-card": "2. Kaart-ärge sisestage siia midagi, kui kaks kaarti on samad",
        "confirm-delete-pair": "Kas te tõesti soovite selle paari kustutada?",
        "empty-pairs": "Mäng ei sisalda veel ühtegi kaardipaari, lisage need allpool oleva nupu abil.",
        "mode": "Mängurežiim",
        "mode-inverse": "Lihtne - kaartide määramine",
        "mode-normal": "Tavaline - paljastavad kaardid",
        "set": "Kaardi valik",
        "set-all": "Kõik kaardid",
        "set-sub": "Vähendatud arv",
        "info-local-game": "Saate mängida ainult sellist mängu, mille olete ise avanud, redigeerinud või editoris loonud.",
        "menu": "Mäng ühele või mitmele inimesele, milles otsitakse sobivaid kaardipaare",
        "identic-card": "Selle paari teine kaart on sama, mis esimene. Klõpsa teistsuguse pildi või teksti valimiseks.",
        "thanks-part": "Mäng läbi - näeme järgmine kord!"
    },
    "Pendulum": {
        "title": "Kellapendel",
        "mass-string": "Massvarras",
        "force-2": "Kaal ja riba jõud",
        "xreal": "Tõeline vibratsioon",
        "xharmonic": "Harmooniline ühtlustamine",
        "menu": "Kellapendli simulatsioon, valikuliselt suurte kõrvalekallete korral ja hõõrdumist arvesse võttes"
    },
    "Photoeffect": {
        "WA": "Töölt lahkumine",
        "emittor": "Fotoelektroodid",
        "filter": "Värvifilter",
        "fotocell": "Photocell",
        "hg-source": "Elavhõbedaaurulamp",
        "intensity-1": "kõrge",
        "setup-0": "Ilma pingeta",
        "setup-1": "Imemispinge",
        "subtitle": "Vaakumfotorelli simulatsioon, milles fotoelektroodi materjali, rakendatud pinget ning langeva valguse intensiivsust ja lainepikkust saab muuta. Variandi \"vastupinge\" abil on Simulatsioonist võimalik tuletada Einsteini võrrand.",
        "title": "Väline fotoefekt",
        "wavelength-0": "251 (UV-C)",
        "wavelength-1": "313 (UV-B)",
        "wavelength-2": "365 (UV-A)",
        "wavelength-3": "406 (lilla)",
        "wavelength-4": "436 (sinine)",
        "wavelength-5": "492 (türkiis)",
        "wavelength-6": "546 (roheline)",
        "wavelength-7": "578 (oranž)",
        "wavelength-8": "623 (punane)",
        "menu": "Vaakumfotoelemendi simulatsioon koos imemis- ja vasturõhuga"
    },
    "Pi": {
        "subtitle": "Ringi numbri PI arvutamine voogesituse algoritmi abil. Kaasaegses brauseris saab genereerida vähemalt 32 000 kohta pärast koma. Võib-olla leiate oma sünniaasta Pi-st?",
        "found": "Numbrite jada {search} on {n} juures. π kümnendkoht!",
        "title": "Ringnumber π",
        "enter-number": "Sisestage numbriline järjestus",
        "calculated": "Seni on arvutatud {n} numbrit…",
        "plus10": "+ 10 numbrit",
        "plus100": "+ 100 numbrit",
        "plus1000": "+ 1000 numbrit",
        "card-search": "Otsi π",
        "card-approx": "ligikaudne väärtus Pi",
        "menu": "Ringarvu Pi arvutamine suure arvu numbritega",
        "not-found": "Seda arvude jada ei leia esimestest {num} numbritest."
    },
    "Plot": {
        "btn-new": "Oma Kaart",
        "card-input-values": "Sisestage mõõdetud väärtused",
        "hint-data": "Salvestage andmed oma seadmesse või sünkroonimisserverisse, et neid hiljem laadida. Faile sünkroonimisserverist leiate vahekaardilt „Tegevused.",
        "hint-delete": "Kustuta see väärtuste paar",
        "info-input": "Sisestage väärtuste paar ja vajutage \"Saada\". Abstsiss näitab horisontaaltelge ja ordinaat vertikaaltelge.",
        "info-privacy": "Sisestatud andmed edastatakse serverisse ja salvestatakse seal ainult ühise seansi ajaks. Metaandmeid pole lingitud, St rakendus ei logi sisse, kes ja millal milliseid andmeid edastas.",
        "info-sent": "Andmed on edukalt edastatud.",
        "m": "Kalda sirge",
        "subtitle": "Mõõdetud väärtuste kuvamine diagrammil ja funktsionaalsete sõltuvuste tuvastamine, soovi korral ka mitme osalejaga meeskonnas.",
        "subtitle-part": "Olete oodatud lisama oma lugemisi",
        "t": "Telje lõikepunkt ordinaat",
        "title": "Mõõdetud väärtuste diagramm",
        "titleX": "Muutuv 1",
        "titleY": "Muutuv 2",
        "trans": "Transformatsiooni telg",
        "unitX": "Üksus 1",
        "unitY": "Üksus 2",
        "menu": "Näita mõõdetud väärtused diagrammil ja tuvastada funktsionaalne sõltuvus",
        "confirm-send": "Kas soovite tõesti saata andmeid kõigile külastajatele? See lõpetab seansi automaatselt."
    },
    "Poll": {
        "info-wait": "Palun oodake, kuni ilmub järgmine küsimus…",
        "mood-info": "Valige emotikon ja vajutage \"Saada\".",
        "select-info": "Valige valik ja vajutage \"Saada\".",
        "stars-info": "Hinda avaldust ja vajuta \"Saada\".",
        "subtitle": "Looge või alustage lühikest küsitlust, mille hindamine kuvatakse reaalajas. Vormindamiseks on toetatud Markdown ja AsciiMath süntaks.",
        "text-info": "Sisestage oma vastus ja vajutage \"Saada\". Vormindamiseks saate kasutada Markdown'i ja AsciiMath'i.",
        "thanks-part": "Täname teid uuringus osalemise eest.",
        "title": "Flash-küsitlus",
        "btn-add-question": "Lisa küsimus",
        "empty-poll": "Küsitlused koosnevad ühest või mitmest küsimusest - lisage vähemalt üks neist allpool oleva nupu abil.",
        "hint-question-options": "Võimalikud valikud, eraldatud komaga",
        "question-options": "Valikud",
        "type-boolean": "Jah-ei küsimus",
        "type-mood": "Mood",
        "type-select": "Valik nimekirjast",
        "type-stars": "Tähe hinnang",
        "type-text": "Vaba tekstiväli",
        "poll-start-info": "Uuringu alustamiseks on kolm võimalust:\n- Kasutage ühte veebis olevatest näidetest.\n- Looge uus küsitlus, minnes vahekaardile Editor.\n- Laadige kohalik küsitlus, mille olete eelnevalt redaktorist salvestanud.",
        "tab-poll": "Uuring",
        "menu": "Looge või alustage lühikest küsitlust ja vaadake reaalajas hindamist"
    },
    "Polynom": {
        "subtitle": "esitada graafiliselt ükskõik milline polünoomfunktsioon ja selle esimene, teine ja kolmas tuletis ning määrata selle nullid, ekstreemväärtused ja pöördepunktid.",
        "title": "Polünoomi funktsioon",
        "range": "Telje skaleerimine",
        "coeff": "Koefitsient",
        "card-functions": "Funktsioon ja tuletised",
        "derivative": "{n}. Tuletamine",
        "card-discussion": "Arutelu kõverate üle",
        "attribute": "Egenskab",
        "root": "Null {n}⨯",
        "terrace-point": "Terrassipunkt",
        "inflection-point": "Pöördepunkt",
        "menu": "Esitage suvaline polünoomfunktsioon koos selle tuletistega",
        "maximum": "Maksimaalne pöördepunkt",
        "minimum": "Minimaalne pöördepunkt",
        "degree": "Polünoomi aste"
    },
    "Price": {
        "title": "Suur viktoriin",
        "card-questions": "Ülevaade küsimustest",
        "edit-info": "Jokkeri puhul jätke küsimus tühjaks.",
        "edit-question": "Küsimuse muutmine",
        "num-scores": "Punktiväärtuste arv",
        "num-topics": "Teemade arv",
        "score": "Punktid",
        "scores": "Punktid - jooned",
        "time": "Aeg s",
        "topic": "Teema",
        "topics": "Teemad - Veerud",
        "menu": "Erinevatel teemadel hinnatud küsimustega mäng, mis sarnaneb telesaate \"The Grand Prize\" sarnastele küsimustele"
    },
    "Prim": {
        "subtitle": "Algarv on loomulik arv, millel on jagajatena täpselt kaks erinevat naturaalarvu. Nii lihtne kui see määratlus kõlab, on algarvud inimkonda lummanud tuhandeid aastaid. Kontrollige siit, kas teatud arv on peamine, ja avastage algarvude taga Salajased mustrid…",
        "info-ulam1": "Ulami spiraal on lihtne meetod algarvude graafiliseks esitamiseks. Selle avastas 1963. aastal matemaatik Stanis Arkaw Marcin Ulam, kui tal oli teaduslikul loengul igav…",
        "info-ulam2": "Esitus algab \"1\" keskel ja jätkub seejärel spiraalselt vastupäeva. Vaadake ise, millised struktuurid tekivad, kui algarvud on selles spiraalis värvikoodiga tähistatud.",
        "hint-one": "Arvul 1 on ainult üks loomulik osaja ja seega ei ole ta algarv 😎",
        "no-prime": "Arv {n} ei ole algarv 😢. Seda saab esitada järgmise tootena:",
        "is-prime": "Arv {n} on algarv 👍",
        "title": "Primaarvud",
        "card-is-prime": "Kas see on priimusarv?",
        "card-ulam": "Mis tekib igavusest…",
        "card-spiral": "Ulami spiraal",
        "menu": "Kontrollida, kas arv on algarv ja leida \"mustreid\" algarvude hulgast"
    },
    "Pythagoras": {
        "subtitle": "Pythagorase puu on lihtne ja samas ilus näide rekursiivse konstruktsiooniga moodustatud fraktaalist. Muutke rekursiooni sügavust ja jälgige kõvera muutust.",
        "title": "Pythagorase puu",
        "menu": "Ruutudest ja ristkülikukujulistest kolmnurkadest konstrueeritud lihtne fraktaal"
    },
    "QrGenerator": {
        "subtitle": "Lühend QR tähendab \"Quick Response\" (kiire reageerimine). Menetlus töötati välja juba 1994. aastal (st eelmisel aastatuhandel) ühe Jaapani ettevõtte poolt ja on nüüdseks laialdaselt kasutusel.",
        "text-input": "Teie andmed on kaitstud ja neid ei edastata Internetis. Veebisaitide puhul kasutage kogu aadressi, mis algab tähega https://.",
        "info-text": "QR-koodi genereerimiseks sisestage palun tekst või URL.",
        "example-txt-const": "Kas vana warlock on kord ära läinud! Ja nüüd elavad ka tema vaimud minu tahte järgi.",
        "title": "QR-generaator",
        "input": "Sisend - Teksti",
        "radius": "Nurga raadius",
        "size": "Suurus",
        "menu": "Lihtsalt looge oma QR-koodid - ilma andmete lekkimiseta"
    },
    "QrReader": {
        "hint-first-card-text": "Sinu kaamera pilt peaks olema siin nähtav - aga tundub, et see ei tööta 😮",
        "hint1": "Teie seadmesse ei ole paigaldatud kaamerat (nt arvutisse) → palun ühendage see",
        "hint3": "Teine brauseri aken kuvab juba kaamera sisu → palun sulgege see",
        "hint2": "Brauseril ei ole ligipääsu kaamerale → palun luba",
        "subtitle": "Kasutage oma seadme kaamerat või laadige üles QR-koodiga foto. Pilti ega teksti ei edastata serverile; dekrüpteerimine toimub ainult brauseris.",
        "hint4": "Te kasutate vananenud brauserit (nt Internet Explorer) → palun kasutage uusimat brauserit",
        "title": "QR-lugeja",
        "cam": "Kaamera",
        "camera-hint": "Palun hoidke kaamerat koodi kohal, et see oleks teravalt ja moonutamata jäädvustatud.",
        "menu": "Skaneerige QR-koode ilma rakendust installimata",
        "image-error": "Kahjuks ei saa sellel pildil ühtegi QR-koodi ära tunda.",
        "image": "Pilt"
    },
    "Quadratic": {
        "subtitle": "Määrake kvadraatilise funktsiooni nullid ja määrake tippude ja lineaarsete tegurite vorm.",
        "title": "Kvadraatiline võrrand",
        "vertex": "Tippude kuju",
        "linear": "Lineaarfaktori vorm",
        "menu": "Kvadraatilise võrrandi nullid, tipuvorm ja lineaarne tegurivorm"
    },
    "Quiz": {
        "average": "Keskmine",
        "btn-next-question": "Järgmine küsimus",
        "btn-show-report": "Näita skoori",
        "countdown": "Countdown",
        "empty-quiz": "Viktoriini alustamiseks peab vähemalt üks küsimus olema saadaval. Lisage see allpool oleva nupu abil.",
        "end": "End",
        "icons": "Vastuste sümbolid",
        "icons-0": "Numbrid",
        "icons-1": "Kirjad",
        "icons-2": "Ikooni",
        "info-answer": "Teave vastuse kohta",
        "info-end": "Mäng läbi!",
        "info-end2": "Kuni järgmise korrani…",
        "info-wait": "Ainult mõned sekundid järgmise küsimuseni…",
        "new-question": "Uus küsimus",
        "option-nr": "Valik {nr}",
        "order": "Vastuste järjekord",
        "order-1": "juhuslik",
        "scores": "Skoor",
        "single-player": "Üksikmängijaid",
        "subtitle": "Mäng ühele või mitmele inimesele, mis sarnaneb klassikalise valgusfoori viktoriini või telesaate \"Kes tahab saada miljonäriks?\".",
        "title": "Mint viktoriin",
        "menu": "Mäng ühele või mitmele inimesele - sarnaselt valgusfoori viktoriinile või isegi telesaatele \"Kes tahab saada miljonäriks?\"",
        "btn-duplicate": "Topeltküsimus",
        "number-options": "Valikuvõimaluste arv",
        "question-type-0": "Ühekordne valik",
        "question-type-1": "Mitmekordne valik",
        "info-edit-options": "Sisestage allpool olevasse tabelisse erinevad valikud ja märkige ristiga õige valik (üks valik) või õige valik (mitu valikut).",
        "warning-single-option": "Valige ühe valiku tüübi jaoks **täpselt üks** valik.",
        "info-part-type-0": "Vali õige vastus.",
        "info-part-type-1": "Valige ** Kõik kohaldatavad ** vastused ja seejärel vajutage \"Saada\"."
    },
    "Resonance": {
        "amplitude": "Amplituudi ergastaja",
        "area": "Vastupidavuspind",
        "card-t-x": "Aja ja asukoha diagramm",
        "exciter": "Exciter",
        "failure": "Resonantskatastroof",
        "frequency": "Sagedus patogeen",
        "spring": "Vedru kõvadus",
        "subtitle": "K vais on p vaisuvil vasakul K vatljel harmoonilise V vaisuvilaga. Vaata vibratsioon levib aja jooks koguartiklid, s vatltuvaltraamtingimustest ja summutamisestsellele superpositsiooni tulemuseksseisulaine.",
        "title": "Sunnitud võnkumine",
        "wagon": "Vedu",
        "menu": "Horisontaalne vedru pendel, mis on harmooniliselt ergastatud"
    },
    "Rocket": {
        "title": "Horisontaalne rakett",
        "subtitle": "Kui rakett lastakse horisontaalselt Maa pinna lähedale, kirjeldab see erinevaid orbiite sõltuvalt algkiirusest. Proovige seda ise - millal osutub parabool, ring, ellips või hüperbool?",
        "h0": "Kõrgus",
        "speed-info": "Mida suurem on simulatsioonikiirus, seda ebatäpsem on trajektoori numbriline simulatsioon.",
        "menu": "Horisontaalselt maapinna kohal startiva raketi lennutrajektoori simulatsioon"
    },
    "Schroedinger": {
        "subtitle": "Ühemõõtmelise statsionaarse Schr-I simulatsioon Astrdingeri võrrand elektroni jaoks. Valige üks eelnevalt määratletud potentsiaalidest ja kasutage liugurit, et leida energiaväärtused, mille jaoks mõistlik füüsiline lahendus tuleneb. Arvutamine toimub Numerovi meetodi abil, toetatakse ainult seotud olekute lahendusi.",
        "title": "Schrödingeri võrrand",
        "showGrid": "Näita koordinaatvõrgustikku",
        "btn-save": "Salvesta riik",
        "no-solution": "Puudub võnkuv või seotud lahendus",
        "type": "Vorm",
        "showPsi2": "Näita {'|'}Ψ{'|'}² asemel Ψ",
        "menu": "Ühemõõtmelise statsionaarse Šrödingeri võrrandi numbriline lahendamine",
        "finite-square-potential": "Elektron ristkülikukujulises potentsiaalikaevus",
        "finite-square-potential-desc": "Ristkülikukujuline potentsiaalne kaev reguleeritava laiuse ja sügavusega",
        "v-shaped-potential": "Elektron V-kujulises potentsiaalikaevus",
        "v-shaped-potential-desc": "V-kujuline potentsiaalikaev, mille maksimaalne sügavus on``-10unit(eV)``",
        "double-square-potential": "Elektron topeltpotentsiaaliga kaevu",
        "double-square-potential-desc": "Mõlema poti laius on ``3unit(Å)`` ja sügavus ``10unit(eV)``",
        "harmonic-potential": "Elektron harmoonilises ostsillaatoris",
        "harmonic-potential-desc": "Harmooniline ostsillaator potentsiaalifunktsiooniga ``V(x)=a*x^2``",
        "inclined-potential": "Elektron \"kõveras\" kvantkaevus",
        "inclined-potential-desc": "Kvantpuurkaev, mille põhi tõuseb lineaarselt",
        "hydrogen-potential": "Coulombi potentsiaal vesinik",
        "hydrogen-potential-desc": "Vesinikuaatomi radiaalpotentsiaal sekundaarse kvantarvu ``l=0`` korral",
        "nuclear-potential": "Coulomb-Wall α-osakeste jaoks tuumas",
        "nuclear-potential-desc": "See potentsiaal on illustratiivne ja ei kujuta endast täpset kurssi.",
        "infinite-square-potential": "Elektron lõpmatus ruudulises kaevus",
        "infinite-square-potential-desc": "Lõpmatu ruudukujuline kaev reguleeritava laiusega"
    },
    "ScreenReader": {
        "button": "Nupp",
        "card": "Näitama",
        "canvas": "Interaktiivne graafika {name}",
        "read": "Valjusti"
    },
    "Search": {
        "no-result": "Kahjuks ei leitud teie otsingusõnale tulemusi. Pange tähele, et otsing toimub ainult teie valitud keeles.",
        "enter-key": "Otsingu alustamiseks palun sisestage otsingusõna.",
        "section-apps": "Rakendused ja simulatsioonid",
        "search-key": "Otsinguväljend",
        "section-else": "Mängud ja näited",
        "title": "Otsing"
    },
    "Sierpinski": {
        "subtitle": "Sierpinski kolmnurk on matemaatik Sierpiński poolt 1915. aastal kirjeldatud fraktaal, mis tuleneb võrdkülgse kolmnurga rekursiivsest asendamisest kolme väiksema võrdkülgse kolmnurgaga.",
        "title": "Sierpinski kolmnurk",
        "filled2": "Ainult ala fraktaali täidetud",
        "filled3": "täiesti täis värve",
        "menu": "Veel üks võrdkülgsetel kolmnurkadel põhinev fraktaal"
    },
    "Skydive": {
        "subtitle": "Mitme kilomeetri kõrguselt sooritatud langevarjuhüppe simulatsioon.",
        "cw-parachute": "cw väärtuse langevari",
        "h0": "Hüppekõrgus",
        "speed": "Langemiskiirus",
        "title": "Langevarjuhüpped",
        "cw-jumper": "cw väärtuse hüppaja",
        "area-jumper": "Vastupidavuse pinna hüppaja",
        "area-parachute": "Vastupidavuse pinna langevari",
        "show-details": "Näita džempri ja vihmavarju üksikasju",
        "mass": "Kogumass",
        "open": "Avatud vihmavari",
        "card-details": "Jumper ja vihmavari",
        "show-tv": "Kiiruse kuvamine",
        "show-th": "Kõrguse kujutamine",
        "time-parachute": "Langevarju avanemise aeg",
        "show-ta": "Kiirenduse kuvamine",
        "menu": "Langevarjuhüppe simulatsioon mitme kilomeetri kõrguselt"
    },
    "Spectrum": {
        "subtitle": "Elektromagnetilise kiirguse võimsuse jaotus sõltuvalt lainepikkusest erinevate valgusallikate või katseseadeldiste puhul.",
        "visible-info": "Näidatakse nähtavat vahemikku ``380unit(nm)`` ja ``730unit(nm)`` vahel.",
        "title": "Valgusspektrid",
        "setup-1": "Gaasiväljunditoru",
        "setup-2": "LED",
        "setup-3": "Absorptsioonispekter",
        "fill-gas": "Gaasi täitmine",
        "scale-intensity": "Automaatne intensiivsus",
        "setup-0": "Hõõguv keha",
        "led": "LED värvus",
        "visible-spectrum": "Nähtav spekter",
        "spectral-dist": "Spektraalne jaotus",
        "led-0": "punane (GaAlAs)",
        "led-1": "roheline (GaP)",
        "led-2": "sinine (GaN)",
        "led-3": "valge (GaInN + värvaine)",
        "menu": "Erinevate valgusallikate või katseseadeldiste elektromagnetilised spektrid",
        "absorb-gas": "Neelduv gaas"
    },
    "SpringPendulum": {
        "title": "Vedru pendel",
        "subtitle": "Vedru pendli simulatsioon, valikuliselt kaldpöörete puhul ja õhuhõõrdumise arvessevõtmisel",
        "force-2": "Kaal ja vedrujõud",
        "spring-constant": "Kevadine konstant",
        "menu": "Vedru pendli simulatsioon, valikuliselt suurte läbipaindumiste korral ja õhuhõõrdumise arvessevõtmisel"
    },
    "StringWave": {
        "subtitle": "Köis on põnevil vasakul küljel harmoonilise võnkumisega. See vibratsioon levib aja jooksul kogu köie ulatuses, sõltuvalt raamtingimustest ja summutamisest, selle superpositsiooni tulemuseks on Seisulaine.",
        "title": "Kiikuv köis",
        "f": "Ergutussagedus",
        "A0": "Ergutusamplituud",
        "mu": "Vaigistamine",
        "right-end": "Õige ots",
        "right-end-1": "avatud",
        "right-end-2": "ei ole",
        "display": "Kuvatud lained",
        "display-0": "Superpositsioon",
        "display-1": "Üksikvõlg",
        "display-2": "Superposition ja üksikvõllid",
        "visualization": "Näidiku tüüp",
        "visualization-0": "Järjepidev köis",
        "visualization-1": "Laine masin",
        "start-oszi": "Start ostsillaatori",
        "stop-oszi": "Stopp-ostsillaator",
        "plus10s": "edasi",
        "pulse": "Üksikimpulss",
        "c": "Laine kiirus",
        "menu": "Lahtise või lahtise otsaga trossivõlli simulatsioon"
    },
    "Sudoku": {
        "subtitle": "Nõiutud Sudoku reeglid vastavad põhimõtteliselt tavalise Sudoku reeglitele. Numbrite 1 kuni 9 asemel on aga numbrid 0-9 ja tähed A-F, S.t. kokku on võimalik 16 erinevat kirjet. Mänguväljak on vastavalt suurem, see koosneb 4x4 plokkidest, millest igaühel on 4x4 ruutu.",
        "info-enter-values": "Palun sisestage kõigepealt väärtused - siis saate kontrollida, kas need on õiged.",
        "info-select-value": "Palun valige esmalt väärtus sisestusreale.",
        "title": "HEXed Sudoku",
        "check-values": "Kontrollida väärtusi",
        "info-solved": "Te olete mõistatuse edukalt lahendanud!",
        "menu": "Hiiglaslik Sudoku 16 erineva arvväärtusega"
    },
    "SyncCard": {
        "captcha-required": "Palun sisestage näidatud string, et näidata, et te ei ole robot 😁",
        "captcha-wrong": "Kahjuks oli teie sisestatud string vale!",
        "challenge-info": "Ruumi loomiseks peab teie seade kõigepealt lahendama väikese krüptograafilise mõistatuse. See võib võtta minuti.",
        "challenge-wait": "Palun oodake hetk - või kaks 😅",
        "challenge-wrong": "Kahjuks ei suutnud teie arvuti mõistatust lahendada 🤔 Laadige leht uuesti ja proovige uuesti.",
        "count-members": "Külaliste arv: {count}",
        "error-text": "Kahjuks ei saa teisi inimesi kutsuda. Selle põhjuseks on kas see, et sünkroonimisserver on valesti konfigureeritud või käivitate Mintappsi kohalikust kataloogist.",
        "info-privacy": "Osalejate anonüümsuse kaitsmiseks antakse neile juhuslikud nimed. Vastused edastatakse pseudonüümselt serverisse ja salvestatakse seal ainult ajutiselt. Lisateavet leiate privaatsuspoliitikast.",
        "invite-info-text": "Saate seda rakendust kasutada kas üksi või kutsuda teisi inimesi.",
        "invite-text": "Skaneerige koodi, et siseneda ruumi külalisena.",
        "password-required": "Palun logi esmalt sisse, kasutades selle funktsiooni kasutamiseks peamenüü nuppu.",
        "title": "Kutsuge inimesi",
        "dont-change-tab": "Püsi sellel vahekaardil pärast külaliste kutsumist või ühissessioon lõpeb."
    },
    "Teltron": {
        "subtitle": "Elektronid väljuvad hõõguvast katoodist ja neid kiirendatakse pinge ``U_B`` abil. Seejärel sisenevad nad vertikaalselt homogeensesse magnetvälja, mille tekitab Helmholzi mähispaar. Torus on madala kontsentratsiooniga gaas (NT vesinik), nii et elektronide ümmargune tee muutub löögionisatsioonide kaudu nähtavaks.",
        "UC": "Mähise pinge",
        "RC": "Ohmiline takistus",
        "show-coil": "Näita mähise andmeid",
        "title": "Keermestatud joatoru",
        "R": "Raadiuse spiraal",
        "IC": "Mähisvool",
        "show-scale": "Näita skaalat",
        "show-field": "Näita magnetvälja",
        "card-coil": "Helmholzi mähise paar",
        "N": "Pöörete arv",
        "menu": "Elektronide liikumine homogeenses magnetväljas"
    },
    "Template": {
        "example-text-1": "Esimese kaardi sisu, siin nt. tekst.",
        "last-card": "Viimane kaart",
        "first-card": "Esimene kaart",
        "second-card": "Teine kaart",
        "info-density": "Füüsikalise tiheduse lihtne arvutamine massi ja mahu järgi.",
        "example-text-2": "Valikuliselt võivad kaardid sisaldada ka jalust, mis sisaldab tavaliselt mitut nuppu.",
        "third-card": "Kolmas kaart",
        "info-display": "Seda kaarti kuvatakse ainult teatud tingimustel.",
        "title": "Rakenduse Näidis - Mall",
        "subtitle": "See leht sisaldab kõige olulisemaid elemente, mis Mintappides esinevad. See koosneb 4 kaardist, millest viimast esialgu ei kuvata.",
        "menu": "Näidisleht, mis illustreerib MintAppsi ühe lehe tüüpilist struktuuri"
    },
    "TexTrainer": {
        "text-muted": "Palun sisestage vahekaardil \"Sisend\" valem või valige näide.",
        "linear-eq": "Lineaarne funktsioon",
        "quad-eq": "Ruutfunktsioon",
        "solution-quad-eq": "Lahendusvalem kvadraatiline võrrand",
        "gaussian-normal-distribution": "Gaussi normaaljagamine",
        "matrix": "Ühikumaatriks",
        "menu": "Treener valemite sisestamiseks TeXi süntaksis"
    },
    "Throw": {
        "title": "Kiltkivi pesakond",
        "subtitle": "Muutuvate parameetrite ja valikulise õhuhõõrdumisega palli viltu viskamise simulatsioon",
        "perspective": "Perspektiivi Asukoha Skeem",
        "perspective-0": "risti teega (z-suund)",
        "perspective-1": "ülevalt (y-suund)",
        "perspective-2": "eestpoolt (x-suund)",
        "visualization": "Asukoha diagrammi visualiseerimine",
        "visualization-0": "ainult keha",
        "ymax": "Lennu kõrgus",
        "xmax": "Lennu kaugus",
        "show-values": "Väärtuste näitamine",
        "card-position": "Asukoha skeem",
        "initial-height": "Langetuskõrgus",
        "initial-speed": "Väljapaiskumise kiirus",
        "alpha": "Langemisnurk",
        "visualization-2": "Stroboskoop (10 fps)",
        "menu": "Muutuvate stardiparameetritega kallutuskäigu simulatsioon"
    },
    "Tictac": {
        "subtitle": "Selle mängu abil on lihtsalt võimalik kirjutada võitmatu programm. Proovi seda, seades oskuste tase raske! Aluseks on nn [Minimaxi algoritm](https://en.wikipedia.org/wiki/Minimax), mis tuvastab parimad, hinnates oskuslikult võimalikke käike.",
        "title": "Tic-Tac-Toe",
        "menu": "Võitke arvutit - see ei ole lihtne…"
    },
    "TiltedPlane": {
        "subtitle": "Palk on reguleeritava kaldenurgaga pikkusel ``1 unit(m)``. Kasutusjuhiste kohta vaata kaarti Teave.",
        "title": "Kaldus või kaldtasapind",
        "alpha": "Kalde tase",
        "col-0": "Asend ``x_i//unit(cm)``",
        "col-1": "Sisenemisaeg ``t_i//unit(s)``",
        "col-2": "Katkestus ``Delta t_i // unit(ms)``",
        "flag-width": "Laiad lipud",
        "light-barriers": "Kerge barjäär",
        "new-light-barrier": "Uus tõke",
        "no-light-barriers": "Palun lisage mõõtmiseks fotoelektrilised andurid.",
        "sim-mode-0": "ideaalne",
        "sim-mode-1": "reaalne",
        "speed-1": "aeglane",
        "speed-3": "kiire",
        "switch-strobo": "Kasutage stroboskoopi",
        "menu": "Kiirendatud liikumise simulatsioon koos hõõrdumisega kaldtasapinnal",
        "setup": "Stardipositsioon",
        "switch-barriers": "Valgustõkete kasutamine",
        "force-2": "Komponendid"
    },
    "UnderConstruction": {
        "text": "See rakendus on praegu veel väljatöötamisel. Oletame, et vigu on palju…"
    },
    "Vcard": {
        "subtitle": "VCardi standardi määratles konsortsium Versit hea 25 aastat tagasi ja see võimaldab aadressiandmete vahetamist. Nutitelefoni ajal on see endiselt ajakohane-nii saab kontaktandmeid hõlpsasti vahetada näiteks QR-koodi abil. Proovige seda ja looge oma kaart!",
        "hint": "Sisestatud andmed jäävad teie seadmesse ja neid ei edastata interneti kaudu. Palun jätke kõik väljad, mis ei ole nõutavad, tühjaks.",
        "bday": "Sünnipäev",
        "title": "vCard generaator",
        "firstname": "Eesnimi",
        "title-person": "Inimene",
        "lastname": "Perekonnanimi",
        "priv-data-title": "Privaatsed andmed",
        "telCell": "☎ Mobiilne",
        "telVoice": "☎ Püsiliin",
        "mail": "{'@'} E-post",
        "adrStreet": "Street & No.",
        "adrCode": "Postiindeks (PLZ)",
        "adrCity": "City",
        "adrCountry": "Riik",
        "fax": "☎ Faks",
        "website": "Veebisait",
        "job-things": "Ametlikud andmed",
        "organization": "Ettevõte",
        "contact": "Kontakti",
        "menu": "Loo oma vCardid QR-koodina - ilma andmete lekkimiseta",
        "honoric-prefix": "Auväärsed eesliited",
        "position": "Asukoht või funktsioon"
    },
    "Vidana": {
        "title": "Videoanalüüs",
        "step-4": "Valige päritolu",
        "step-5": "Valige koordinaatsüsteem",
        "step-6": "Määra skaala",
        "step-nr": "Etapp {nr}",
        "card-video": "Video",
        "btn-play": "Play",
        "btn-next-frame": "Forward",
        "btn-last-frame": "Backwards",
        "btn-delete-point": "Kustuta väärtus",
        "info-step-1": "Salvestage kaameraga oma video, kasutage kohalikku faili oma seadmest või valige salvestus vahekaardilt \"Näited\".",
        "hint-examples": "Näited on optimeeritud Safari brauserile iPadis ja Firefoxi brauserile kõigis teistes seadmetes.",
        "error-to-long": "Valitud video on liiga pikk ja ei sobi videoanalüüsiks reaalajas.",
        "eval-x-y": "x-y diagramm",
        "eval-t-x": "t-x diagramm",
        "eval-t-y": "t-y diagramm",
        "eval-t-vx": "t-vx diagramm",
        "eval-t-vy": "t-vy diagramm",
        "eval-t-ax": "t-ax-diagramm",
        "diagram": "Diagrammi tüüp",
        "diagram-1": "Read",
        "diagram-2": "Punktid ja jooned",
        "step-7": "Mõõdetud väärtuste salvestamine",
        "info-step-8": "Valige sobiv järjekord, valikuliselt võite paigutada punktide vahele tasandusjoone.",
        "error-no-frames": "Ühtegi kaadrit ei olnud võimalik videos ära tunda. Proovige analüüsi teises brauseris.",
        "step-8": "Hindamine",
        "position": "Positsioon",
        "scale": "Marsruudi pikkus",
        "eval-t-ay": "t-ay diagramm",
        "diagram-0": "Punkti",
        "info-step-7": "Nüüd märgistage keha asukoht videos ja korrake seda teiste piltide puhul, vajutades nuppu \"Edasi\" või tühikuklahvi. Kui kõik punktid on jäädvustatud, vajutage nuppu \"Next\".",
        "eval-table": "Tabel",
        "seeking": "Otsi raame…",
        "card-process": "Menetlus",
        "step-1": "Valige video",
        "step-2": "Raamide äratundmine",
        "step-3": "Valige aeg null",
        "info-step-2": "Nüüd skaneeritakse videot, et tuvastada üksikute piltide aeg. Sõltuvalt video pikkusest ja seadmest võib see võtta mitu minutit.",
        "info-step-3": "Keerake video ettepoole kuni ajahetkeni, mil aja mõõtmine peaks algama. Kinnitage oma valik, vajutades nuppu \"Next\".",
        "info-step-6": "Märkige videopildil kaks punkti, sisestage sisestusväljale mõõdetud vahemaa pikkus ja vajutage nuppu \"Järgmine\".",
        "info-step-5": "Valige liikumissuund lineaarse liikumise ja kõigi teiste protsesside puhul kaks koordinaattelge. Seejärel vajutage nuppu \"Next\".",
        "info-step-4": "Valige koordinaatsüsteemi alguspunkt ja vajutage nuppu \"Järgmine\".",
        "menu": "Ühe- või kahemõõtmelise liikumise analüüsimine videofilmi abil"
    },
    "VideoRecorder": {
        "error-video-not-supported": "Kahjuks ei toeta teie brauser või seade videosalvestust.",
        "error-video-not-allowed": "Kaamerat ei saanud käivitada. See võib olla tingitud sellest, et kaamerat kasutab mõni teine rakendus või et seaded \"Kaadrisagedus\" või \"Suund\" ei ole toetatud.",
        "record-time": "Salvestamise kestus: {time} s",
        "direction": "Suund",
        "direction-default": "Standardne",
        "direction-user": "Esikaamera",
        "direction-environment": "Tagumine kaamera",
        "framerate": "Kaadrikiirus",
        "title": "Videomagnetofon"
    },
    "WaitIcon": {
        "please-wait": "Üks hetk palun…"
    },
    "Wavepacket": {
        "subtitle": "Kui mitu vaba lainet asetatakse veidi erinevate impulssidega, saadakse lainepakett, mis liigub aja jooksul. Hoogu ja asukoha jaotuse laiused sõltuvad üksteisest Heisenbergi määramatuse põhimõtte kaudu. Muutke parameetreid ja jälgige mõju laine funktsioonile.",
        "title": "Elektron kui lainepakett",
        "guiDeltaP": "Pulsi hägusus",
        "guiDeltaX": "Asukoha hägusus",
        "card-wavepacket": "Wave pakett",
        "menu": "Vaba elektroni kujutamine lainepaketina - Heisenbergi määramatuse printsiip",
        "speed-of-light": "Valguse kiirus"
    },
    "Waves": {
        "subtitle": "Häirete või difraktsioonimustri Simuleerimine lainepaneelil erinevate eksperimentaalsete seadistuste jaoks. Vanemate seadmete puhul olge kannatlik, vaja on suhteliselt suurt arvutusvõimsust…",
        "title": "Laine vann",
        "setup-0": "Punktallikad",
        "src-num": "Allikate arv",
        "src-dist": "Allika vahekaugus",
        "screen-dist": "Kaugvaatlejad",
        "border": "Kandid",
        "border-0": "Ilma summutamiseta",
        "border-1": "Koos summutamine",
        "show-intensity": "Näita intensiivsust",
        "card-intensity": "Intensiivsuse vaatlejad",
        "card-waves": "Laine pilt",
        "menu": "Interferentsi- või difraktsioonimustri simulatsioon laineharjal",
        "error-slit-dist": "Palun kontrollige oma väärtusi – pilu laius peab olema väiksem kui pilukaugus!",
        "error-width-exceeded": "Kogulaius peab olema väiksem kui ``10unit(cm)``, sest see on lainetuspaagi suurus!"
    },
    "Wheatstone": {
        "subtitle": "Vooluahel koosneb kahest paralleelselt ühendatud seeriaahelast, millest igaühel on kaks takistit, pinget ``U_0`` rakendatakse väljastpoolt. Seda \"mõõtesilda\" kasutatakse takistite määramiseks – kui on teada näiteks kolm takistit, saab neljanda määrata Silla tasakaalustamise teel.",
        "title": "Wheatstone'i sildade vooluring",
        "showI-switch": "Näita praegusi tasemeid",
        "menu": "Ohmiliste takistuste mõõtmine elektrilise alalisvoolu korral",
        "adjust-with": "Kohanda kasutamist"
    },
    "Xray": {
        "subtitle": "Röntgenitoru emissioonispektri lihtsustatud esitus anoodi materjali ja kiirenduspinge funktsioonina. Simulatsioonis võetakse arvesse ainult joont K~ara~ ja K ~Ara~, kõrgemate difraktsioonijärjestuste mõju mõõtmisel on nähtav, kui spekter joonistatakse üle nurga.",
        "title": "Röntgenkiiretoru spekter",
        "anode": "Anoodi materjal",
        "crystal": "Pöörlev kristall",
        "inputU": "Tööpinge",
        "outputG": "Spektripiirang",
        "outputKa": "K~α~ liin",
        "outputKb": "K~β~ liin",
        "outputD": "Ruudustiku vahekaugus",
        "spectrum": "Röntgenspektrit",
        "menu": "Muutuva pinge ja valitava anoodimaterjaliga röntgenikiiretoru emissioonispekter"
    },
    "Zyklotron": {
        "subtitle": "Kiirenduse simulatsioon klassikalises tsüklotronis konstantse sagedusega või sünkrotsüklotronis, mis kohandab sagedust vastavalt relativistlikule massi suurenemisele.",
        "mode-1": "Relativistlik koos sageduse korrigeerimisega",
        "mode-2": "Suhteline ilma sageduse reguleerimiseta",
        "title": "Tsüklotron",
        "mode": "Mode",
        "mode-0": "Klassikaline",
        "rmax": "Tsüklotroni raadius",
        "menu": "Prootonite kiirendamine klassikalises või relativistlikus sünkrotronis"
    },
    "ModalDownloadApp": {
        "download-html": "HTML leht",
        "download-warning": "Palun pange tähele, et selle saidi operaator ei võta mingit vastutust allalaadimiseks kättesaadavaks tehtud failide funktsionaalsuse, turvalisuse ja viirusvabaduse eest.",
        "i-agree": "Olen lugenud teadet vastutuse kohta ja olen nõus.",
        "download-info": "Selle rakenduse saate alla laadida SCORM-paketina (selliste õppesüsteemide jaoks nagu moodle, mebis jne.)."
    },
    "Mandelbrot": {
        "menu": "Vaadake põnevat fraktaali - sõltuvalt teie arvutist võite vajada veidi kannatust…",
        "title": "Mandelbroti hulk"
    },
    "Substances": {
        "Fe": "Raud",
        "Cu": "Copper",
        "Rb": "Rubiidium",
        "Mo": "Molübdeen",
        "Na": "Naatrium",
        "Hg": "Elavhõbe",
        "air": "Air",
        "CO2": "Süsinikdioksiid (CO₂)",
        "CH4": "Metaan (CH₄)",
        "H2": "Vesinik (H₂)",
        "O2": "Hapnik (O₂)",
        "N2": "Lämmastik (N₂)",
        "Ar": "Argon (Ar)",
        "He": "Heelium (He)",
        "CO": "Süsinikmonooksiid (CO)"
    },
    "Errors": {
        "no-examples-available": "Kahjuks ei ole sellel serveril selle teema kohta ühtegi näidet.",
        "load-example": "Kahjuks ei ole valitud näide enam saadaval.",
        "local-load": "Kahjuks ei saa kohalikku faili avada, sest selle formaat on vigane.",
        "no-game": "Te ei ole veel mängu laadinud ega loonud. Lisateabe saamiseks lülituge ülevaatesse.",
        "video-format-not-supported": "Kahjuks ei toeta teie brauser seda videoformaati. Palun proovige analüüsi esmalt mõnes teises brauseris - või konverteerige video teise formaati.",
        "not-supported-browser": "Kahjuks ei toeta Teie brauser seda funktsiooni veel.",
        "captcha-expired": "Captcha ei ole (enam) kehtiv",
        "invalid-room-id": "Ruumi ID on kehtetu, palun käivitage rakendus uuesti.",
        "load-error": "Kahjuks ei saa rakendust laadida. Kontrollige oma Interneti-ühendust või valitud faili.",
        "message-invalid-json": "Saadetaval sõnumil ei ole kehtivat JSON-vormingut",
        "message-invalid-length": "Saadetava sõnumi pikkus on liiga pikk",
        "no-db-connection": "Ühendus andmebaasiga ei ole võimalik, palun käivitage rakendus uuesti.",
        "no-local-sync": "Kahjuks on ühine seanss võimalik ainult siis, kui rakendus käivitatakse veebiserverist.",
        "room-expired": "Kahjuks pole ühisistung enam saadaval.",
        "room-id-missing": "Tuba ei olnud täpsustatud",
        "room-max-number-exceeded": "Maksimaalne Tubade arv on ületatud",
        "server-no-connection": "Kahjuks ei saa ühendust konfigureeritud serveriga luua.",
        "server-connection-closed": "Ühendus serveriga on lõpetatud. Taaskäivitage rakendus.",
        "token-invalid": "Märk ei kehti",
        "no-sync-server": "Konfiguratsioonis pole sünkroonimisserverit saadaval.",
        "room-member-limit": "Kahjuks ei saa teised osalejad sellesse ruumi enam siseneda.",
        "room-history-exceeded": "Selles ruumis pole rohkem sõnumeid võimalik.",
        "wrong-app-type": "See fail loodi rakendusega \"{cause}\" ja seda saab avada ainult sellega.",
        "access-forbidden": "Teil ei ole õigust seda lehekülge vaadata.",
        "secret-invalid": "Vale kasutajanimi või parool",
        "db-duplicate-entry": "Selle nimega fail on serveris juba olemas – palun vali mõni teine.",
        "activity-not-found": "Määratud tegevus on juba kustutatud.",
        "session-invalid": "Teie seanss on lõppenud - palun logige uuesti sisse.",
        "password-invalid": "Parool ei vasta nõuetele",
        "password-mismatch": "Paroolid ei klapi",
        "account-locked": "Kasutaja lukustatud",
        "access-denied": "Juurdepääs keelatud",
        "user-invald": "Vigane kasutajanimi",
        "user-already-exists": "See kasutajanimi on juba võetud",
        "user-invalid": "Kasutaja ID pole korrektne.",
        "local-load-size": "Kahjuks ei saa kohalikku faili avada, sest see on liiga suur.",
        "invalid-action": "Toimingut ei õnnestunud teha, palun taaskäivitage rakendus.",
        "user-doesnt-exist": "Kasutajat ei ole (enam) olemas.",
        "2fa-already-enabled": "Selle konto jaoks on juba loodud kaheastmeline autentimine.",
        "quota-exceeded": "Teie salvestusruum serveris on ületatud.",
        "totp-invalid": "Vigane või aegunud TOTP token",
        "totp-not-available": "Palun aktiveerige oma profiilis kõigepealt kaheastmeline autentimine!",
        "totp-missing": "Palun sisesta korrektne märk.",
        "user-login-wait": "Palun oodake üks hetk ja korrake sisselogimist.",
        "not-owner": "Ainult ruumi omanik saab selle kustutada.",
        "user-close-sessions": "Palun sulgege kõik teised seansid ja laadige see lehekülg uuesti.",
        "local-load-invalid-id": "Kahjuks ei saa kohalikku faili avada, sest ID on vigane."
    },
    "User": {
        "password": "Parool",
        "user": "kasutaja",
        "password-info": "Te ei tea salasõna? [Installi](https://codeberg.org/MintApps/client/src/branch/main/INSTALL.md) installige lihtsalt oma MintAppsi eksemplar teie server 😎",
        "logout": "Logi välja",
        "login": "Sisselogimine",
        "login-info": "Mõned jaotised \"Mängud\" ja \"Tööriistad\" võimaldavad kutsuda külalisi ja salvestada sisu serveris. Nende funktsioonide kasutamiseks on vajalik registreerimine.",
        "locked": "Lukustatud",
        "confirm-delete": "Kas tõesti kustutada see kasutaja? Pange tähele, et kõik tegevused kustutatakse ka jäädavalt.",
        "lastlogin": "Viimane sisselogimine",
        "admin": "Administraator",
        "reset-password-info": "Kas unustasite oma parooli või teie konto on lukustatud? Seejärel saatke e-kiri trükis märgitud aadressile.",
        "change-password": "Parooli muutmine",
        "delete-account": "Kustuta konto",
        "new-password": "Uus parool",
        "repeat-password": "Korda parooli",
        "password-rules": "Parool peab sisaldama vähemalt ühte numbrit, ühte väiketähte ja ühte suurtähte ning olema 8–32 märgi pikkune.",
        "user-rules": "Kasutaja ID võib sisaldada väike- ja suurtähti, numbreid ja erimärke -_.@.",
        "terms": "Kasutustingimused",
        "terms-text": "- Tegevused salvestatakse serveris krüpteerimata kujul. Seetõttu *ei tohi te sisestada isikuandmeid*, näiteks nimesid, aadresse või fotosid, mis näitavad inimesi.\n- Tekstide ja piltide kasutamisel järgige oma riigis kehtivaid *autoriõiguse seadusi*. Kasutage sisu, mille olete ise loonud või millel on avatud litsents, näiteks [CC-BY-SA](https://creativecommons.org/licenses/by-sa/4.0/deed.et).\n- Kui te neid reegleid ei järgi, *kustutatakse* teie andmed ja konto *ette teatamata*.",
        "enable-2fa": "2FA lubamine",
        "info-totp": "Skaneerige kood rakendusega, mis toetab TOTP (ajapõhine ühekordne parool) standardit ja sisestage jätkamiseks kehtiv token.",
        "info-2fa": "Oma konto turvalisuse suurendamiseks saate aktiveerida kahe teguri autentimise (2FA).",
        "twofactor": "Kaheastmeline autentimine",
        "token": "Token",
        "info-disable-2fa": "Palun sisesta kehtiv TOTP-märk, et keelata kahefaktoriline autentimine.",
        "disable-2fa": "2FA keelamine",
        "cookie-info": "Pange tähele, et sisselogimisel seadistatakse tehniliselt vajalik seansiküpsis, mis salvestatakse brauseris piiratud aja jooksul ja kustutatakse pärast sulgemist automaatselt."
    },
    "Mathefix": {
        "correct": "Väga hästi - see on õige 🤓",
        "menu": "Mänguline vaimse aritmeetika treening",
        "subtitle": "Kõigepealt valige numbrivahemik, arv, matemaatilised toimingud ja ülesannete raskusaste. Seejärel vajutage treeningu alustamiseks nuppu. Võite kutsuda ka külalisi, kes saavad üksteisega konkureerida.",
        "title": "Mathefix",
        "calculate": "Arvuta",
        "info-done": "Mäng on läbi!"
    },
    "Perceptron": {
        "card-input": "Aktiivne andmestik",
        "card-data": "Katseandmete kogumid",
        "info-change-net": "Kõik kihtide muudatused lähtestavad määratud kaalud võrgus - nii et peate alustama treeningut uuesti nullist. Kui muudad sisendsõlmede arvu, kustutatakse ka kõik testandmekogumid.",
        "input-value": "Sisendväärtus",
        "target-value": "Sihtväljundi väärtus",
        "menu": "Lihtsa närvivõrgu simuleerimine",
        "num-layers": "Kihtide arv",
        "num-input-nodes": "Sõlmede sisendkihtide arv",
        "num-hidden-nodes": "Peidetud sõlmede arv",
        "subtitle": "Lihtsustatud, mitmekihilise närvivõrgu simuleerimine põhifunktsiooni illustreerimiseks. Kasutades esitatud näiteid, saate teada, kuidas võrk arvutusi teeb.",
        "title": "Perceptron",
        "no-data": "Praegu ei ole võrgu jaoks katseandmeid. Palun sisestage need kaardile \"Praegune andmekogum\" ja valige \"Add as test data set\".",
        "output-value": "Väljundväärtus",
        "weight": "Kaal",
        "input": "Sisend",
        "input-node": "Muutuva väärtusega sisendsõlm",
        "mse": "Keskmine ruutviga",
        "btn-add-data": "lisamine testandmekogumina",
        "confirm-reset": "Kas tõesti kustutada kõik sisendid, kaalud ja testikirjed?",
        "threshold": "Künnis",
        "show-weights": "Kaalude näitamine"
    },
    "TextBlock": {
        "translation-incomplete": "Kahjuks ei ole järgmine tekst teie keelde „{locale}“ veel tõlgitud või täielikult tõlgitud:",
        "text-not-found": "Osa või kogu järgnev tekst ei ole veel kättesaadav.",
        "text-using-other-language": "Kogu tekst - või sektsioonid - kuvatakse selle asemel \"{lang}\"."
    },
    "Storm": {
        "menu": "Kollektiivne ajurünnak Markdowni ja AsciiMathi toetusega"
    },
    "WaveEquation": {
        "title": "Lainevõrrand",
        "propagation-speed": "Paljunemiskiirus",
        "card-location": "Asukohakursus",
        "info-card-location": "Laine levimisel ``x``-telje suunas tähistab rist kindlat osakest ``x_0``-asendis.",
        "card-vector": "Vektoriskeem",
        "info-card-vector": "Osakese võnkumise ajaline kulg fikseeritud asendis ``x_0``, näidatud vektordiagrammina.",
        "wave-type": "Lainetüüp",
        "wave-type-0": "Progessiivne laine",
        "wave-type-1": "Statsionaarne laine",
        "menu": "Liikuva või seisva lineaarlaine asukoha ja aja sõltuvuse animatsioon"
    },
    "ModalDownloadFile": {
        "file-name": "Faili nimi ilma laiendita",
        "btn-local": "Faili allalaadimine",
        "btn-server": "Serveri üleslaadimine",
        "info1": "Võimaluse korral vältige failinimes erimärkide kasutamist, tavaliselt leiate faili seadme allalaadimiste kaustast.",
        "info2": "Selle tegevuse päästmiseks on põhimõtteliselt kaks võimalust:\n- Laadi alla JSON-vormingus fail, mida saate hiljem selles rakenduses uuesti avada. Kui võimalik, ära kasuta failinimes erimärke.\n- Laadige serverisse, nii et see kuvatakse selle rakenduse ülevaate lehel ja saate seda otse teiste külalistega jagada. Selle funktsiooni kasutamiseks peate olema sisse logitud.",
        "btn-server-overwrite": "Ülekirjutamine",
        "upload-duplicate": "Sama nimega fail on serveris juba olemas. Valige teine nimi või klõpsake \"Ülekirjuta\", kui soovite selle asendada."
    },
    "Rcalc": {
        "first-card": "Sõrmuste üksikasjad",
        "resistorvalue": "Takisti väärtus",
        "ring-number": "Sõrmuste arv",
        "subtitle": "Takistite elektrilised väärtused kodeeritakse sageli värviliste rõngaste abil. On erinevaid süsteeme, millel on tavaliselt neli, viis või isegi kuus rõngast. Üksikasjad leiate [Wikipedia](https://en.wikipedia.org/wiki/Electronic_color_code#Color_band_system).",
        "temp-coefficient": "Templikoefitsient",
        "title": "Takistite värvikoodid",
        "tolerance": "Sallivus",
        "menu": "Takistuse väärtuse arvutamine värviliste rõngaste abil",
        "ring100": "Sajad",
        "ring1": "Ühed",
        "ringK": "Templikoefitsient",
        "ringM": "Kordaja",
        "ringT": "Sallivus",
        "ring10": "Kümned"
    },
    "TDChange": {
        "title": "Oleku termodünaamiline muutus",
        "subtitle": "Isobaarse, isokoorse, isotermilise ja adiabaatilise oleku muutuste esitus",
        "change": "Riigivahetus",
        "isotherm": "isotermiline",
        "isochor": "isokooriline",
        "isobar": "isobaaride",
        "adiabatic": "adiabaatiline",
        "card-states": "Riigi muutujad ja muudatused",
        "card-energy": "Protsessimuutujad",
        "adiabatic-index": "Adiabaatiline eksponent",
        "units": "Üksused",
        "material": "Gaasi täitmine",
        "info-energy": "Kõigepealt lisage vähemalt üks riigi muudatus.",
        "heat-capacity": "Soojusenergia erivõimsus",
        "show-energy": "Protsessimuutujate näitamine",
        "specific-gas-constant": "Gaasikonstant",
        "confirm-material": "Kas sa tõesti tahad gaasi vahetada? See lähtestab kõik varasemad kirjed.",
        "eta": "Tõhusus",
        "epsilon": "Toimivuskoefitsient",
        "menu": "Isobaarsete, isokooriliste, isotermiliste ja adiabtiliste seisundimuutuste kujutamine",
        "info-change": "Vali uude olekusse ülekantava oleku muutus. Isotermilise, isokoorilise või isobaarse olekumuutuse korral defineerib see juba uue oleku oleku olekumuutuja.",
        "short-title": "Termodünaamika"
    },
    "ActivityList": {
        "confirm-delete": "Kas tõesti kustutada see tegevus?",
        "login": "Palun logige kõigepealt sisse, et näha serverisse salvestatud tegevuste nimekirja.",
        "no-activities-available": "Sa ei ole veel salvestanud selle teemaga seotud tegevusi selles serveris.",
        "title": "Omaette tegevus"
    },
    "UserData": {
        "subtitle": "Ülevaade kõigist serverisse salvestatud failidest",
        "no-activities-available": "Sa ei ole veel salvestanud ühtegi tegevust selles serveris."
    },
    "UserAdmin": {
        "title": "Juhtimine",
        "subtitle": "Konfigureeritud sünkroonserveri ruumide, tegevuste ja kasutajate haldamine",
        "expires": "Aegumisaeg",
        "created": "Loo aega",
        "room-name": "Nimi",
        "room-type": "Tüüp",
        "confirm-delete-room": "Kas tõesti kustutada see ruum?",
        "no-rooms": "Praegu ei ole serveris aktiivseid ruume.",
        "card-rooms": "Aktiivsete ruumide nimekiri",
        "card-activities": "Salvestatud tegevuste nimekiri",
        "edit-user": "Muuda kasutajat",
        "card-users": "Kasutajate nimekiri",
        "edit-password": "Uue parooli määramine",
        "add-user": "Lisa kasutaja",
        "owner": "Omanik",
        "hint-edit-password": "Parooli muutmine lähtestab ka iga kaheastmelise autentimise, mida saab lubada.",
        "no-activities": "Praegu ei ole serveris salvestatud tegevusi."
    },
    "UserProfile": {
        "title": "Profiil",
        "subtitle": "Oma profiili haldamine seadistatud sünkroonimisserveris",
        "confirm-delete": "Nõustun, et minu konto ja kõik serveris salvestatud andmed kustutatakse.",
        "confirm-password-change": "Teie salasõna on edukalt muudetud."
    },
    "Hydrogen": {
        "title": "Vesinikuaatom",
        "input-n": "Peamine kvantarv",
        "input-m": "Magnetkvantarv",
        "menu": "Orbiitide ja lainefunktsioonide kujutamine vesiniku aatomis",
        "input-l": "Sekundaarne kvantarv",
        "angular-function": "Lainefunktsiooni nurksõltuvus",
        "distribution-function": "Tõenäosustihedus tasapinnal",
        "plane": "Tasapinna orientatsioon",
        "radial-function": "Lainefunktsiooni radiaalne osa"
    },
    "Documentation": {
        "title": "Kliendi dokumentatsioon",
        "menu": "MintAppsi komponentide ja teekide dokumentatsioon",
        "title-server": "Serveri dokumentatsioon",
        "menu-server": "MintAppsi vabatahtliku serverirakenduse dokumenteerimine"
    },
    "Info": {
        "menu": "Teave ja märkused projekti „MintApps kohta",
        "title": "MintAppisest",
        "subtitle": "MintApps on erinevate HTML5 rakenduste kogum, mis toetab digitaalset õppimist ja õpetamist tehnilistel ja teaduslikel teemadel."
    },
    "OszillationEquation": {
        "title": "Võnkumisvõrrand",
        "info-card-time": "Võnkumise aja kulg, mida näidatakse joondiagrammina",
        "menu": "Harmoonilise võnkumise ajasõltuvuse animatsioon vektor- ja joondiagrammina",
        "info-card-vector": "Võnkumise aja kulg, mida näidatakse vektordiagrammina"
    },
    "ImgEncoder": {
        "info-text": "Palun valige pilt ja see teisendatakse automaatselt.",
        "title": "Baas64 pildikooder",
        "menu": "Teisenda pildid Base64 vormingusse",
        "subtitle": "Teisendage oma pildid Base64 vormingusse, et neid otse kasutada, nt HTML-leheküljel. Faile ei edastata serverisse, seega jäävad need ainult teie seadmesse.",
        "compress": "Pildi tihendamine",
        "max-size": "Maksimaalne faili suurus",
        "info-compress": "- Tihendamine on võimalik ainult png või jpg piltide puhul.\n- Pilt tihendatakse ainult siis, kui selle faili suurus ületab määratud väärtuse.\n- Ainult sel juhul võetakse arvesse maksimaalse mõõtme täiendavat piirangut.",
        "max-dim": "Maksimaalne mõõde"
    }
}
