{
    "AMS": {
        "subtitle": "Positivt laddade joner kommer helt enkelt ut från en jonkälla med olika hastighet. Genom att kombinera Wien-filter och avböjning i magnetfältet kan deras massa bestämmas. Detta möjliggör till exempel analys av isotopblandningar.",
        "setup": "Prov",
        "setup-1": "Blandning ¹⁴C / ¹²C",
        "setup-2": "Blandning ³⁵Cl / ³⁷Cl",
        "setup-0": "Ren ¹²C",
        "setup-3": "Okänt prov",
        "slit-2": "bred",
        "slit-0": "smal",
        "deflector": "Avledning",
        "source": "Partikelkälla",
        "title": "Masspektrometer",
        "filter": "Wien-filter",
        "menu": "Simulering av en masspektrometer enligt Bainbridge"
    },
    "AppContributors": {
        "thanks-to-extended": "Stort tack till {thanks} för stödet och till alla översättare på [translate.codeberg.org](https://translate.codeberg.org/)!",
        "thanks-to-simple": "Ett stort tack till alla översättare på [translate.codeberg.org](https://translate.codeberg.org/projects/mintapps/)!",
        "developed": "Den här appen är en del av [MintApps](https://codeberg.org/MintApps/client#user-content-mintapps).",
        "online-version": "Till onlineversionen av appen",
        "developed-by": "Den här appen utvecklades av {authors} och är en del av [MintApps](https://codeberg.org/MintApps/client#user-content-mintapps).",
        "info-mail": "Om du märker några fel i appen eller dess översättning, vänligen rapportera dem via [email]({mail})."
    },
    "AsciiMath": {
        "hint": "Denna sida är baserad på skriptet \"ASCIIMathML.js\", på [projektsidan](http://asciimath.org/) hittar du en bra översikt över kommandona.",
        "subtitle": "[AsciiMath](http://asciimath.org/) är ett lättskrivet märkspråk för matematiska formler. Prova det i den interaktiva tränaren!",
        "title": "AsciiMath Trainer",
        "input-placeholder": "Vänligen ange formeln i AsciiMath syntax här!",
        "menu": "Ange helt enkelt matematiska formler i AsciiMath-syntaxen"
    },
    "Atwood": {
        "title": "Atwoods fallmaskin",
        "radiusP": "Radiusrulle",
        "height": "Höjd vänster",
        "massS": "Linans massa",
        "massP": "Massa rullning",
        "menu": "Simulering av en Atwood-fallmaskin, eventuellt med hänsyn till massorna av rep och remskiva",
        "force-2": "Vikt och repkraft"
    },
    "Ballistic": {
        "subtitle": "Den ballistiska pendeln uppfanns redan 1742 för att bestämma hastigheten hos projektiler. I denna simulering skjuts en liten kula horisontellt och träffar ett pendelblock. Kan du beräkna avfyrningshastigheten utifrån den maximala avböjningen?",
        "title": "Ballistisk pendel",
        "impact-0": "Fullständigt oelastisk",
        "impact-1": "Perfekt elastisk",
        "string-length": "Linlängd",
        "mass-block": "Massblock",
        "mass-bullet": "Bollmassa",
        "setup": "Starthastighet",
        "setup-0": "Okänd",
        "setup-1": "Variable",
        "show-scale": "Visa vinkelskala",
        "menu": "Simulering av en ballistisk pendel för att bestämma projektilernas hastighet"
    },
    "BinomDist": {
        "title": "Binomialfördelning",
        "subtitle": "Anta att en serie av ``n`` likartade och oberoende försök utförs, som alla lyckas med samma sannolikhet ``p``. Binomialfördelningen ``B_(n,p)(k)`` beskriver i detta fall sannolikheten för att exakt ``k`` försök lyckas.",
        "info-sum": "Den kumulativa fördelningsfunktionen ``F_(n,p)(k)`` anger sannolikheten för att en framgång inträffar högst ``k`` gånger:",
        "n": "Antal repetitioner",
        "showSum": "Visa kumulativ fördelningsfunktion",
        "k": "Maximalt antal lyckade försök",
        "card-sum": "Kumulativ fördelningsfunktion",
        "sum": "Sannolikhet",
        "p": "Sannolikhet för framgång",
        "expectation": "Förväntat värde",
        "variance": "Avvikelse",
        "menu": "Upplev en av de mest kända sannolikhetsfördelningarna interaktivt"
    },
    "Capacity": {
        "subtitle": "En kondensator med kapaciteten ``C`` kan laddas via motståndet ``R_1`` eller urladdas via ``R_2``. Strömmen och spänningen vid kondensatorn mäts med hjälp av två mätinstrument.",
        "title": "Laddnings- och urladdningsprocess Kondensator",
        "menu": "Simulering av laddning och urladdning av en kondensator via ett motstånd"
    },
    "CentralForce": {
        "info": "Den röda linjen symboliserar en ljusbarriär som används för att mäta cirkulationstiden. Varje gång ljusstrålen avbryts av pekaren uppdateras displayen.",
        "mode-1": "Realistiska",
        "mode-0": "Idealiserad",
        "subtitle": "Experimentera för att fastställa den centrala kraften - variera parametrarna för att undersöka deras påverkan.",
        "force": "Kraftmätare",
        "radius": "Spårradie",
        "motor-voltage": "Driftspänning motor",
        "output-T": "Cykeltid",
        "title": "Central kraft",
        "menu": "Virtuellt experiment för att bestämma den centrala kraften"
    },
    "Collision": {
        "subtitle": "Simulering av en elastisk eller oelastisk kollision mellan två glidare i planet, utan hänsyn till friktion. Experimentet har en kvadratisk botten med en sidlängd på exakt en meter, glidarna har en diameter på ``10unit(cm)``.",
        "card-momentum": "Pulsdiagram",
        "title": "Tvådimensionell påverkan",
        "params-glider": "Parameter glider",
        "vert-dist": "Vertikalt avstånd",
        "more-settings": "Fler inställningar",
        "impact-type-0": "elastisk",
        "impact-type-1": "oelastisk",
        "visualization": "Visualisering",
        "visualization-0": "utan",
        "visualization-2": "Studoskop (5 fps)",
        "show-velocity": "Visa hastighetsvektorer",
        "show-raster": "Visa bakgrundsrutnätet",
        "menu": "Simulering av en elastisk eller oelastisk stöt av två sfärer i planet"
    },
    "Complex": {
        "subtitle": "Komplexa tal kan ses som punkter på ett tudimensionellt plan - det Gaussiska talplanet. De kan därför representeras på samma sätt som en vektor med två koordinater (reell och imaginär del) eller absolut värde och vinkel. Observera själv hur de olika aritmetiska operationerna representeras i det Gaussiska talplanet.",
        "mult": "Om två komplexa tal ``a`` och ``b`` multipliceras, så …\n\n- Resultatet är lika med produkten av beloppen\n- resultatets vinkel är lika med summan av de enskilda vinklarna",
        "sqrt": "Om ett komplext tal ``a`` är kvadrerat, då …\n\n- resultatets absoluta värde är lika med kvadratroten av det absoluta värdet\n- vinkeln på resultatet är lika med halva vinkeln på det ursprungliga talet",
        "info-input": "Ange ett eller två nummer och tryck på knappen för beräkningsoperationen för att beräkna resultatet",
        "plus": "Om två komplexa tal adderas motsvarar resultatet vektorsumman i det Gaussiska talplanet.",
        "minus": "Om två komplexa tal subtraheras motsvarar resultatet vektordifferensen i det gaussiska talplanet.",
        "div": "Om två komplexa tal ``a`` och ``b`` divideras, så …\n\n- Resultatet är lika med kvoten av beloppen\n- resultatets vinkel är lika med skillnaden mellan de enskilda vinklarna",
        "sqr": "Om ett komplext tal ``a`` är kvadrerat, då …\n\n- resultatets absoluta värde är lika med kvadraten på det absoluta värdet\n- vinkeln på resultatet är dubbelt så stor som vinkeln på det ursprungliga talet",
        "info-numeric-values": "Ange bara numeriska värden i alla fält.",
        "info-division-zero": "Division med 0 är inte heller definierat för komplexa tal.",
        "title": "Komplexa tal",
        "card-plane": "Gaussiskt nummerplan",
        "exponential": "Om den exponentiella funktionen ``e^a`` beräknas, då …\n\n- vinkeln är lika med den imaginära delen av ``a``\n- det absoluta värdet är lika med den exponentiella funktionen hos den verkliga delen av ``a``.",
        "menu": "Enkel miniräknare för komplexa tal med grundläggande aritmetiska operationer"
    },
    "Compton": {
        "card-momentum": "Pulsdiagram Comptonspridning",
        "outputSR": "Rayleighspridd strålning",
        "subtitle": "När röntgenfotoner träffar materia sprids de delvis på ett sådant sätt att deras energi minskar - eller våglängden ökar. Compton tolkade framgångsrikt denna observation som en fullt elastisk kollision mellan fotonen och en yttre kvasifri elektron, som absorberar en del av energin. Om spridningen däremot sker vid en tätt bunden inre elektron ändras inte våglängden (Rayleigh-spridning).",
        "anode": "K~α~ strålning från",
        "title": "Compton-effekten",
        "intensity": "Intensitet (topphöjder) & bredder kvalitativ)",
        "rayleigh-compton": "Rayleigh & Kompton",
        "delta-e": "Energidifferens",
        "card-spectrum": "Spridningsspektrum fotoner",
        "delta-lambda": "Skillnad i våglängd",
        "k-alpha-filtered": "K~α~ linje filtrerad",
        "crystal": "Förlupna kroppar",
        "inputPhi": "Spridningsvinkel",
        "outputP": "K~α~-linjen (primärstrålning)",
        "outputS": "Strålning Compton",
        "primary-radiation": "Primärstrålning",
        "secondary-radiation": "Spridd strålning",
        "crystal-1": "grejer 2",
        "crystal-0": "grejer 1",
        "menu": "Inelastisk spridning av fotoner av kvasifria elektroner"
    },
    "Diffraction": {
        "subtitle": "Simulering av diffraktions- och interferensmönster bakom en enkel, dubbel eller multipel spalt",
        "setup-1": "Projektion på plattskärm",
        "title": "Ljusinterferens",
        "inputG": "Centeravstånd kolumn",
        "inputScreenSize": "Dimension skärm",
        "inputD": "Skärm för avstånd",
        "inputB": "Bredden på en lucka",
        "setup-0": "Vinkelberoende mätning",
        "model-0": "försumbar",
        "show-vectors": "Visa överlagring av händerna",
        "sum-vector": "Beloppet av summavektorn",
        "card-vectors": "Överlagring av händerna",
        "info-vectors": "Tryck på interferensbilden eller flytta musen till en viss position för att visa pekardiagrammet.",
        "menu": "Diffraktion och interferens av ljus i enkla, dubbla eller multipla slitsar"
    },
    "Dipole": {
        "plane-orientation-0": "Parallellt med dipolen (x-z-plan)",
        "plane-orientation": "Orienteringsnivå",
        "subtitle": "Visualisering av de elektriska och magnetiska fälten i närheten av en Hertziansk dipol",
        "field-type-0": "Elektriskt fält",
        "field-type-1": "Magnetiskt fält",
        "presentation-2": "Linjediagram",
        "show-dipole": "Visa dipol",
        "title": "Hertzisk dipol",
        "field-type": "Fält typ",
        "plane-orientation-1": "Vinkelrätt mot dipolen (x-y-plan)",
        "info-coords": "Dipolen ligger på koordinatsystemets z-axel, en grafisk representation finns på fliken \"Information\".",
        "menu": "Elektriska och magnetiska fält i närheten av en Hertziansk dipol"
    },
    "Dualism": {
        "subtitle": "En dubbelspalt bestrålas med ljus av mycket låg intensitet, så att endast ett fåtal fotoner träffas per tidsenhet. Bakom dubbelspalten finns en filmremsa som blir svart när en foton träffar den.",
        "title": "Experimentet med dubbla slitsar",
        "card-distribution": "Sannolikhetsfördelning",
        "inputD": "Avstånd filmremsa",
        "inputScreenSize": "Höjd filmremsa",
        "setup-1": "Information om vilken väg",
        "psi2": "{'|'}Ψ{'|'}² ej normerad",
        "single-photon": "Enstaka foton",
        "displayPsi": "Visa sannolikhetsfördelning",
        "setup-0": "Standardstruktur",
        "setup-2": "Kvantgummi",
        "menu": "Simulering av beteendet hos fotoner som träffar en dubbelspalt"
    },
    "ElectronDiffraction": {
        "lambda": "Materiens våglängd",
        "material-0": "Grafitskikt",
        "material-1": "Magnesiaoxid",
        "no-ring": "Ingen ring",
        "screen-distance": "Skärmens avstånd",
        "show-scale": "Visa skalan",
        "subtitle": "Simulera elektronernas diffraktion på ett polykristallint skikt. Öka accelerationsspänningen och observera hur interferensmönstret på skärmen förändras. Klicka på en ring i interferensbilden för att se detaljer.",
        "title": "Elektrondiffraktionsrör",
        "menu": "Simulering av elektronernas diffraktion på ett polykristallint grafitskikt"
    },
    "ErrorNotFound": {
        "go-home": "till startsidan",
        "subtitle": "… tyvärr är det inte längre möjligt att komma åt denna sida.\nAnvänd sökfunktionen för att hitta rätt app eller gå till startsidan med de olika kategorierna.",
        "title": "Hoppsan…",
        "to-search": "att söka"
    },
    "ExampleList": {
        "search-info": "Ange ett nyckelord för att begränsa listan:"
    },
    "FileUpload": {
        "clipboard-no-file": "Urklippets klippbräda innehöll inte en giltig fil.",
        "drag-click-info": "Dra en bild på detta område, klistra in en från klippbordet eller välj en lokal bildfil med knappen till höger.",
        "drag-info": "Dra en fil på detta område eller använd knappen för att välja en lokal fil.",
        "local-upload": "Välj fil",
        "max-file-size": "Filen överskrider den maximala storleken {size} MB.",
        "unsupported-file-type": "Den här filtypen stöds inte."
    },
    "Fluxline": {
        "subtitle": "Ordna positiva och negativa avgifter och observera förändringen i fältlinjer, fältstyrka, potentiella eller likvärdiga linjer.",
        "title": "Elektriska fältlinjer och elektrisk potential",
        "menu": "Simulering av elektriska fältlinjers förlopp med godtyckligt arrangemang av källor",
        "plus": "positivt",
        "minus": "negativa",
        "presentation-1": "Vector field",
        "presentation-3": "Fältlinjer och styrka",
        "presentation-4": "Fältstyrka & vektorfält",
        "presentation-5": "Equipotentiella linjer",
        "sign": "Tecken på nya avgifter",
        "hint-place": "Välj först tecknet på nya avgifter och klicka sedan på en plats i simuleringen. Du kan flytta eller ändra befintliga avgifter med musen eller genom att klicka på dem.",
        "presentation-7": "Equipotentiella linjer och potential",
        "presentation-8": "Potentiell 3D - Visa endast"
    },
    "FourColors": {
        "subtitle": "Hur många färger behöver du färga länderna på ett sådant sätt att två av samma färg aldrig gränsar till varandra? En välkänd matematisk teorem säger att det finns högst fyra färger. För mer information, se motsvarande [Wikipedia-artikel](https://en.wikipedia.org/wiki/Four_color_theorem).",
        "title": "Fyra-Färg-Problem",
        "solved": "Du har löst allting med framgång!",
        "info": "Klicka på ett fält för att ändra dess färg. Det finns totalt fyra färger, varje klick väljer nästa färg.",
        "menu": "Färgläggning av en karta: angränsande länder får inte ha samma färg"
    },
    "FourWins": {
        "subtitle": "Syftet med spelet är att placera fyra stenar av din egen färg i rad, kolumn eller i form av en diagonal. Tryck på en rad i spelbrädan för att starta dig själv. Om du väljer den maximala svårighetsgraden är det fortfarande möjligt att besegra datorn - om än mycket svårt… Den är baserad på den så kallade [minimax algoritmen](https://en.wikipedia.org/wiki/Minimax), som identifierar det bästa draget genom att skickligt utvärdera de möjliga dragen.",
        "title": "Fyra segrar",
        "menu": "Bilda en rad, diagonal eller kolonn med stenar i din färg"
    },
    "FranckHertz": {
        "ampere-meter-3": "inert",
        "ampere-meter-1": "snigel",
        "setup": "Fyllningsrör",
        "visibleLight-0": "endast synligt ljus",
        "visibleLight-1": "ultraviolett och synligt",
        "setup-1": "Kvicksilverånga",
        "visibleLight": "Visa självlysande skikt",
        "subtitle": "Simulering av elektronrörelse i ett Franck-Hertz-rör, baserad på [Matthias Borchards] idé och program (https://mabo-physik.de/franck_hertz-2/). Öka gradvis accelerationsspänningen och observera såväl fullt elastiska (→ *riktningsändring*) som oelastiska kollisioner (→ *upplysning*) av elektronerna.",
        "setup-2": "Neon Gas",
        "title": "Franck-Hertz-experiment",
        "scale": "Skalan",
        "menu": "Simulering av elektronernas rörelse i ett Franck-Hertz-rör"
    },
    "Gauss": {
        "subtitle": "Med hjälp av Gauss algoritm är det möjligt att bestämma lösningsuppsättningen för linjära ekvationssystem. För detta ändamål omvandlas de enskilda raderna först till triangelform, där den nedre vänstra triangeln endast innehåller värdena 0. Därefter transformeras matrisen ytterligare tills den är i diagonalform, i vilken lösningarna kan läsas direkt.",
        "no-solution": "Det finns ingen unik lösning för detta ekvationssystem",
        "info-no-solution": "Ekvationssystemet kan inte lösas eller kan inte lösas entydigt - avbryt.",
        "info-add": "Lägg till {a} gånger rad {b} till rad {c}",
        "info-mult": "Multiplicera rad {a} med faktorn {b}",
        "info-swap": "Byte av raderna {a} och {b}",
        "extended-matrix": "Utökad koefficientmatris",
        "size": "Okänt antal",
        "solve": "Lösa",
        "random-values": "Slumpmässiga värden",
        "title": "Gauss-Algoritm",
        "info": "Ange koefficienter i matrisen och klicka på knappen \"Lös\".",
        "show-approach": "Visa lösning",
        "invalid-values": "Ange giltiga numeriska värden i alla fält.",
        "menu": "Stegvis lösning av ett godtyckligt linjärt ekvationssystem"
    },
    "General": {
        "2D": "Tvådimensionell",
        "3D": "Tredimensionell",
        "btn-accept": "Ta över",
        "btn-add": "Tillägg",
        "btn-back": "Tillbaka",
        "btn-charge": "Butik",
        "btn-clear": "Tomt",
        "btn-close": "Stäng",
        "btn-continue": "Fortsätt",
        "btn-copy": "Kopiera",
        "btn-copy-img": "Kopiera bilden",
        "btn-delete": "Bort",
        "btn-delete-img": "Radera bild",
        "btn-discharge": "Avlastning",
        "btn-edit": "Redigera",
        "btn-invite": "Inbjudan",
        "btn-left": "vänster",
        "btn-move-down": "nedan",
        "btn-move-up": "topp",
        "btn-next": "Mer",
        "btn-off": "Stäng av",
        "btn-on": "Slå på",
        "btn-pause": "Paus",
        "btn-play": "Starta spelet",
        "btn-reset": "Återställ",
        "btn-right": "höger",
        "btn-save": "Spara",
        "btn-save-data": "Spara data",
        "btn-save-img": "Spara bilden",
        "btn-send": "Skicka",
        "btn-start": "Starta",
        "btn-stop": "Stoppa",
        "btn-summary": "Sammanfattning",
        "card-circuit": "Kretsschema",
        "card-data": "Mätta värden",
        "card-experiment": "Experimenten",
        "card-graph": "Funktionsgraf",
        "card-hints": "Anteckningar",
        "card-image": "Grafisk",
        "card-input": "Ingång",
        "card-output": "Utgång",
        "card-params": "Parameter",
        "card-privacy": "Anmärkning om dataskydd",
        "card-screen": "Skärmbild",
        "card-setup": "Struktur",
        "color": "Färg",
        "game": "Spel",
        "hint-3D": "Med musen eller gester kan du rotera, zooma eller flytta bilden.",
        "img-optional": "Bild (tillval)",
        "time-optional": "Tid (valfritt)",
        "no": "ingen",
        "none": "Ingen",
        "presentation": "Representation",
        "presentation-filled": "fylld",
        "presentation-lines": "Endast linje",
        "recursion-depth": "Rekursionsdjup",
        "search": "Sök",
        "show-details": "Visa detaljer",
        "simulation-speed": "Simuleringshastighet",
        "tab-app": "Ansökan",
        "tab-exe": "Uppgifter",
        "warning-validate": "Korrigera eller fyll i informationen i inmatningsfälten markerade med rött.",
        "yes": "Ja",
        "hint-change-params": "Klicka eller tryck på simuleringen för att ändra parametrarna.",
        "btn-load": "Laddning",
        "tab-index": "Översikt",
        "zoom": "Utvidgning",
        "tab-editor": "Redaktör",
        "btn-cancel": "Annullera",
        "btn-record": "Rekord",
        "btn-save-video": "Spara video",
        "btn-restart": "Starta om",
        "confirm-reset": "Vill du verkligen återställa alla poster?",
        "description": "Beskrivning",
        "brightness": "Ljusstyrka",
        "share": "Dela",
        "action": "Åtgärd",
        "example": "Exempel",
        "btn-hide": "Gömma sig",
        "card-time": "Tidsberoende",
        "examples": "Förebilder",
        "settings": "Inställningar",
        "print": "Skriv ut",
        "print-view": "Utskriftsvy",
        "information": "Upplysningar",
        "simulation": "Simulering",
        "medium": "medium",
        "calculator": "Kalkylator",
        "step": "Steg",
        "confirmation": "Bekräftelse",
        "idealized": "idealiserad",
        "realistic": "realistisk",
        "normal": "vanligt",
        "select-example": "Välj ett exemplar",
        "qr-code": "QR-kod",
        "variable": "variabla",
        "result": "Resultat",
        "diagramm": "Diagram",
        "title": "Titeln",
        "fixed": "rättade",
        "model": "Model",
        "sim-mode": "Simuleringsläge",
        "show-coords": "Visa koordinatsystem",
        "btn-show": "Visa",
        "card-details": "Detaljer",
        "show-tips": "Visa bruksanvisningar",
        "show-grid": "Show grid",
        "info-copy": "Innehållet har kopierats till klippbordet.",
        "select-locale-info": "Välj det språk du vill visa sidan och justera dina bokmärken om det behövs.",
        "btn-update": "Uppdatering",
        "page": "Sidan",
        "select": "Välj",
        "preview": "Förhandsgranskning",
        "increase": "Öka",
        "btn-use": "Användning",
        "decrease": "Minska",
        "activities": "Verksamhet",
        "switch": "Switch",
        "load-local-file": "Load lokal fil",
        "confirm-local-load": "Uppmärksamhet – lastning kommer att överskriva dina ändringar i redaktören eller posterna i programmet.",
        "security": "Säkerhet",
        "btn-check": "Kontrollera",
        "btn-step": "Steg",
        "confirm-tab-change": "Ändra flikar kommer att avsluta ditt spel eller stänga programmet. Är du säker på att du vill fortsätta?",
        "notice": "Note",
        "index": "Index",
        "text": "Texttext",
        "image": "Bild"
    },
    "Colors": {
        "paletteBlack": "Svart och vit",
        "paletteBlueyellow": "Blå och gula toner",
        "paletteGrayscale": "Grå toner",
        "paletteMintapps": "MintApps",
        "paletteRainbow": "Regnbåge",
        "black": "Svart",
        "blue": "Blå",
        "brown": "Brun",
        "gold": "Gold",
        "gray": "Grått",
        "green": "Grön",
        "orange": "Orange",
        "purple": "Lila",
        "red": "Röd",
        "silver": "Silver",
        "white": "Vit",
        "yellow": "Gul",
        "palette": "Färgpalett"
    },
    "Games": {
        "scores-nr": "Poäng: {nr}",
        "show-answer": "Visa svaret",
        "time-limit": "Tidsgräns",
        "author": "Författare",
        "license": "Licens",
        "subject": "Ämne",
        "info1": "Fält markerade med ⬇ stöder [Markdown Basic Syntax](https://www.markdownguide.org/cheat-sheet/#basic-syntax) och matematiska formler som använder [AsciiMath Syntax](https://asciimath.org/#syntax) omslutna av strängen \\`\\`.",
        "info2": "Använd inte webbläsarens bakåtknapp och spar spelet när du har avslutat det - annars går alla ändringar förlorade…",
        "info4": "Vill du dela ditt nya spel med andra? Då lägger vi gärna till den i MintApps i [Codeberg Repository](https://codeberg.org/MintApps/data) - skicka oss bara ett e-postmeddelande.",
        "info3": "För att testa aktiviteten, växla till fliken \"Spel\" - därifrån kan du när som helst gå tillbaka till redigeraren",
        "number-questions": "Antal frågor",
        "difficulty": "Svårighetsgrad",
        "info-win": "Grattis, du har vunnit spelet!",
        "info-lost": "Tyvärr förlorade vi. Men det kommer definitivt att fungera i nästa spel!",
        "info-tie": "Dra … varför inte försöka igen nu!",
        "start-new": "Starta nytt spel",
        "difficulty-0": "enkelt",
        "difficulty-1": "medel",
        "difficulty-2": "tung",
        "playbook": "Styrelse",
        "rules-and-tips": "Regler och tips",
        "start-info": "Det finns fyra sätt att starta ett spel:\n- Välj ett av exemplen från listan.\n- Skapa ett nytt spel genom att skriva in fliken \"Radaktör\".\n- Ladda ett lokalt spel som du tidigare sparat från redaktören.\n- Ladda din egen aktivitet som du tidigare har sparat på servern.",
        "hello-name": "Hej {name}!",
        "hello": "Hej!",
        "info-lobby": "Det är på väg att börja…",
        "answer": "Svara",
        "ki-starts": "Datorn startar",
        "hint-difficulty": "Spelstyrkan är ett mått på hur många drag dataspelaren planerar i förväg.",
        "question": "Fråga",
        "confirm-delete-question": "Vill du verkligen ta bort den här frågan?",
        "question-nr": "Fråga {nr} från {total}",
        "info": "Anteckningar på redaktören",
        "music": "Musik",
        "number-answers": "Antal svar: {num} av {total}",
        "audio": "Musik och ljudeffekter",
        "questions": "Frågor",
        "number-cards": "Antal kortpar",
        "question-type": "Fråga typ"
    },
    "Maths": {
        "error-cubic": "I en kubisk spline får varje värde på abscissen endast förekomma en gång.",
        "fit": "Justering av kurvan",
        "fit-linear-origin": "Ursprungsstrakt",
        "fit-linear": "Allmänt rakt",
        "fit-spline": "Spline kubisk",
        "axis-x": "Abscissa",
        "axis-y": "Ordinat",
        "fit-const": "Konstanta",
        "angular-dimension": "Vinkelmått",
        "angular-dimension-0": "Radianmått",
        "angular-dimension-1": "Gradmått",
        "solution-set": "Lösningsuppsättning",
        "re": "Verklig del",
        "im": "Fantasidel",
        "abs": "Belopp",
        "angle": "Vinkel",
        "coordinate": "Koordinera",
        "number": "Antal",
        "normal-form": "normal form",
        "zoom-ordinate": "Zoom ordinat",
        "function": "Funktionen",
        "zero": "Zero",
        "zeros": "Zeros",
        "side-length": "Sidlängd",
        "rational-numbers": "Rationella siffror",
        "whole-numbers": "Naturliga siffror",
        "arithmetic-operations": "Matematiska operationer",
        "integer-numbers": "Integers",
        "number-range": "Number range",
        "set-of-numbers": "Antal set",
        "product": "Produkt",
        "sum": "Sum",
        "param": "Parameter",
        "solution": "Lös lösning",
        "exponent": "Exponent",
        "fit-simple": "Spline enkel"
    },
    "Physics": {
        "period-duration": "Periodens längd",
        "amplitude": "Amplitud",
        "collector": "Uppsamlingselektrod",
        "acceleration": "Acceleration",
        "acceleration-voltage": "Accelerationsspänning",
        "amperage": "Strömstyrka",
        "ampere-meter": "Ammeter",
        "capacity": "Kapacitet",
        "countrate": "Räknarfrekvens",
        "detector": "detektor",
        "display-time-dependency": "Representation över tiden",
        "electric-field-strength": "Elektrisk fältstyrka",
        "elongation": "Avböjning",
        "energy": "Energi",
        "frequency": "Frekvens",
        "friction": "Friktion",
        "friction-air": "Luftfriktion",
        "friction-coefficient": "Friktionskoefficient",
        "friction-mount": "Upphängning",
        "friction-mount-air": "Luftfriktion och fjädring",
        "friction-none": "Ingen friktion",
        "friction-roll": "Rullfriktion",
        "friction-roll-air": "Rullning och luftfriktion",
        "height": "Höjd",
        "inductance": "Induktans",
        "initial-alpha": "Start-vinkel",
        "initial-velocity": "Hastighet vid start",
        "intensity": "Intensitet",
        "kinetic-energy": "Kinetisk energi",
        "lambda": "Våglängd",
        "length": "Längd",
        "light-source": "Ljuskälla",
        "magnetic-flux": "Magnetiskt flöde",
        "magnetic-flux-density": "Magnetiskt flödestäthet",
        "mass": "Mass",
        "material": "Material",
        "mirror": "Spegel",
        "momentum": "Impulser",
        "position": "Plats",
        "prism": "Prism",
        "radius": "Radie",
        "resistance": "Resistor",
        "screen": "Paraply",
        "setup": "Försöksuppställning",
        "slit-diaphragm": "Mellanspalten",
        "slit-dist": "Avstånd mellanrum",
        "slit-width": "Spaltbredd",
        "time": "Tid",
        "traction-force": "Dragkraft",
        "velocity": "Hastighet",
        "voltage": "Spänning",
        "voltage-source": "Spänningskälla",
        "initial-elongation": "Start avböjning",
        "tube": "Rör",
        "coordinates": "Koordinater",
        "force": "Power",
        "hot-cathode": "Varmkatod",
        "grid": "Galler",
        "charge": "Avgift",
        "not-moving": "Systemet rör sig inte - kontrollera parametrarna!",
        "resulting-force": "Resulterande kraft",
        "display-forces": "Representation av krafter",
        "beamsplitter": "Stråldelare",
        "density": "Densitet",
        "slit-num": "Antal kolumn",
        "impact-type": "Typ av påverkan",
        "trajectory": "Järnvägskurva",
        "flux-lines": "Fältlinjer",
        "field-strength": "Fältstyrka",
        "negative-anode-voltage": "Motspänning",
        "mass-wagon": "Mass vagn",
        "mass-pendulum": "Masspendel",
        "current-voltage-path": "Spännings- och strömkurva",
        "particle-type": "Partikeltyp",
        "proton": "Proton (p⁺)",
        "alpha-particle": "α-partikel (α²⁺)",
        "electron": "Elektroner",
        "deuteron": "Deuteron (d⁺)",
        "potential": "Potentiella",
        "resistance-coil": "Motståndsspole",
        "temperature": "Temperatur",
        "pressure": "Tryck",
        "volume": "Volymen",
        "amount-of-substance": "Belopp av substans",
        "local-gravity": "Lokal gravitation",
        "wave-function": "Vågfunktion",
        "width": "Bredd",
        "start-phase": "Startfas",
        "angular-frequency": "Angulär frekvens",
        "photon": "Photon",
        "envelope-function": "Kuvertfunktion",
        "carbon-12-ion": "Koljon (C₁₂⁴⁺)"
    },
    "GraphSettings": {
        "title": "Inställningsdiagram",
        "grid-x": "Rutlinjer för abscissa",
        "grid-y": "Rutlinjer ordinat",
        "show-legend": "Visa legend",
        "border-0": "Koordinataxlar"
    },
    "Hash": {
        "subtitle": "Beräkna hashvärdet av en inmatad text med olika algoritmer som SHA1 eller SHA256. Beräkningen sker i din webbläsare, det betyder att din inmatning inte kommer att överföras via Internet. För mer information om hashfunktioner, se [Wikipedia](https://en.wikipedia.org/wiki/Hash_function).",
        "info-text": "Ange en text för att skapa en hash.",
        "title": "Hash-kalkylator",
        "text": "Text",
        "digest-warning": "Den algoritm du valde anses nu vara osäker och därför föråldrad.",
        "algorithm": "Algoritm",
        "menu": "Beräkning av hashvärden med hjälp av olika algoritmer, t.ex. SHA1 eller SHA256"
    },
    "HorizontalPlane": {
        "subtitle": "Simulering för att flytta en vagn på ett horisontellt plan. Vagnen kan färdas med olika utgångshastigheter eller accelereras från vila med en konstant dragkraft. Friktionsprocesser kan eventuellt inkluderas.",
        "title": "Horisontellt plan",
        "menu": "Rörelse på det horisontella planet, under påverkan av rullfriktion och luftfriktion"
    },
    "Inductance": {
        "subtitle": "Simulering av självinduktion i en spole under på- och avstängningsprocesser",
        "title": "Självinduktionsspole",
        "inputL": "Induktans spole",
        "menu": "Simulering av självinduktion i en spole med på- och avstängningsprocesser"
    },
    "Induction": {
        "subtitle": "Om en ledarslinga dras ut ur ett homogent magnetfält genereras en induktionsspänning. På den här sidan kan du simulera processen själv genom att ändra experimenterande parametrar.",
        "title": "Induktion i ledarslingan",
        "inputb": "Bred slinga",
        "outputU": "Induktionsspänning",
        "menu": "Simulering av induktionsspänningen hos en rörlig ledarslinga i magnetfältet",
        "show-flux": "Visa magnetiskt flux",
        "show-voltage": "Visa induktion spänning"
    },
    "InputNumber": {
        "enter-number": "Ange ett giltigt nummer!",
        "min-number": "Värdet måste vara minst {min}!",
        "max-number": "Värdet måste vara högst {max}!",
        "integer-number": "Vänligen ange ett heltal!"
    },
    "InputText": {
        "invalid-input": "Inmatningen innehåller ogiltiga tecken!",
        "min-length": "Inmatningen måste ha minst {min} tecken!",
        "max-length": "Inmatning kan ha högst {max} tecken, men för närvarande har den {length}!"
    },
    "Julia": {
        "resolution": "Upplösning",
        "subtitle": "Beroende på den underliggande funktionen är Julia-uppsättningar ofta fraktaler, som representeras som fascinerande bilder. Observera påverkan av parametern ``c`` och leta efter den *vackraste* Julia-uppsättningen.",
        "choose-param-julia": "Välj paradametern ``c`` för polynomfunktionen ``x^2+c``:",
        "paletteNames-out": "Färger yttre område",
        "paletteNames-in": "Färger inre område",
        "cornerRe": "Hörn av verklig del",
        "cornerIm": "Hörn av imaginärdelen",
        "calculate-depth": "Beräkningsdjup",
        "resolution2": "hög upplösning",
        "title": "Juliamängden",
        "zoom-info": "Klicka eller tryck och dra på bilden för att förstora en fyrkantig sektion.",
        "menu": "Julia-mängder är ofta imponerande fraktaler i det komplexa talplanet - men kräver mycket beräkningstid…"
    },
    "Koch": {
        "title": "Kochian Snowflake",
        "subtitle": "Koch-kurvan definierades redan 1904 och är därmed historiskt sett en av de första formellt beskrivna fraktalerna. Ändra recursionsdjupet och observera hur kurvan förändras.",
        "menu": "Historiskt sett en av de första fraktaler som konstruerades av liksidiga trianglar"
    },
    "LC": {
        "subtitle": "En kondensator ansluts först till en spänningskälla för laddning och laddas sedan ur via en spole. Observera hur strömmen och spänningen samt den elektriska och magnetiska energin utvecklas.",
        "title": "Elektromagnetisk resonanskrets",
        "show-energy": "Visa energi",
        "card-slope-ui": "Kurs för ström och spänning",
        "card-slope-e": "Energins utveckling",
        "menu": "Simulering av en oscillerande krets som består av en idealisk eller riktig spol och en kondensator"
    },
    "Life": {
        "subtitle": "1970 utvecklade den brittiske matematikern John Conway spelet \"Game of Life\". Termen spel är missvisande eftersom det inte finns några spelare - det vore bättre att kalla det \"simulering av livet\". Spelet visar en koloni av fyrkantiga celler som är placerade i ett plan och som förökar sig beroende på hur deras grannar mår.",
        "rule-and-tips1": "Levande celler dör av ensamhet om de har färre än två levande grannar.",
        "rule-and-tips2": "Levande celler dör av överbefolkning om de har fler än tre levande grannar.",
        "title": "Livets spel",
        "rule-and-tips3": "Döda celler är befolkade om de har exakt tre levande grannar.",
        "rule-and-tips4": "Klicka på en cellen för att ändra dess status.",
        "no-living-cells": "Det finns inga fler levande celler. Lägg till nya genom att klicka eller röra vid rutor på spelplanen.",
        "menu": "Simulering av utvecklingen av en cellkoloni, John Conways berömda cellulära automat"
    },
    "Linacc": {
        "subtitle": "Simulering av laddade elementarpartiklars rörelse i en linjär accelerator",
        "title": "Linjäraccelerator",
        "initial-energy": "Kinetisk energi i början",
        "card-tubes": "Egenskaper hos rören",
        "frequency": "Frekvens av spänningskälla",
        "num-tubes": "Antal rör",
        "menu": "Acceleration av laddade elementarpartiklar med hjälp av ett växlande elektriskt fält"
    },
    "Linear": {
        "subtitle": "Bestäm nollpunkterna för en linjär funktion.",
        "title": "Linjär ekvation",
        "menu": "Graf och nollpunkter för en linjär funktion med variabla parametrar"
    },
    "MachZehnder": {
        "subtitle": "Interferens mellan kvanta kan observeras när mer än en klassisk väg är tillgänglig och det inte går att mäta vilken väg som har tagits. Simuleringen visar detta kvalitativt för fotoner i en Mach-Zehnder-interferometer. Ha tålamod på äldre enheter, det kräver en relativt hög datorkraft…",
        "title": "Mach-Zehnderinterferometer",
        "pol3": "Polarisationsfilter P3 skärm",
        "pol1": "Polarisationsfilter P1 upptill",
        "pol2": "Polarisationsfilter P2 nedåt",
        "source-0": "Enstaka fotoner",
        "inputDelta": "Skillnad mellan växlar",
        "card-filter": "Polariseringsfilter",
        "source-1": "Läsare",
        "inputScreenSize": "Storlek paraply",
        "card-interferometer": "Interneterometer",
        "menu": "Simulering av fotonernas beteende i en Mach-Zehnder-interferometer"
    },
    "Markdown": {
        "subtitle": "Markdown är ett enkelt märkspråk som definierades av Gruber och Swartz 2004. Enkla tecken som bindestreck eller asterisker används för uppmärkning, eftersom de redan tidigare var vanliga i forum eller e-postmeddelanden.",
        "md10": "Nollpunkten för ekvationen ``f(x)=2*x-3`` är ``x=3/2``",
        "ex2": "Kursiv stil, fetstil eller överstrykning^\\*^",
        "md8": "{'|'} Namn 1 {'|'} Namn 2\n{'|'} --------- {'|'} ---------\n{'|'} Cell 1 {'|'} Cell 2\n{'|'} Cell 3 {'|'} Cell 4",
        "info-output": "På kortet \"Input\" anger du en text eller väljer ett exempel.",
        "md5": "Numrerad lista:\n1. alfa\n2. beta\n3. gamma\n\nUppräkning:\n- Anton\n- Berta\n- Caesar",
        "md6": "Flerradigt område:\n\n~~~\nFörsta raden\nAndra raden\n~~~\n\nEtt enda `uttalande` i texten",
        "hint-input": "Skriv in en text med Markdown-markering här!",
        "md2": "Ett *kursivt*, ett **fet** och ett ~~streckat~~ ord",
        "md3": "Ett ord i ^överskrift^ och i ~underskrift~",
        "md1": "# Huvudrubrik\n## Underrubrik\nNormal text",
        "ex3": "Hög^\\*^ eller låg^\\*^ position",
        "md7": "Webbplats för [Wikipedia](https://wikipedia.de)",
        "ex8": "Tabeller",
        "ex6": "Källtext",
        "ex5": "Lyssna",
        "ex1": "Rubriker",
        "title": "Markdown-tränare",
        "ex10": "AsciiMath-formel^\\*^",
        "ex7": "Hyperlänk",
        "menu": "Tränare för att skriva in text i Markdown-syntax",
        "md11": "ovanför\n---\nnedanför",
        "ex11": "Horisontell linje"
    },
    "Menus": {
        "info-section-1": "Fraktaler - fascinerande självlikhet",
        "game-section-2": "Pussel och gåtor",
        "math-section-analysis": "Analys",
        "math-section-linalg": "Linjär algebra",
        "math-section-sets": "Talteori och mängdteori",
        "math-section-stochastics": "Stokastik",
        "physics-section-em-field": "Elektriskt och magnetiskt fält",
        "physics-section-mechanics": "Grundläggande mekanik",
        "physics-section-optics": "Upptik",
        "physics-section-oszi-waves": "Mekaniska vibrationer och vågor",
        "physics-section-qm-atom": "Kvant- och atomfysik",
        "tools-section-1": "Liten hjälpreda",
        "tools-section-2": "Språktränare",
        "game-section-1": "Frågesport Apps",
        "info-section-2": "Kryptografi",
        "index-games": "Quizappar för en eller flera personer och pusselspel",
        "index-info": "Tillämpningar på klassiska datavetenskapliga ämnen, särskilt fraktaler",
        "index-math": "Användbara miniräknare för vanliga matematiska problem",
        "index-physics": "Simuleringar och animationer om fysik - från mekanik till kvantfysik",
        "index": "En färgglad samling simuleringar, animationer och verktyg om naturvetenskapliga ämnen",
        "index-tools": "Verktyg för digital undervisning, från datainsamling till QR-generatorer",
        "index-news": "Översikt över de senaste apparna och uppdateringarna på denna sida",
        "index-search": "Sök efter nyckelord i alla appar och simuleringar",
        "about": "Tryck",
        "contrast": "Kontrast",
        "dark": "mörkt",
        "download": "Ladda",
        "games": "Spelen",
        "home": "Hemsida",
        "light": "ljusa",
        "locale": "Språk",
        "menu": "Meny",
        "physics": "Fysik",
        "privacy": "Uppgiftsskydd",
        "tools": "Verktyg",
        "informatics": "Datavetenskap",
        "mathematics": "Matematik",
        "physics-section-thermodynamics": "Thermodynamics",
        "title": "MintApps - Simuleringar, Animationer och verktyg",
        "lab": "Lab",
        "index-lab": "Appar som för närvarande är i utveckling eller testning",
        "lab-section-0": "Appar under konstruktion",
        "lab-section-1": "Appar som testas",
        "font-small": "små",
        "font-medium": "medium",
        "font-large": "stora",
        "info-section-3": "Artificiell intelligens",
        "locale-warning": "Översättningen till språket {locale} gjordes delvis automatiskt och är därför helt felaktig. Vi skulle vara mycket glada över din hjälp med översättningen, du kan hitta ytterligare information om [Codeberg](https://translate.codeberg.org/projects/mintapps/mintapps-basis-komponenten/).",
        "chemistry": "Kemi",
        "lab-section-3": "Dokumentation och mall",
        "music": "Musik",
        "physics-section-nuclear-physics": "Kärnfysik"
    },
    "Microwave": {
        "title": "Mikrovågor - reflektion och polarisering",
        "subtitle": "En sändande och en mottagande dipol är placerade mitt emot varandra på en meters avstånd. I strålgången finns eventuellt en metallplatta eller ett galler som kan roteras runt utbredningsriktningen.",
        "setup-0": "Inget hinder",
        "setup-1": "Metallplatta",
        "alpha": "Vinkelnät",
        "alpha-sender": "Vinkelöverförande dipol",
        "alpha-receiver": "Dipolvinkel för mottagning",
        "show-primary": "Visa primär axel",
        "show-secondary": "Visa sekundär axel",
        "signal": "Fältstyrka mottagare",
        "menu": "Reflektion av mikrovågor på en metallyta eller transmission genom ett gitter",
        "position-receiver": "Positionsmottagare",
        "secondary-wave": "Sekundär våg",
        "primary-wave": "Primär våg"
    },
    "Millikan": {
        "subtitle": "I den här simuleringen kan Millikans experiment utföras både med levitationsmetoden och med metoden för enhetliga fält. I det första fallet kan droppens radie bestämmas genom att klicka på den.",
        "title": "Försök av Millikan",
        "control": "Kontroll",
        "btn-spray": "Spraya",
        "stoppwatch": "Stoppur",
        "col-value": "Värde",
        "d": "Plåtavstånd",
        "density-oil": "Densitet olja",
        "density-air": "Densitet luft",
        "viscosity-air": "Viskositet luft",
        "cunningham": "Korrektionsvärde Cunningham",
        "scale": "Skalaavstånd",
        "outputR": "Droppens radie är {r} · 10⁻⁷ m",
        "btn-pole-change": "Omvänd polaritet",
        "use-cunningham": "Använd Cunningham-korrigering",
        "info-select": "Droppen rör sig fortfarande för snabbt, få den att flyta först.",
        "menu": "Simulering av Millikans experiment med metoden med ett eller två fält"
    },
    "MintCard": {
        "toggle-hidden": "Visa eller dölja",
        "toggle-expand": "Ändring av bredden"
    },
    "ModalDialog": {
        "accept": "Fortsätta"
    },
    "News": {
        "subtitle": "Översikt över de senaste ändringarna eller tilläggen",
        "title": "Nyhet",
        "menu": "Översikt över de senaste ändringarna eller tilläggen"
    },
    "NoMathML": {
        "info": "Du använder en föråldrad webbläsare som inte stöder *MathML*-standarden för visning av formler, eller bara delvis.\n\nAnvänd en aktuell version av Firefox, Safari, Chrome eller Edge för den här sidan."
    },
    "Pairs": {
        "subtitle": "Skapa eller spela en frågesport där du måste hitta matchande kortpar. Förutom bilder stöds även texter och formler i Markdown- och AsciiMath-syntax.syntax.",
        "title": "Hitta par",
        "add-pair": "Lägg till par",
        "card-overview": "Översikt över kortparen",
        "col-1-card": "1:a kortet - ladda upp en bild eller skriv in text",
        "col-2-card": "Andra kortet - Skriv inte in något här om de två korten är likadana",
        "confirm-delete-pair": "Vill du verkligen ta bort det här paret?",
        "empty-pairs": "Spelet innehåller ännu inga kortpar, lägg till dem med knappen nedan.",
        "info": "Tidsåtgång: {time} sekunder, Antal drag: {moves}, Poäng: {score}",
        "number": "Antal",
        "text-solved": "Du har löst spelet!",
        "mode": "Spel-läge",
        "mode-inverse": "Enkelt - Tilldelning av kort",
        "mode-normal": "Normal - Avslöja kort",
        "set": "Val av kort",
        "set-sub": "Reducerat antal",
        "info-local-game": "Du kan bara spela ett spel som du har öppnat, redigerat eller skapat i editorn på egen hand.",
        "set-all": "Alla kort",
        "menu": "Spel för en eller flera personer där man söker matchande par av kort",
        "identic-card": "Det andra kortet i detta par är detsamma som det första. Klicka för att välja en annan bild eller text.",
        "thanks-part": "Spel över - se dig nästa gång!"
    },
    "Pendulum": {
        "force-2": "Vikt och stångkraft",
        "title": "Klockpendel",
        "mass-string": "Massstång",
        "xharmonic": "Harmonisk approximation",
        "xreal": "Verklig vibration",
        "menu": "Simulering av en klockpendel, eventuellt för stora utböjningar och med hänsyn till friktion"
    },
    "Photoeffect": {
        "WA": "Avsluta arbetet",
        "emittor": "Fotoelektrod",
        "filter": "Färgfilter",
        "fotocell": "Fotocell",
        "hg-source": "Kvicksilverångslampa",
        "intensity-1": "hög",
        "setup-0": "Utan spänning",
        "setup-1": "Sugspänning",
        "subtitle": "Simulering av en vakuumfotocell där fotoelektrodens material, den applicerade spänningen samt intensiteten och våglängden hos det infallande ljuset kan varieras. Med hjälp av varianten \"motspänning\" är det möjligt att härleda den ursprungliga ekvationen från simuleringen.",
        "title": "Yttre fotoeffekt",
        "wavelength-0": "251 (UV-C)",
        "wavelength-1": "313 (UV-B)",
        "wavelength-2": "365 (UV-A)",
        "wavelength-3": "406 (lila)",
        "wavelength-4": "436 (blå)",
        "wavelength-5": "492 (turkos)",
        "wavelength-6": "546 (grön)",
        "wavelength-7": "578 (orange)",
        "wavelength-8": "623 (röd)",
        "menu": "Simulering av en vakuumfotocell med sug och motspänning"
    },
    "Pi": {
        "subtitle": "Beräkning av cirkeltalet Pi till ett stort antal siffror med hjälp av en strömmande algoritm. Tyvärr har Firefox och Safari för närvarande bara stöd för 32000 decimaler. Chrome-baserade webbläsare verkar inte ha denna begränsning?",
        "title": "Cirkelnummer π",
        "found": "Nummerföljden {search} är vid {n}. decimalplats av π!",
        "calculated": "Hittills har {n} siffror beräknats…",
        "card-search": "Sök i π",
        "card-approx": "Ungefärligt värde för Pi",
        "plus10": "+ 10 siffror",
        "plus100": "+ 100 siffror",
        "plus1000": "+ 1000 siffror",
        "enter-number": "Ange numerisk sekvens",
        "menu": "Beräkning av cirkeltalet Pi till ett högt antal siffror",
        "not-found": "Denna sekvens av siffror finns inte i de första {num} siffrorna."
    },
    "Plot": {
        "btn-new": "Eget diagram",
        "card-input-values": "Ange mätvärden",
        "hint-data": "Spara data på din enhet eller på synkroniseringsservern för att ladda den senare. Du kan hitta filer från synkroniseringsservern i fliken \"Aktiviteter\".",
        "hint-delete": "Ta bort detta värdepar",
        "info-input": "Ange ett par värden och tryck sedan på \"Send\". Abscissa anger den horisontella axeln och ordinate den vertikala axeln.",
        "info-privacy": "De uppgifter som anges överförs till servern och lagras där endast under den gemensamma sessionens varaktighet. Inga metadata kopplas samman, dvs. appen loggar inte vem som överfört vilka uppgifter och när.",
        "info-sent": "Uppgifterna har överförts framgångsrikt.",
        "m": "Lutning Rakt",
        "subtitle": "Visa uppmätta värden i ett diagram och identifiera det funktionella beroendet, eventuellt också i ett team med flera deltagare.",
        "subtitle-part": "Du är välkommen att lägga till egna läsningar",
        "t": "Axelns intercept ordinat",
        "title": "Diagram över uppmätt värde",
        "titleX": "Variabel 1",
        "titleY": "Variabel 2",
        "trans": "Transformation axel",
        "unitX": "Enhet 1",
        "unitY": "Enhet 2",
        "menu": "Visa uppmätta värden i ett diagram och identifiera det funktionsmässiga beroendet",
        "confirm-send": "Vill du verkligen skicka data till alla gäster? Detta avslutar sessionen automatiskt."
    },
    "Poll": {
        "info-wait": "Vänligen vänta tills nästa fråga visas…",
        "mood-info": "Välj en emoticon och tryck på \"Skicka\".",
        "select-info": "Välj ett alternativ och tryck på \"Skicka\".",
        "stars-info": "Betygsätt uttalandet och tryck på \"Skicka\".",
        "subtitle": "Skapa eller starta en kort enkät vars utvärdering visas i realtid. Markdown- och AsciiMath-syntax stöds för formatering.",
        "text-info": "Ange ditt svar och tryck på \"Skicka\". Du kan använda Markdown och AsciiMath för formatering.",
        "thanks-part": "Tack för att du deltog i undersökningen.",
        "title": "Flash-undersökning",
        "btn-add-question": "Lägg till fråga",
        "empty-poll": "Enkäter består av en eller flera frågor - lägg till minst en med knappen nedan.",
        "hint-question-options": "Möjliga alternativ, åtskilda med kommatecken",
        "question-options": "Optioner",
        "type-boolean": "Ja-Nej-fråga",
        "type-mood": "Stämning",
        "type-select": "Val från lista",
        "type-stars": "Stjärnklassificering",
        "type-text": "Fritextfält",
        "tab-poll": "Undersökning",
        "poll-start-info": "Det finns tre sätt att starta en undersökning:\n- Använd ett av de exempel som finns tillgängliga online.\n- Skapa en ny undersökning genom att växla till fliken \"Editor\".\n- Ladda en lokal undersökning som du tidigare har sparat från editorn.",
        "menu": "Skapa eller starta en kort undersökning och titta på realtidsutvärdering"
    },
    "Polynom": {
        "subtitle": "Grafiskt representera en polynomisk funktion och dess första, andra och tredje derivata och bestämma dess nollor, extremvärden och vändpunkter.",
        "card-functions": "Funktioner och derivat",
        "root": "Noll {n}⨯",
        "derivative": "{n}. Avledning",
        "coeff": "Koefficient",
        "title": "Polynomisk funktion",
        "range": "Skalning av axlar",
        "attribute": "Funktion",
        "card-discussion": "Kurvdiskussion",
        "terrace-point": "Terrasspunkt",
        "inflection-point": "Vändpunkt",
        "menu": "Representera en godtycklig polynomfunktion med dess derivat",
        "maximum": "Maximal vändpunkt",
        "minimum": "Minimal vändpunkt",
        "degree": "Grad av polynom"
    },
    "Price": {
        "title": "Den stora frågesporten",
        "card-questions": "Översikt över frågorna",
        "edit-info": "För en joker, lämna frågan tom.",
        "edit-question": "Redigera frågan",
        "num-scores": "Antal punktvärden",
        "num-topics": "Antal ämnen",
        "score": "Poäng",
        "scores": "Punkter - Linjer",
        "time": "Tid i s",
        "topic": "Tema",
        "topics": "Ämnen - Krönikor",
        "menu": "Spel med graderade frågor om olika ämnen - liknande TV-programmet \"The Grand Prix\""
    },
    "Prim": {
        "card-spiral": "Ulamspiral",
        "info-ulam2": "Representationen börjar med en \"1\" i mitten och fortsätter sedan moturs i en spiral. Se själv vilka strukturer som bildas när primitiva tal färgkodas i denna spiral.",
        "subtitle": "Ett primtal är ett naturligt tal som har exakt två olika naturliga tal som delare. Även om denna definition låter enkel har primtalen fascinerat mänskligheten i tusentals år. Kontrollera här om ett visst tal är primtal och upptäck hemliga mönster bakom primtalen…",
        "info-ulam1": "Ulamspiralen är en enkel metod för att grafera primtal. Den upptäcktes 1963 av matematikern Stanisław Marcin Ulam när han hade tråkigt på en vetenskaplig föreläsning…",
        "hint-one": "Talet 1 har bara en naturlig delare och är därför inte ett primtal 😎",
        "no-prime": "Talet {n} är inte ett primtal 😢. Den kan representeras som följande produkt:",
        "is-prime": "Antalet {n} är ett primtal 👍",
        "card-is-prime": "Är det ett primtal?",
        "card-ulam": "Det som uppstår av tristess…",
        "title": "Primtal",
        "menu": "Kontrollera om ett tal är primtal och upptäck \"mönster\" i mängden primärt tal"
    },
    "Pythagoras": {
        "subtitle": "Pythagoras träd är ett enkelt och samtidigt vackert exempel på en fraktal bildad av en rekursiv konstruktion. Ändra rekursionsdjupet och observera kurvförändringen.",
        "title": "Pythagoras träd",
        "menu": "Enkel fraktal konstruerad av kvadrater och rektangulära trianglar"
    },
    "QrGenerator": {
        "example-txt-const": "Har den gamle trollkarlen gått bort för en gångs skull! Och nu skall också hans andar leva enligt min vilja.",
        "text-input": "Dina uppgifter är skyddade och kommer inte att överföras via internet. För webbplatser använder du den fullständiga adressen som börjar med https://.",
        "subtitle": "Förkortningen QR står för \"Quick Response\". Förfarandet utvecklades redan 1994 (dvs. under det senaste årtusendet) av ett japanskt företag och används numera i stor utsträckning.",
        "input": "Inmatning - Text",
        "title": "QR-generator",
        "info-text": "Ange en text eller URL för at generera en QR-kod.",
        "size": "Storlek",
        "radius": "Hörnradie",
        "menu": "Skapa helt enkelt dina egna QR-koder - utan dataläckage"
    },
    "QrReader": {
        "hint-first-card-text": "Bilden från din kamera borde vara synlig här - men det verkar inte fungera 😮",
        "subtitle": "Använd din enhets kamera eller ladda upp ett foto med en QR-kod. Varken bilden eller texten överförs till en server; dekryptering sker uteslutande i webbläsaren.",
        "hint4": "Du använder en föråldrad webbläsare (t.ex. Internet Explorer) → använd den senaste webbläsaren",
        "hint3": "Ett annat webbläsarfönster visar redan kamerans innehåll → stäng det",
        "hint1": "Det finns ingen kamera installerad på enheten (t.ex. på datorn) → sätt in den",
        "hint2": "Webbläsaren har inte tillgång till kameran → tillåt den",
        "title": "QR-läsare",
        "cam": "Camera",
        "camera-hint": "Håll kamera över koden så att den fångas skarpt och inte förvrängs.",
        "menu": "Skanna QR-koder utan att behöva installera en app",
        "image-error": "Tyvärr kan ingen QR-kod identifieras i den här bilden.",
        "image": "Bild"
    },
    "Quadratic": {
        "subtitle": "Bestäm nollpunkterna för en kvadratisk funktion och skapa en form för toppar och linjära faktorer.",
        "title": "Kvadratisk ekvation",
        "vertex": "Toppform",
        "linear": "Linjärfaktorform",
        "menu": "Nollor, toppform och linjärfaktorform för en kvadratisk ekvation"
    },
    "Quiz": {
        "average": "Genomsnittlig",
        "btn-next-question": "Nästa fråga",
        "btn-show-report": "Visa resultat",
        "countdown": "Nedräkning",
        "empty-quiz": "För att kunna starta ett quiz måste minst en fråga finnas tillgänglig. Lägg till den med knappen nedan.knappen.",
        "end": "Slut",
        "icons": "Symboler för svar",
        "icons-0": "Nummer",
        "icons-1": "Brev",
        "icons-2": "Ikoner",
        "info-answer": "Information om svar",
        "info-end": "Spelet är över!",
        "info-end2": "Till nästa gång…",
        "info-wait": "Det är bara några sekunder kvar till nästa fråga…",
        "new-question": "Ny fråga",
        "option-nr": "Alternativ {nr}",
        "order": "Ordningsföljd för svaren",
        "order-1": "slumpmässigt",
        "scores": "Resultatet",
        "single-player": "Enskilda spelare",
        "subtitle": "Spel för en eller flera personer som liknar den klassiska trafikljusfrågesporten eller TV-programmet \"Vem vill bli miljonär?\".",
        "title": "Mint-Frågesport",
        "menu": "Spel för en eller flera personer - liknande trafikljusquiz eller till och med tv-programmet \"Vem vill bli miljonär?\"",
        "btn-duplicate": "Duplicera frågan",
        "number-options": "Antal alternativ",
        "question-type-0": "Enkelt val",
        "question-type-1": "Flera val",
        "info-edit-options": "Ange olika alternativ i tabellen nedan och markera rätt alternativ (enkelt val) eller rätt alternativ (Multiple val) med en fästing.",
        "warning-single-option": "Välj **exakt ett** alternativ för den gemensamma valtypen.",
        "info-part-type-0": "Välj rätt svar.",
        "info-part-type-1": "Välj ** alla tillämpliga** svar och tryck sedan på \"Skicka\"."
    },
    "Resonance": {
        "amplitude": "Amplitudspänning",
        "area": "Motståndsyta",
        "card-t-x": "Diagram över tid och plats",
        "exciter": "Exciter",
        "failure": "Resonanskatastrof",
        "frequency": "Frekvenspatogen",
        "spring": "Fjäderhårdhet",
        "subtitle": "En vagn är placerad på ett horisontellt plan och stimuleras till vibrationer av en excitator via en fjäder. Både rullfriktion och luftfriktion, som medvetet ökas av ett segel, har en dämpande effekt.",
        "title": "Påtvingad svängning",
        "wagon": "Transport",
        "menu": "Horisontell fjäderpendel som är harmoniskt exciterad"
    },
    "Rocket": {
        "subtitle": "Om en raket skjuts upp horisontellt nära jordytan beskriver den olika banor beroende på sin utgångshastighet. Prova själv - när uppstår en parabel, en cirkel, en ellips eller en hyperbel?",
        "title": "Horisontell raket",
        "h0": "Höjd",
        "speed-info": "Ju högre simuleringshastighet, desto mindre noggrann blir den numeriska simuleringen av banan.",
        "menu": "Simulering av banan för en raket som skjuts upp horisontellt ovanför jordytan"
    },
    "Schroedinger": {
        "subtitle": "Simulering av den endimensionella stationära Schrödingerekvationen för en elektron. Välj en av de givna potentiella energierna och använd skjutreglaget för att hitta de energivärden som ger en rimlig fysikalisk lösning. Beräkningen görs med Numerov-metoden, endast lösningar för bundna tillstånd stöds.",
        "showGrid": "Visa koordinatnätet",
        "title": "Schrödingerekvation",
        "no-solution": "Ingen oscillerande eller bunden lösning finns tillgänglig",
        "showPsi2": "Visa {'|'}Ψ{'|'}² istället för Ψ",
        "btn-save": "Spara tillstånd",
        "type": "Formulär",
        "menu": "Numerisk lösning av den endimensionella stationära Schrödingerekvationen",
        "finite-square-potential": "Elektron i rektangulär potentialbrunn",
        "finite-square-potential-desc": "Rektangulär potentialbrunn med justerbar bredd och djup",
        "v-shaped-potential": "Elektron i den V-formade potentialbrunnen",
        "v-shaped-potential-desc": "V-formad potentialbrunn med ett maximalt djup på ``-10unit(eV)``",
        "double-square-potential": "Elektron i den dubbla potentialbrunnen",
        "double-square-potential-desc": "Båda potterna har en bredd på ``3unit(Å)`` och ett djup på ``10unit(eV)``",
        "harmonic-potential": "Elektronen i den harmoniska oscillatorn",
        "harmonic-potential-desc": "Harmonisk oscillator med potentialfunktionen ``V(x)=a*x^2``",
        "inclined-potential": "Elektron i den \"krokiga\" kvantbrunnen",
        "inclined-potential-desc": "Kvantbrunn vars botten stiger linjärt",
        "hydrogen-potential": "Coulombpotential väte",
        "hydrogen-potential-desc": "Väteatomens radiella potential för det sekundära kvantantalet ``l=0``",
        "nuclear-potential": "Coulomb-Wall för α-partiklar i kärnan",
        "nuclear-potential-desc": "Denna potential är avsedd för illustrativa ändamål och representerar inte en exakt kurs.",
        "infinite-square-potential": "Electron i en oändlig kvadrat väl",
        "infinite-square-potential-desc": "Oändlig kvadrat bra med justerbar bredd"
    },
    "ScreenReader": {
        "read": "Läs högt",
        "canvas": "Interaktiv grafik {name}",
        "card": "Karta",
        "button": "Knapp"
    },
    "Search": {
        "no-result": "Tyvärr kunde inga resultat hittas för din sökterm. Observera att sökningen endast görs på det språk du har valt.",
        "search-key": "Sökuttryck",
        "enter-key": "Ange en sökterm för att påbörja sökningen.",
        "section-apps": "Appar & simuleringar",
        "section-else": "Spel och exempel",
        "title": "Sök efter"
    },
    "Sierpinski": {
        "subtitle": "Sierpinski-triangeln är en fraktal som beskrevs av matematikern Sierpiński 1915 och som är resultatet av att en liksidig triangel ersätts med tre mindre liksidiga trianglar.",
        "filled2": "Endast det område av fraktalen som är fyllt",
        "filled3": "helt fylld av färger",
        "title": "Sierpinski-triangeln",
        "menu": "En annan fraktal baserad på liksidiga trianglar"
    },
    "Skydive": {
        "subtitle": "Simulering av ett fallskärmshopp från flera kilometers höjd.",
        "title": "Fallskärmshoppning",
        "show-details": "Visa detaljer om tröja och paraply",
        "show-tv": "Visa hastigheten",
        "show-th": "Representation av höjd",
        "card-details": "Jumper och paraply",
        "area-jumper": "Jumper för motståndsyta",
        "area-parachute": "Resistance surface fallskärm",
        "open": "Öppna paraplyet",
        "mass": "Total massa",
        "cw-parachute": "cw-värde fallskärm",
        "cw-jumper": "cw-värde jumper",
        "speed": "Fallhastighet",
        "h0": "Hopphöjd",
        "time-parachute": "Öppningstid för fallskärmen",
        "show-ta": "Accelerationsvisning",
        "menu": "Simulering av ett fallskärmshopp från flera kilometers höjd"
    },
    "Spectrum": {
        "subtitle": "Fördelning av elektromagnetisk strålningseffekt som en funktion av våglängden för olika ljuskällor eller försöksuppställningar.",
        "led-3": "vit (GaInN + färgämne)",
        "visible-info": "Det synliga området mellan ``380unit(nm)`` och ``730unit(nm)`` visas.",
        "setup-0": "Glödande kropp",
        "led": "LED-färg",
        "visible-spectrum": "Synligt spektrum",
        "spectral-dist": "Spektralfördelning",
        "setup-1": "Gasutloppsrör",
        "led-1": "grön (GaP)",
        "led-0": "röd (GaAlAs)",
        "led-2": "blå (GaN)",
        "scale-intensity": "Autoskalering av intensitet",
        "title": "Ljusspektrum",
        "fill-gas": "Fyllning av gas",
        "setup-2": "LED",
        "setup-3": "absorptionsspektrum",
        "menu": "Elektromagnetiska spektrum för olika ljuskällor eller experimentella uppställningar",
        "absorb-gas": "Absorberande gas"
    },
    "SpringPendulum": {
        "title": "Fjäderpendel",
        "force-2": "Vikt och fjäderkraft",
        "subtitle": "Simulering av en fjäderpendel, eventuellt för lutande utböjningar och med hänsyn tagen till luftfriktion",
        "spring-constant": "Fjäderkonstant",
        "menu": "Simulering av en fjäderpendel, eventuellt för stora utböjningar och med hänsyn tagen till luftfriktion"
    },
    "StringWave": {
        "subtitle": "Ett rep är exciterat på vänster sida av en harmonisk svängning. Denna svängning sprider sig med tiden över hela linan. Beroende på de allmänna förhållandena och dämpningen resulterar denna överlagring i en stående våg.",
        "display": "Visade vågor",
        "title": "Gungande rep",
        "display-2": "Superposition & Enda axlar",
        "visualization": "Typ av display",
        "A0": "Amplituden av excitation",
        "right-end": "Höger ände",
        "f": "Spänningsfrekvens",
        "start-oszi": "Starta oscillatorn",
        "stop-oszi": "Stoppa oscillatorn",
        "mu": "Dämpning",
        "c": "Våghastighet",
        "visualization-0": "Kontinuerligt rep",
        "visualization-1": "Vågmaskin",
        "plus10s": "framåt",
        "pulse": "Enkel puls",
        "right-end-1": "öppna",
        "right-end-2": "ingen",
        "display-1": "Enkel axel",
        "display-0": "superposition",
        "menu": "Simulering av ett repskaft med lös eller öppen ände"
    },
    "Sudoku": {
        "subtitle": "Reglerna för Hexed Sudoku är i princip desamma som för normalt Sudoku. I stället för siffrorna 1-9 är det dock möjligt att använda siffrorna 0-9 och bokstäverna A-F, dvs. totalt 16 olika poster. Spelplanen är motsvarande större och består av 4x4 block med 4x4 rutor vardera.",
        "info-enter-values": "Ange värdena först - senare kan du kontrollera om de är korrekta.",
        "info-select-value": "Välj först ett värde i inmatningsraden.",
        "info-solved": "Du har löst gåtan!",
        "check-values": "Kontrollera värden",
        "title": "HEXed Sudoku",
        "menu": "Giant Sudoku med 16 olika siffervärden"
    },
    "SyncCard": {
        "captcha-required": "Ange den visade sträckan för att visa att du inte är en robot 😁",
        "captcha-wrong": "Tyvärr var den inmatade teckensträngen fel!",
        "challenge-info": "För att skapa rummet måste din enhet först lösa ett litet kryptografiskt pussel. Detta kan ta en minut.",
        "challenge-wait": "Vänta ett ögonblick-eller två exploit 😅",
        "challenge-wrong": "Tyvärr kunde din dator inte lösa pusslet 🤔 Ladda om sidan och försök igen.",
        "count-members": "Antal gäster: {count}",
        "error-text": "Tyvärr kan inga andra personer bjudas in. Detta beror antingen på att synkroniseringsservern är felaktigt konfigurerad eller att du startar MintApps från en lokal katalog.",
        "info-privacy": "För att skydda deltagarnas anonymitet får de slumpmässiga namn. Svaren överförs pseudonymt till en server och lagras där endast tillfälligt. Ytterligare information finns i sekretesspolicyn.",
        "invite-info-text": "Du kan antingen använda appen ensam eller bjuda in andra personer.",
        "invite-text": "Skanna koden för att ange rummet som gäst.",
        "password-required": "Logga in först med knappen i huvudmenyn för att använda den här funktionen.",
        "title": "Bjud in personer",
        "dont-change-tab": "Bo på den här fliken efter att ha bjudit in gäster eller den delade sessionen avslutas."
    },
    "Teltron": {
        "subtitle": "Elektroner kommer ut ur en varm katod och accelereras med hjälp av spänningen ``U_B``. De går sedan vertikalt in i ett homogent magnetfält som genereras av ett par Helmholzspolar. Röret innehåller en gas (t.ex. väte) i låg koncentration, så att elektronernas cirkulära bana blir synlig genom jonisering.",
        "UC": "Spolspänning",
        "R": "Radius spole",
        "RC": "Ohmsk resistans",
        "IC": "Spolström",
        "N": "Antal varv",
        "show-field": "Visa magnetfält",
        "show-scale": "Visa skalan",
        "show-coil": "Visa spoldata",
        "card-coil": "Helmholz-spolpar",
        "title": "Gänga jetrör",
        "menu": "Elektronernas rörelse i ett homogent magnetfält"
    },
    "Template": {
        "example-text-1": "Innehållet i det första kortet, här t.ex. en text.",
        "example-text-2": "Eventuellt kan kartor också innehålla en sidfot, som vanligtvis innehåller flera knappar.",
        "last-card": "Sista kortet",
        "first-card": "Första kartan",
        "second-card": "Andra kartan",
        "info-density": "Enkel beräkning av den fysiska densiteten utifrån massa och volym.",
        "info-display": "Den här kartan visas endast under vissa villkor.",
        "third-card": "Tredje kortet",
        "title": "Exempel på app - Mall",
        "subtitle": "Den här sidan innehåller de viktigaste delarna av MintApps. Det består av fyra kort, varav det sista inte visas i början.",
        "menu": "Provsida för att illustrera den typiska strukturen på en enda sida av MintApps"
    },
    "TexTrainer": {
        "text-muted": "Ange en formel på fliken \"Inmatning\" eller välj ett exempel.",
        "solution-quad-eq": "Lösningsformel kvadratisk ekvation",
        "gaussian-normal-distribution": "Gaussisk Normalfördelning",
        "quad-eq": "Kvadratfunktion",
        "linear-eq": "Linjär funktion",
        "matrix": "Enhetsmatris",
        "menu": "Tränare för att skriva in formler i TeX-syntax"
    },
    "Throw": {
        "title": "Slate Litter",
        "subtitle": "Simulering av det sneda kastet av en boll med variabla parametrar och valfri luftfriktion",
        "initial-height": "Fallhöjd",
        "initial-speed": "Utkasthastighet",
        "alpha": "Fallvinkel",
        "perspective": "Perspektiviskt lokusdiagram",
        "perspective-0": "vinkelrätt mot banan (z-riktning)",
        "perspective-1": "ovanifrån (y-riktning)",
        "perspective-2": "framifrån (x-led)",
        "visualization": "Visualisering av lokusdiagram",
        "visualization-0": "Visualisierung von Ortsdiagrammen",
        "visualization-2": "Strobe (10 fps)",
        "card-position": "Platsdiagram",
        "ymax": "Flyghöjd",
        "xmax": "Flygsträcka",
        "show-values": "Visa värden",
        "menu": "Simulering av det lutande kastet med variabla startparametrar"
    },
    "Tictac": {
        "subtitle": "Med det här spelet är det helt enkelt möjligt att skriva ett program som är oövervinnligt. Prova det genom att ställa in kompetensnivån för hårt! Grunden är den så kallade [Minimax-algoritmen](https://en.wikipedia.org/wiki/Minimax), som identifierar det bästa genom att skickligt utvärdera möjliga drag.",
        "title": "Tic Tac Toe",
        "menu": "Slå datorn - det är inte lätt…"
    },
    "TiltedPlane": {
        "subtitle": "Ett väte är på ett längdplan ``1 unit(m)`` med en justerbar lutningsvinkel. För användningsanvisningar, se fliken Information.",
        "title": "Lutande plan",
        "alpha": "Lutningsplan",
        "col-0": "Position ``x_i//unit(cm)``",
        "col-1": "Ingångstid ``t_i//unit(s)``",
        "col-2": "Avbrott ``Delta t_i // unit(ms)``",
        "flag-width": "Bredd flaggor",
        "light-barriers": "Ljusbarriärer",
        "new-light-barrier": "Nya hinder",
        "no-light-barriers": "Lägg till ljusbarriärer för mätning.",
        "sim-mode-0": "idealisk",
        "sim-mode-1": "verklig",
        "speed-1": "långsamt",
        "speed-3": "snabbt",
        "switch-strobo": "Använd stroboskop",
        "menu": "Simulering av accelererad rörelse med friktion på ett lutande plan",
        "setup": "Startposition",
        "switch-barriers": "Använd lätta hinder",
        "force-2": "Komponenter"
    },
    "UnderConstruction": {
        "text": "Den här appen är fortfarande under utveckling. Du kan anta att det finns många fel…"
    },
    "Vcard": {
        "subtitle": "Standarden vCard definierades för drygt 25 år sedan av Versit-konsortiet och möjliggör utbyte av adressuppgifter. I smartphone-åldern är den fortfarande aktuell - kontaktuppgifter kan utbytas med hjälp av en QR-kod till exempel. Prova det och skapa ditt eget kort!",
        "hint": "De angivna uppgifterna sparas på din enhet och överförs inte via Internet. Vänligen lämna alla fält som inte är obligatoriska tomma.",
        "priv-data-title": "Privata uppgifter",
        "organization": "Företag",
        "title": "vCard-generator",
        "adrStreet": "Gata & nr.",
        "telVoice": "☎ Fast telefoni",
        "job-things": "Offentliga uppgifter",
        "mail": "{'@'} E-post",
        "adrCode": "Postnummer (PLZ)",
        "fax": "☎ Fax",
        "title-person": "Den person",
        "contact": "Kontakta",
        "website": "Webbplats",
        "adrCountry": "Land",
        "adrCity": "Stad",
        "telCell": "☎ Handy",
        "bday": "Födelsedag",
        "lastname": "Efternamn",
        "firstname": "Förnamn",
        "menu": "Skapa ditt eget vCard som en QR-kod - utan att data läcker ut",
        "honoric-prefix": "Honorific prefix",
        "position": "Position eller funktion"
    },
    "Vidana": {
        "info-step-3": "Spola fram videon till den tidpunkt då tidmätningen ska börja. Bekräfta ditt val genom att trycka på \"Next\".",
        "info-step-2": "Videon skannas nu för att identifiera tidpunkten för de enskilda bilderna. Beroende på videons och enhetens längd kan detta ta flera minuter.",
        "info-step-1": "Spela in din egen video med kameran, använd en lokal fil från din enhet eller välj en inspelning på fliken \"Exempel\".",
        "hint-examples": "Exemplen är optimerade för webbläsaren Safari på iPad och webbläsaren Firefox på alla andra enheter.",
        "info-step-7": "Markera nu kroppens position i videon och upprepa detta för de andra bilderna genom att trycka på knappen \"Framåt\" eller mellanslagstangenten. När alla punkter har markerats trycker du på \"Nästa\".",
        "diagram-2": "Punkter och linjer",
        "info-step-4": "Välj koordinatsystemets ursprung och tryck på \"Nästa\".",
        "error-to-long": "Den valda videon är för lång och lämpar sig inte för videoanalys i realtid.",
        "error-no-frames": "Inga bildrutor kunde identifieras i videon. Prova analysen i en annan webbläsare.",
        "info-step-8": "Välj lämplig order, alternativt kan du placera en utjämningslinje genom punkterna.",
        "card-process": "Förfarande",
        "seeking": "Sök ramar…",
        "step-7": "Registrera mätvärden",
        "step-6": "Ställ in skala",
        "step-5": "Välj koordinatsystem",
        "step-4": "Välj ursprung",
        "step-3": "Välj tidsnollpunkt",
        "step-2": "Identifiera ramar",
        "step-1": "Välj video",
        "title": "Videoanalys",
        "step-8": "Utvärdering",
        "step-nr": "Steg {nr}",
        "card-video": "Video",
        "btn-play": "Spela",
        "btn-next-frame": "Föröver",
        "btn-last-frame": "Bakåt",
        "btn-delete-point": "Radera värde",
        "info-step-5": "Välj rörelseriktning för en linjär rörelse och två koordinataxlar för alla andra processer. Tryck sedan på \"Nästa\".",
        "info-step-6": "Markera två punkter i videobilden, ange den uppmätta längden på avståndet i inmatningsfältet och tryck på \"Nästa\".",
        "eval-t-y": "t-y-diagram",
        "eval-t-vx": "t-vx diagram",
        "eval-t-vy": "t-vy diagram",
        "eval-t-ax": "t-ax-diagram",
        "eval-t-ay": "t-ay diagram",
        "diagram": "Diagram typ",
        "diagram-0": "Poäng",
        "diagram-1": "Linjer",
        "position": "Position",
        "scale": "Sträckans längd",
        "eval-table": "Tabell",
        "eval-x-y": "x-y-diagram",
        "eval-t-x": "t-x diagram",
        "menu": "Analysera en en- eller tvådimensionell rörelse med hjälp av en videofilm"
    },
    "VideoRecorder": {
        "error-video-not-allowed": "Kameran kunde inte startas. Det kan bero på att kameran används av en annan app eller på att inställningarna \"Bildfrekvens\" eller \"Riktning\" inte stöds.",
        "error-video-not-supported": "Din webbläsare eller enhet stöder tyvärr inte videoinspelning.",
        "framerate": "Bildhastighet",
        "direction-environment": "Bakre kamera",
        "direction-user": "Främre kamera",
        "direction-default": "Standard",
        "direction": "Riktning",
        "record-time": "Inspelningstid: {time} s",
        "title": "Videoregissör"
    },
    "WaitIcon": {
        "please-wait": "Ett ögonblick…"
    },
    "Wavepacket": {
        "subtitle": "Om flera fria vågor med lite olika impulser läggs över varandra blir resultatet ett vågpaket som rör sig över tiden. Bredden på impulsfördelningen och den rumsliga fördelningen beror på varandra via Heisenbergs osäkerhetsprincip. Ändra parametrarna och observera effekten på vågfunktionen.",
        "title": "Elektron som vågpaket",
        "card-wavepacket": "Wave-paket",
        "guiDeltaX": "Plats oskärpa",
        "guiDeltaP": "Pulssljud",
        "menu": "Representation av en fri elektron som ett vågpaket - Heisenbergs osäkerhetsprincip",
        "speed-of-light": "Ljusets hastighet"
    },
    "Waves": {
        "subtitle": "Simulering av interferens- eller diffraktionsmönstret i en vågdal för olika försöksuppställningar. Ha tålamod på äldre enheter, det krävs en relativt hög datorkraft…",
        "show-intensity": "Visa intensitet",
        "card-waves": "Vågbild",
        "setup-0": "Punktkällor",
        "src-num": "Antal källor",
        "src-dist": "Källavstånd",
        "screen-dist": "Observatörsavstånd",
        "border-0": "Utan dämpning",
        "border-1": "Med dämpning",
        "border": "Gränsen",
        "title": "Vågdal",
        "card-intensity": "Observatör av intensitet",
        "menu": "Simulering av interferens- eller diffraktionsmönster i en vågdal",
        "error-slit-dist": "Kontrollera dina värden - slitbredden måste vara mindre än slitbanan!",
        "error-width-exceeded": "Den totala bredden måste vara mindre än ``10unit(cm)`` - eftersom det är storleken på rippeltanken!"
    },
    "Wheatstone": {
        "subtitle": "Kretsen består av två parallellkopplade seriekretsar med två motstånd i varje. Spänningen ``U_0`` läggs på från utsidan. Denna \"mätbrygga\" används för att bestämma resistanser - om till exempel tre resistanser är kända kan den fjärde bestämmas genom att justera bryggan.",
        "showI-switch": "Visa aktuella nivåer",
        "title": "Wheatstone-bryggkrets",
        "menu": "Mätning av ohmska motstånd för elektrisk likström",
        "adjust-with": "Justera med"
    },
    "Xray": {
        "subtitle": "Förenklad bild av ett röntgenrörs emissionsspektrum som en funktion av anodmaterialet och accelerationsspänningen. I simuleringen beaktas endast K~α~- och K~β~-linjen, men inflytandet av högre diffraktionsordningar i mätningen är synligt när spektrumet plottas mot vinkeln.",
        "outputG": "Spektrumgräns",
        "anode": "Anodmaterial",
        "title": "Röntgenrörets spektrum",
        "inputU": "Driftspänning",
        "outputKb": "K~β~ linje",
        "outputKa": "K~α~ linje",
        "outputD": "Rutnätets avstånd",
        "crystal": "Vändande kristall",
        "spectrum": "Rhöntgenspektrum",
        "menu": "Emissionsspektrum från ett röntgenrör med variabel spänning och valbart anodmaterial"
    },
    "Zyklotron": {
        "mode-2": "Relativistisk utan frekvensjustering",
        "subtitle": "Simulering av acceleration i en klassisk cyklotron med konstant frekvens eller en synkroniserad cyklotron som anpassar frekvensen till den relativistiska massökningen.",
        "rmax": "Radius för cyklotron",
        "mode-1": "Relativistisk med frekvensjustering",
        "title": "Cyklotron",
        "mode": "Läge",
        "mode-0": "Klassisk",
        "menu": "Acceleration av protoner i en klassisk eller relativistisk synkrotron"
    },
    "ModalDownloadApp": {
        "i-agree": "Jag har läst ansvarsinformationen och godkänner den.",
        "download-html": "HTML-sida",
        "download-info": "Du kan ladda ner den här appen som ett SCORM-paket (för inlärningssystem som moodle, mebis osv.).",
        "download-warning": "Observera att operatören av denna webbplats inte tar något som helst ansvar för funktion, säkerhet och virusfrihet för de filer som görs tillgängliga för nedladdning."
    },
    "Rcalc": {
        "first-card": "Detaljer om ringarna",
        "resistorvalue": "Resistancevärde",
        "ring-number": "Antal ringar",
        "subtitle": "De elektriska värdena av motstånd kodas ofta med hjälp av färgade ringar. Det finns olika system med vanligtvis fyra, fem eller sex ringar. Detaljer finns i [Wikipedia](https://en.wikipedia.org/wiki/Electronic_color_code#Color_band_system).",
        "temp-coefficient": "Temperaturkoefficient",
        "title": "Färgkodning av motstånd",
        "tolerance": "Tolerans",
        "menu": "Beräkning av motståndsvärdet med hjälp av de färgade ringar",
        "ring100": "Hundradelar",
        "ring1": "De",
        "ringK": "Temp. Koefficient",
        "ringM": "Multiplikator",
        "ringT": "Tolerans",
        "ring10": "Tens"
    },
    "Mandelbrot": {
        "menu": "Se den fascinerande fraktalen - beroende på din dator kan du behöva lite mer tålamod…",
        "title": "Mandelbrotmängden"
    },
    "Substances": {
        "Fe": "Järn",
        "Cu": "Koppar",
        "Rb": "rubidium",
        "Mo": "Molybden",
        "Na": "natrium",
        "Hg": "Kvicksilver",
        "air": "Luft luft",
        "CO2": "Koldioxid (CO₂)",
        "CH4": "Metan (CH₄)",
        "H2": "Vätgas (H₂)",
        "O2": "Syre (O₂)",
        "N2": "Kväve (N₂)",
        "Ar": "Argon (Ar)",
        "He": "Helium (He)",
        "CO": "Kolmonoxid (CO)"
    },
    "Errors": {
        "no-examples-available": "Tyvärr finns det inga exempel på detta ämne tillgängliga på denna server.",
        "load-example": "Tyvärr är det valda exemplet inte längre tillgängligt.",
        "local-load": "Tyvärr kan den lokala filen inte öppnas eftersom den har ett ogiltigt format.",
        "no-game": "Du har ännu inte laddat eller skapat ett spel. Gå till översikten för att få mer information.",
        "video-format-not-supported": "Din webbläsare stöder tyvärr inte detta videoformat. Vänligen prova analysen i en annan webbläsare först - eller konvertera videon till ett annat format.",
        "not-supported-browser": "Tyvärr har din webbläsare ännu inte stöd för den här funktionen.",
        "captcha-expired": "Captcha är inte (längre) giltig",
        "invalid-room-id": "Rummet ID är ogiltigt, starta om programmet.",
        "load-error": "Tyvärr kan programmet inte laddas. Kontrollera din internetanslutning eller den valda filen.",
        "message-invalid-json": "Det meddelande som ska skickas har inte ett giltigt JSON-format",
        "message-invalid-length": "Längden på det meddelande som ska skickas är för lång",
        "no-db-connection": "Anslutningen till databaserna är inte möjlig, starta om programmet.",
        "no-local-sync": "Tyvärr är en gemensam session endast möjlig om programmet startas från en webbserver.",
        "room-expired": "Tyvärr är den gemensamma sessionen inte längre tillgänglig.",
        "room-id-missing": "Rummet var inte specificerat",
        "room-max-number-exceeded": "Det maximala antalet rum har överskridits",
        "server-no-connection": "Tyvärr kan anslutningen till den konfigurerade servern inte upprättas.",
        "server-connection-closed": "Anslutningen till servern har avslutats. Starta om appen.",
        "token-invalid": "Token är inte giltig",
        "no-sync-server": "Ingen synkroniseringsserver finns tillgänglig i konfigurationen.",
        "room-member-limit": "Tyvärr kan inga fler deltagare komma in i detta rum.",
        "room-history-exceeded": "Inga ytterligare meddelanden är möjliga i detta rum.",
        "wrong-app-type": "Den här filen skapades med appen \"{cause}\" och kan bara öppnas med den.",
        "access-forbidden": "Du är inte behörig att visa denna sida.",
        "secret-invalid": "Fel användarnamn eller lösenord",
        "db-duplicate-entry": "En fil med detta namn finns redan på servern – välj en annan.",
        "activity-not-found": "Den angivna aktiviteten har redan tagits bort.",
        "session-invalid": "Din session har gått ut - logga in igen.",
        "password-invalid": "Lösenord uppfyller inte kraven",
        "password-mismatch": "Lösenorden matchar inte",
        "account-locked": "Användare låst",
        "access-denied": "Tillgång nekad",
        "user-invald": "Invalid användarnamn",
        "user-already-exists": "Detta användarnamn är redan taget",
        "user-invalid": "Användar-ID är inte giltig.",
        "local-load-size": "Tyvärr kan den lokala filen inte öppnas eftersom den är för stor.",
        "invalid-action": "Åtgärden kunde inte utföras, vänligen starta om appen.",
        "user-doesnt-exist": "Användaren finns inte (alla).",
        "2fa-already-enabled": "Du har redan skapat tvåfaktorsautentisering för detta konto.",
        "quota-exceeded": "Ditt lagringsutrymme på servern har överskridits.",
        "totp-invalid": "Invalid eller utgången TOTP token",
        "totp-not-available": "Vänligen aktivera tvåfaktorsautentisering i din profil först!",
        "totp-missing": "Vänligen ange en giltig token.",
        "user-login-wait": "Vänta ett ögonblick och upprepa sedan inloggningen.",
        "not-owner": "Endast ägaren till ett rum kan radera det.",
        "user-close-sessions": "Stäng alla andra sessioner först och sedan ladda om den här sidan.",
        "local-load-invalid-id": "Tyvärr kan den lokala filen inte öppnas eftersom ID är ogiltig."
    },
    "User": {
        "password": "Lösenord",
        "user": "Användare",
        "password-info": "Har du inget konto? [Installera](https://codeberg.org/MintApps/client/src/branch/main/INSTALL.md) helt enkelt en separat instans av MintApps på din server 😎",
        "logout": "Logga ut",
        "login": "Logga in",
        "login-info": "Vissa appar från avsnitten \"spel\" och \"verktyg\" gör det möjligt att bjuda in gäster och spara innehåll på servern. För att kunna använda dessa funktioner krävs registrering.",
        "locked": "Låst",
        "confirm-delete": "Vill du verkligen ta bort den här användaren? Observera att alla aktiviteter också raderas permanent.",
        "lastlogin": "Sista inloggningen",
        "admin": "Administratör",
        "reset-password-info": "Glömt ditt lösenord eller ditt konto är låst? Skicka sedan ett e-postmeddelande till den adress som anges i avtrycket.",
        "change-password": "Ändra lösenord",
        "delete-account": "Radera konto",
        "new-password": "Nytt lösenord",
        "repeat-password": "Upprepa lösenord",
        "password-rules": "Ditt lösenord måste innehålla minst en siffra, en siffra och en övre bokstav och vara mellan 8 och 32 tecken lång.",
        "user-rules": "Användar-ID kan innehålla nedre och övre bokstäver, siffror och specialtecken -_.@.",
        "terms": "Användarvillkor",
        "terms-text": "- Aktiviteter lagras okrypterade på servern. Därför får du *inte ange personuppgifter* som namn, adresser eller foton som visar människor.\n- När du använder texter och bilder, respektera de *kopieringsrätter* som är tillämpliga i ditt land. Använd innehåll du har skapat själv eller som har en öppen licens som [CC-BY-SA](https://creativecommons.org/licenses/by-sa/4.0/deed.sv).\n- Om du inte följer dessa regler kommer dina data och ditt konto att tas *bort utan meddelande*.",
        "enable-2fa": "Aktivera 2FA",
        "info-totp": "Skanna koden med en app som stöder TOTP-standarden (tidsbaserad engångslösenord) och ange ett giltigt token för att fortsätta.",
        "info-2fa": "För att öka säkerheten för ditt konto kan du aktivera två faktorautentisering (2FA).",
        "twofactor": "Två faktorautentisering",
        "token": "Token",
        "info-disable-2fa": "Ange ett giltigt TOTP-token för att inaktivera tvåfaktorsautentisering.",
        "disable-2fa": "Inaktivera 2FA",
        "cookie-info": "Observera att när du loggar in, en tekniskt nödvändig session cookie är inställd, som lagras i webbläsaren under en begränsad tid och automatiskt raderas efter stängning."
    },
    "Mathefix": {
        "correct": "Väldigt bra - det är rätt",
        "menu": "Lekfull mental aritmetisk träning",
        "subtitle": "Välj först numret, numret, matematiska operationer och svårighetsgraden för uppgifterna. Tryck sedan på startknappen för att börja träna. Du kan också bjuda in gäster som sedan kan konkurrera med varandra.",
        "title": "Mathefix",
        "calculate": "Beräkning",
        "info-done": "Spelet är över!"
    },
    "Perceptron": {
        "card-input": "Nuvarande datauppsättning",
        "card-data": "Testa datauppsättningar",
        "info-change-net": "Eventuella ändringar av lagren återställer de definierade vikterna i nätverket - så du måste börja träna igen från början. Om du ändrar antalet ingångsnoder raderas alla testdatainställningar också.",
        "input-value": "Inmatningsvärde",
        "target-value": "Target output värde",
        "menu": "Simulering av ett enkelt neuralt nätverk",
        "num-layers": "Antal lager",
        "num-input-nodes": "Antal noder ingång lager",
        "num-hidden-nodes": "Antal noder dolda lager",
        "subtitle": "Simulering av ett förenklat, multilayer neuralt nätverk för att illustrera den grundläggande funktionaliteten. Med hjälp av de angivna exemplen lär du dig hur nätverket utför beräkningen.",
        "title": "Perceptron",
        "no-data": "Det finns för närvarande inga testdatauppsättningar för nätverket. Ange dem i kortet \"Aktuell datauppsättning\" och välj \"lägg till som testdatauppsättning\".",
        "output-value": "Utgångsvärde",
        "weight": "Vikt",
        "input": "Input",
        "input-node": "Ingångsnod med variabelt värde",
        "mse": "Mean squared error",
        "btn-add-data": "lägga till som testdataset",
        "confirm-reset": "Är du säker på att du vill ta bort alla ingångar, vikter och testrekord?",
        "threshold": "Tröskelvärde",
        "show-weights": "Visa vikter"
    },
    "TextBlock": {
        "translation-incomplete": "Tyvärr är följande text ännu inte översatt eller inte helt översatt till ditt språk \"{locale}\":",
        "text-not-found": "Vissa eller alla av följande text är ännu inte tillgängliga.",
        "text-using-other-language": "Hela texten – eller delar – visas i ”{lang}” istället."
    },
    "Storm": {
        "menu": "Kollektiv brainstorming med Markdown och AsciiMath stöd"
    },
    "WaveEquation": {
        "title": "Vågekvation",
        "propagation-speed": "Propagationshastighet",
        "card-location": "Plats kurs",
        "info-card-location": "Förökning av vågen i riktning mot ``x`` axeln markerar korset en specifik partikel vid ``x_0`` position.",
        "card-vector": "Vektordiagram",
        "info-card-vector": "Tidskursen för partikelns oscillation vid den fasta positionen ``x_0``, som visas som ett vektordiagram.",
        "wave-type": "Vågtyp",
        "wave-type-0": "Progessiv våg",
        "wave-type-1": "Stationär våg",
        "menu": "Animering av plats och tid beroende av en framåtskridande eller stående linjär våg"
    },
    "ModalDownloadFile": {
        "file-name": "Filnamn utan förlängning",
        "btn-local": "Ladda ner fil",
        "btn-server": "Ladda upp server",
        "info1": "Om möjligt, undvika att använda speciella tecken i filnamnet, kan du vanligtvis hitta filen i enhetens nedladdningsmapp.",
        "info2": "Det finns i princip två sätt att spara denna aktivitet:\n- Ladda ner en fil i JSON-format, som du kan öppna igen senare i den här appen. Om möjligt, inte använda några speciella tecken i filnamnet.\n- Upload till servern så att den visas på översiktssidan i den här appen och du kan dela den direkt med andra gäster. Du måste vara inloggad för att använda denna funktion.",
        "btn-server-overwrite": "Överskrivning",
        "upload-duplicate": "En fil med samma namn finns redan på servern. Välj ett annat namn eller klicka på \"Overwrite\" om du vill byta ut det."
    },
    "TDChange": {
        "title": "Termodynamisk förändring av staten",
        "subtitle": "Representation av isobariska, isokoriska, isotermiska och adiabatiska statliga förändringar",
        "change": "Förändring av staten",
        "isotherm": "isotermisk",
        "isochor": "isochor",
        "isobar": "isobaric",
        "adiabatic": "adiabatic",
        "card-states": "Statliga variabler och förändringar",
        "card-energy": "Processvariabler",
        "adiabatic-index": "Adiabatisk exponent",
        "units": "Enheter",
        "material": "Gasfyllning",
        "info-energy": "Lägg först till minst en statlig förändring.",
        "heat-capacity": "Specifik värmekapacitet",
        "show-energy": "Visa process variabler",
        "specific-gas-constant": "Specifik gas konstant",
        "confirm-material": "Vill du verkligen ändra gasen? Detta kommer att återställa alla tidigare poster.",
        "eta": "Effektiv",
        "epsilon": "Koefficient för prestanda",
        "menu": "Representation av isobariska, isokoriska, isotermiska och adiabiska förändringar av staten",
        "info-change": "Välj förändring av staten som överförs till det nya tillståndet. När det gäller en isotermisk, isokorisk eller isobarisk statsförändring definierar detta redan en statsvariabel i det nya tillståndet.",
        "short-title": "Termodynamik"
    },
    "ActivityList": {
        "confirm-delete": "Är du säker på att du vill ta bort denna aktivitet?",
        "login": "Logga in först för att se listan över aktiviteter som sparats på servern.",
        "no-activities-available": "Du har ännu inte sparat några aktiviteter på detta ämne på denna server.",
        "title": "Egen verksamhet"
    },
    "UserData": {
        "subtitle": "Översikt över alla filer som du har sparat på servern",
        "no-activities-available": "Du har inte sparat några aktiviteter på denna server ännu."
    },
    "UserAdmin": {
        "title": "Management",
        "subtitle": "Hantering av rum, aktiviteter och användare av den konfigurerade sync-servern",
        "expires": "Förfallotid",
        "created": "Skapa tid",
        "room-name": "Namnnamn",
        "room-type": "Typ",
        "confirm-delete-room": "Vill du verkligen ta bort detta rum?",
        "no-rooms": "Det finns för närvarande inga aktiva rum på servern.",
        "card-rooms": "Lista över aktiva rum",
        "card-activities": "Lista över sparade aktiviteter",
        "edit-user": "Redigera användare",
        "card-users": "Lista över användare",
        "edit-password": "Ställ in nytt lösenord",
        "add-user": "Lägg till en användare",
        "owner": "Ägare",
        "hint-edit-password": "Ändra lösenordet kommer också att återställa någon tvåfaktorsautentisering som kan aktiveras.",
        "no-activities": "Det finns för närvarande inga sparade aktiviteter på servern."
    },
    "UserProfile": {
        "title": "Profil",
        "subtitle": "Hantera din profil på konfigurerad sync server",
        "confirm-delete": "Jag godkänner att mitt konto och all data som lagras på servern raderas.",
        "confirm-password-change": "Ditt lösenord har ändrats framgångsrikt."
    },
    "Hydrogen": {
        "title": "Väteatom",
        "input-n": "Huvudkvantnummer",
        "input-m": "Magnetiskt kvantnummer",
        "menu": "Representation av orbitalerna och vågfunktionerna i väteatomen",
        "input-l": "Sekundärt kvantnummer",
        "angular-function": "Angular beroende av vågfunktionen",
        "distribution-function": "Sannolikhetstäthet i ett plan",
        "plane": "Orientering av planet",
        "radial-function": "Radial del av vågfunktionen"
    },
    "Info": {
        "title": "Om MintApps",
        "menu": "Information och anteckningar om projektet ”MintApps”",
        "subtitle": "MintApps är en samling av olika HTML5-appar för att stödja digitalt lärande och undervisning i tekniska och vetenskapliga ämnen."
    },
    "Documentation": {
        "title": "Kunddokumentation",
        "menu": "Dokumentation för komponenter och bibliotek av MintApps",
        "title-server": "Server dokumentation",
        "menu-server": "Dokumentation av valfri serverapplikation av MintApps"
    },
    "OszillationEquation": {
        "title": "Oscillationsekvation",
        "info-card-time": "Tidskurs av oscillationen, som visas som ett linjediagram",
        "menu": "Animering av tidsberoendet av en harmonisk oscillation som vektor och linjediagram",
        "info-card-vector": "Tidskurs av oscillationen, som visas som en vektordiagram"
    },
    "ImgEncoder": {
        "info-text": "Välj en bild och den konverteras automatiskt.",
        "title": "Base64 bildkodare",
        "menu": "Konvertera dina bilder till Base64-format",
        "subtitle": "Konvertera dina bilder till Base64-format för att använda dem direkt t.ex. på en HTML-sida. Filerna överförs inte till servern, så de förblir uteslutande på din enhet.",
        "compress": "Komprimerad bild",
        "max-size": "Maximal filstorlek",
        "info-compress": "- Komprimering är endast möjligt för png- eller jpg-bilder.\n- Bilden komprimeras endast om filstorleken överstiger det värde du har angett.\n- Endast i detta fall kommer den extra begränsningen av den maximala dimensionen att beaktas.",
        "max-dim": "Maximal dimension"
    }
}
