{
    "ErrorNotFound": {
        "go-home": "на главную страницу",
        "subtitle": "... К сожалению, доступ к этой странице больше невозможен.\nВоспользуйтесь поиском, чтобы найти нужное приложение, или перейдите на стартовую страницу с различными категориями.",
        "title": "Упс…",
        "to-search": "для поиска"
    },
    "FileUpload": {
        "clipboard-no-file": "Буфер обмена не содержит действительного файла.",
        "drag-click-info": "",
        "drag-info": "",
        "local-upload": "Выберите файл",
        "max-file-size": "Файл превышает максимальный размер {size} МБ.",
        "unsupported-file-type": "Этот тип файла не поддерживается."
    },
    "General": {
        "btn-accept": "Возглавить",
        "btn-close": "Закрыть",
        "btn-pause": "Пауза",
        "btn-start": "Старт",
        "btn-stop": "Стоп",
        "no": "Нет",
        "yes": "Да",
        "share": "Поделиться",
        "confirmation": "Подтверждение"
    },
    "Colors": {
        "paletteBlack": "",
        "paletteBlueyellow": "Синие и желтые тона",
        "paletteGrayscale": "Серые тона",
        "paletteMintapps": "MintApps",
        "paletteRainbow": "Радуга",
        "palette": "цветовая палитра"
    },
    "Menus": {
        "index-search": "Поиск ключевых слов во всех приложениях и симуляторах",
        "about": "Оттиск",
        "contrast": "контраст",
        "dark": "темный",
        "download": "Скачать",
        "games": "Игры",
        "home": "Домашняя страница",
        "light": "яркий",
        "locale": "Язык",
        "menu": "Меню",
        "physics": "Физика",
        "privacy": "Защита данных",
        "tools": "Инструменты",
        "informatics": "Информатика",
        "mathematics": "Математика"
    },
    "ModalDialog": {
        "accept": "Продолжить"
    },
    "News": {
        "menu": ""
    },
    "NoMathML": {
        "info": "Вы используете устаревший браузер, который не поддерживает или поддерживает лишь частично стандарт *MathML* для отображения формул.\n\nПожалуйста, используйте текущую версию Firefox, Safari, Chrome или Edge для этой страницы."
    },
    "ScreenReader": {
        "read": "Читайте вслух",
        "canvas": "Интерактивная графика {name}",
        "card": "Карта",
        "button": "Кнопка"
    },
    "Search": {
        "no-result": "К сожалению, для вашего поискового запроса не найдено результатов. Обратите внимание, что поиск будет осуществляться только на выбранном вами языке.",
        "search-key": "Поисковое выражение",
        "enter-key": "Пожалуйста, введите поисковое слово, чтобы начать поиск.",
        "section-apps": "Приложения и симуляции",
        "title": "Поиск"
    },
    "UnderConstruction": {
        "text": "В настоящее время это приложение находится в стадии разработки. Предположим, что существует множество ошибок…"
    },
    "WaitIcon": {
        "please-wait": "Минутку, пожалуйста…"
    },
    "ModalDownloadApp": {
        "download-warning": "Обратите внимание, что оператор данного сайта не несет никакой ответственности за функциональность, безопасность и отсутствие вирусов в файлах, доступных для скачивания.",
        "download-info": "Вы можете загрузить это приложения либо в виде SCORM-пакета (для систем обучения, таких как moodle, mebis и т.д.), либо в виде HTML-страницы. ",
        "i-agree": "Я ознакомился с уведомлением об ответственности и согласен.",
        "download-html": "HTML-страница"
    },
    "Errors": {
        "captcha-expired": "Капча не действительна (больше не действительна)",
        "invalid-room-id": "ID номера недействительный, пожалуйста, перезапустите приложение.",
        "load-error": "К сожалению, приложение не может быть загружено. Пожалуйста, проверьте подключение к интернету или выбранный файл.",
        "message-invalid-json": "Отправляемое сообщение не имеет действительного формата JSON",
        "message-invalid-length": "Длина отправляемого сообщения слишком велика",
        "no-db-connection": "Подключение к базе данным невозможно, пожалуйста, перезапустите приложение.",
        "no-local-sync": "К сожалению, совместная сессия возможна только в том случае, если приложение запускается с веб-сервера.",
        "room-expired": "К сожалению, совместное заседание больше не доступно.",
        "room-id-missing": "Номер не был указан",
        "room-max-number-exceeded": "Превышено максимальное количество номеров",
        "server-no-connection": "К сожалению, соединение с настроенным сервером не может быть установлено.",
        "server-connection-closed": "Соединение с сервером было прервано. Перезапустите приложения.",
        "token-invalid": "Токен недействителен",
        "no-sync-server": "В конфигурации отсутствует сервер синхронизации.",
        "room-member-limit": "К сожалению, больше никто из участников не может войти в эту комнату.",
        "room-history-exceeded": "В этой комнате дальнейшие сообщения невозможны.",
        "not-owner": "Удалить комнату может только ее владелец."
    }
}